GFORTRAN module version '10' created from /Users/f9y/mygit/clm4_coupled/models/utils/esmf_wrf_timemgr/ESMF_CalendarMod.F90
MD5:cef70b66d68c7892536af6751eb0aec5 -- If you edit this, you'll get what you deserve.

(() () () () () () () () () () () () () () () () () () () () () () ()
() () () ())

()

(('esmf_calendar' 'esmf_calendarmod' 2) ('esmf_calkind_flag'
'esmf_calendarmod' 3))

()

()

()

(2 'Esmf_calendar' 'esmf_calendarmod' '' 1 ((DERIVED UNKNOWN-INTENT
UNKNOWN-PROC UNKNOWN UNKNOWN 0 0 PRIVATE_COMP) (UNKNOWN 0 0 0 0 UNKNOWN
()) 0 0 () () 0 ((4 'type' (DERIVED 3 0 0 0 DERIVED ()) () (UNKNOWN-FL
UNKNOWN-INTENT UNKNOWN-PROC UNKNOWN UNKNOWN 0 0) UNKNOWN-ACCESS ()) (5
'set' (LOGICAL 4 0 0 0 LOGICAL ()) () (UNKNOWN-FL UNKNOWN-INTENT
UNKNOWN-PROC UNKNOWN UNKNOWN 0 0) UNKNOWN-ACCESS (CONSTANT (LOGICAL 4 0
0 0 LOGICAL ()) 0 0)) (6 'dayspermonth' (INTEGER 4 0 0 0 INTEGER ()) (1
0 EXPLICIT (CONSTANT (INTEGER 4 0 0 0 INTEGER ()) 0 '1') (CONSTANT (
INTEGER 4 0 0 0 INTEGER ()) 0 '12')) (UNKNOWN-FL UNKNOWN-INTENT
UNKNOWN-PROC UNKNOWN UNKNOWN 0 0 DIMENSION) UNKNOWN-ACCESS (CONSTANT (
INTEGER 4 0 0 0 INTEGER ()) 0 '0')) (7 'secondsperday' (INTEGER 4 0 0 0
INTEGER ()) () (UNKNOWN-FL UNKNOWN-INTENT UNKNOWN-PROC UNKNOWN UNKNOWN 0
0) UNKNOWN-ACCESS (CONSTANT (INTEGER 4 0 0 0 INTEGER ()) 0 '0')) (8
'secondsperyear' (INTEGER 4 0 0 0 INTEGER ()) () (UNKNOWN-FL
UNKNOWN-INTENT UNKNOWN-PROC UNKNOWN UNKNOWN 0 0) UNKNOWN-ACCESS (
CONSTANT (INTEGER 4 0 0 0 INTEGER ()) 0 '0')) (9 'daysperyear' (DERIVED
10 0 0 0 DERIVED ()) () (UNKNOWN-FL UNKNOWN-INTENT UNKNOWN-PROC UNKNOWN
UNKNOWN 0 0) UNKNOWN-ACCESS (STRUCTURE (DERIVED 10 0 0 0 DERIVED ()) 0 (
((CONSTANT (INTEGER 4 0 0 0 INTEGER ()) 0 '0') ()) ((CONSTANT (INTEGER 4
0 0 0 INTEGER ()) 0 '0') ()) ((CONSTANT (INTEGER 4 0 0 0 INTEGER ()) 0 '1')
())) ()))) PRIVATE (() () () ()) () 0 0 90830691)
3 'Esmf_calkind_flag' 'esmf_calendarmod' '' 1 ((DERIVED UNKNOWN-INTENT
UNKNOWN-PROC UNKNOWN UNKNOWN 0 0 PRIVATE_COMP) (UNKNOWN 0 0 0 0 UNKNOWN
()) 0 0 () () 0 ((11 'caltype' (INTEGER 4 0 0 0 INTEGER ()) () (
UNKNOWN-FL UNKNOWN-INTENT UNKNOWN-PROC UNKNOWN UNKNOWN 0 0)
UNKNOWN-ACCESS ())) PRIVATE (() () () ()) () 0 0 52896814)
12 'daym' 'esmf_calendarmod' '' 1 ((VARIABLE UNKNOWN-INTENT UNKNOWN-PROC
UNKNOWN IMPLICIT-SAVE 0 0 DIMENSION) (INTEGER 4 0 0 0 INTEGER ()) 0 0 ()
(1 0 EXPLICIT (CONSTANT (INTEGER 4 0 0 0 INTEGER ()) 0 '1') (CONSTANT (
INTEGER 4 0 0 0 INTEGER ()) 0 '365')) 0 () () () 0 0)
13 'daymleap' 'esmf_calendarmod' '' 1 ((VARIABLE UNKNOWN-INTENT
UNKNOWN-PROC UNKNOWN IMPLICIT-SAVE 0 0 DIMENSION) (INTEGER 4 0 0 0
INTEGER ()) 0 0 () (1 0 EXPLICIT (CONSTANT (INTEGER 4 0 0 0 INTEGER ())
0 '1') (CONSTANT (INTEGER 4 0 0 0 INTEGER ()) 0 '366')) 0 () () () 0 0)
14 'defaultcal' 'esmf_calendarmod' '' 1 ((VARIABLE UNKNOWN-INTENT
UNKNOWN-PROC UNKNOWN EXPLICIT-SAVE 0 0 POINTER) (DERIVED 2 0 0 0 DERIVED
()) 0 0 () () 0 () () () 0 0)
15 'esmf_calendar' 'esmf_calendarmod' '' 1 ((PROCEDURE UNKNOWN-INTENT
UNKNOWN-PROC DECL UNKNOWN 0 0 FUNCTION GENERIC) (UNKNOWN 0 0 0 0 UNKNOWN
()) 0 0 () () 0 () () () 0 0)
16 'esmf_calendarcreate' 'esmf_calendarmod' '' 1 ((PROCEDURE
UNKNOWN-INTENT MODULE-PROC DECL UNKNOWN 0 0 FUNCTION ALWAYS_EXPLICIT) (
DERIVED 2 0 0 0 DERIVED ()) 17 0 (18 19 20) () 16 () () () 0 0)
21 'esmf_calendarinitialized' 'esmf_calendarmod' '' 1 ((PROCEDURE
UNKNOWN-INTENT MODULE-PROC DECL UNKNOWN 0 0 FUNCTION IMPLICIT_PURE) (
LOGICAL 4 0 0 0 LOGICAL ()) 22 0 (23) () 21 () () () 0 0)
24 'esmf_calkind_360day' 'esmf_calendarmod' '' 1 ((PARAMETER
UNKNOWN-INTENT UNKNOWN-PROC UNKNOWN IMPLICIT-SAVE 0 0) (DERIVED 3 0 0 0
DERIVED ()) 0 0 () (STRUCTURE (DERIVED 3 0 0 0 DERIVED ()) 0 (((
CONSTANT (INTEGER 4 0 0 0 INTEGER ()) 0 '4') ())) ()) () 0 () () () 0 0)
25 'esmf_calkind_flag' 'esmf_calendarmod' '' 1 ((PROCEDURE
UNKNOWN-INTENT UNKNOWN-PROC DECL UNKNOWN 0 0 FUNCTION GENERIC) (UNKNOWN
0 0 0 0 UNKNOWN ()) 0 0 () () 25 () () () 0 0)
26 'esmf_calkind_gregorian' 'esmf_calendarmod' '' 1 ((PARAMETER
UNKNOWN-INTENT UNKNOWN-PROC UNKNOWN IMPLICIT-SAVE 0 0) (DERIVED 3 0 0 0
DERIVED ()) 0 0 () (STRUCTURE (DERIVED 3 0 0 0 DERIVED ()) 0 (((
CONSTANT (INTEGER 4 0 0 0 INTEGER ()) 0 '1') ())) ()) () 0 () () () 0 0)
27 'esmf_calkind_nocalendar' 'esmf_calendarmod' '' 1 ((PARAMETER
UNKNOWN-INTENT UNKNOWN-PROC UNKNOWN IMPLICIT-SAVE 0 0) (DERIVED 3 0 0 0
DERIVED ()) 0 0 () (STRUCTURE (DERIVED 3 0 0 0 DERIVED ()) 0 (((
CONSTANT (INTEGER 4 0 0 0 INTEGER ()) 0 '6') ())) ()) () 0 () () () 0 0)
28 'esmf_calkind_noleap' 'esmf_calendarmod' '' 1 ((PARAMETER
UNKNOWN-INTENT UNKNOWN-PROC UNKNOWN IMPLICIT-SAVE 0 0) (DERIVED 3 0 0 0
DERIVED ()) 0 0 () (STRUCTURE (DERIVED 3 0 0 0 DERIVED ()) 0 (((
CONSTANT (INTEGER 4 0 0 0 INTEGER ()) 0 '3') ())) ()) () 0 () () () 0 0)
29 'mday' 'esmf_calendarmod' '' 1 ((PARAMETER UNKNOWN-INTENT
UNKNOWN-PROC UNKNOWN IMPLICIT-SAVE 0 0 DIMENSION) (INTEGER 4 0 0 0
INTEGER ()) 0 0 () (ARRAY (INTEGER 4 0 0 0 INTEGER ()) 1 (((CONSTANT (
INTEGER 4 0 0 0 INTEGER ()) 0 '31') ()) ((CONSTANT (INTEGER 4 0 0 0
INTEGER ()) 0 '28') ()) ((CONSTANT (INTEGER 4 0 0 0 INTEGER ()) 0 '31')
()) ((CONSTANT (INTEGER 4 0 0 0 INTEGER ()) 0 '30') ()) ((CONSTANT (
INTEGER 4 0 0 0 INTEGER ()) 0 '31') ()) ((CONSTANT (INTEGER 4 0 0 0
INTEGER ()) 0 '30') ()) ((CONSTANT (INTEGER 4 0 0 0 INTEGER ()) 0 '31')
()) ((CONSTANT (INTEGER 4 0 0 0 INTEGER ()) 0 '31') ()) ((CONSTANT (
INTEGER 4 0 0 0 INTEGER ()) 0 '30') ()) ((CONSTANT (INTEGER 4 0 0 0
INTEGER ()) 0 '31') ()) ((CONSTANT (INTEGER 4 0 0 0 INTEGER ()) 0 '30')
()) ((CONSTANT (INTEGER 4 0 0 0 INTEGER ()) 0 '31') ())) ('12')) (1 0
EXPLICIT (CONSTANT (INTEGER 4 0 0 0 INTEGER ()) 0 '1') (CONSTANT (
INTEGER 4 0 0 0 INTEGER ()) 0 '12')) 0 () () () 0 0)
30 'mdaycum' 'esmf_calendarmod' '' 1 ((VARIABLE UNKNOWN-INTENT
UNKNOWN-PROC UNKNOWN IMPLICIT-SAVE 0 0 DIMENSION) (INTEGER 4 0 0 0
INTEGER ()) 0 0 () (1 0 EXPLICIT (CONSTANT (INTEGER 4 0 0 0 INTEGER ())
0 '0') (CONSTANT (INTEGER 4 0 0 0 INTEGER ()) 0 '12')) 0 () () () 0 0)
31 'mdayleap' 'esmf_calendarmod' '' 1 ((PARAMETER UNKNOWN-INTENT
UNKNOWN-PROC UNKNOWN IMPLICIT-SAVE 0 0 DIMENSION) (INTEGER 4 0 0 0
INTEGER ()) 0 0 () (ARRAY (INTEGER 4 0 0 0 INTEGER ()) 1 (((CONSTANT (
INTEGER 4 0 0 0 INTEGER ()) 0 '31') ()) ((CONSTANT (INTEGER 4 0 0 0
INTEGER ()) 0 '29') ()) ((CONSTANT (INTEGER 4 0 0 0 INTEGER ()) 0 '31')
()) ((CONSTANT (INTEGER 4 0 0 0 INTEGER ()) 0 '30') ()) ((CONSTANT (
INTEGER 4 0 0 0 INTEGER ()) 0 '31') ()) ((CONSTANT (INTEGER 4 0 0 0
INTEGER ()) 0 '30') ()) ((CONSTANT (INTEGER 4 0 0 0 INTEGER ()) 0 '31')
()) ((CONSTANT (INTEGER 4 0 0 0 INTEGER ()) 0 '31') ()) ((CONSTANT (
INTEGER 4 0 0 0 INTEGER ()) 0 '30') ()) ((CONSTANT (INTEGER 4 0 0 0
INTEGER ()) 0 '31') ()) ((CONSTANT (INTEGER 4 0 0 0 INTEGER ()) 0 '30')
()) ((CONSTANT (INTEGER 4 0 0 0 INTEGER ()) 0 '31') ())) ('12')) (1 0
EXPLICIT (CONSTANT (INTEGER 4 0 0 0 INTEGER ()) 0 '1') (CONSTANT (
INTEGER 4 0 0 0 INTEGER ()) 0 '12')) 0 () () () 0 0)
32 'mdayleapcum' 'esmf_calendarmod' '' 1 ((VARIABLE UNKNOWN-INTENT
UNKNOWN-PROC UNKNOWN IMPLICIT-SAVE 0 0 DIMENSION) (INTEGER 4 0 0 0
INTEGER ()) 0 0 () (1 0 EXPLICIT (CONSTANT (INTEGER 4 0 0 0 INTEGER ())
0 '0') (CONSTANT (INTEGER 4 0 0 0 INTEGER ()) 0 '12')) 0 () () () 0 0)
33 'monthbdys' 'esmf_calendarmod' '' 1 ((VARIABLE UNKNOWN-INTENT
UNKNOWN-PROC UNKNOWN IMPLICIT-SAVE 0 0 DIMENSION TARGET) (DERIVED 34 0 0
0 DERIVED ()) 0 0 () (1 0 EXPLICIT (CONSTANT (INTEGER 4 0 0 0 INTEGER ())
0 '0') (CONSTANT (INTEGER 4 0 0 0 INTEGER ()) 0 '12')) 0 () () () 0 0)
35 'monthbdysleap' 'esmf_calendarmod' '' 1 ((VARIABLE UNKNOWN-INTENT
UNKNOWN-PROC UNKNOWN IMPLICIT-SAVE 0 0 DIMENSION TARGET) (DERIVED 34 0 0
0 DERIVED ()) 0 0 () (1 0 EXPLICIT (CONSTANT (INTEGER 4 0 0 0 INTEGER ())
0 '0') (CONSTANT (INTEGER 4 0 0 0 INTEGER ()) 0 '12')) 0 () () () 0 0)
36 'monthedys' 'esmf_calendarmod' '' 1 ((VARIABLE UNKNOWN-INTENT
UNKNOWN-PROC UNKNOWN IMPLICIT-SAVE 0 0 DIMENSION TARGET) (DERIVED 34 0 0
0 DERIVED ()) 0 0 () (1 0 EXPLICIT (CONSTANT (INTEGER 4 0 0 0 INTEGER ())
0 '0') (CONSTANT (INTEGER 4 0 0 0 INTEGER ()) 0 '12')) 0 () () () 0 0)
37 'monthedysleap' 'esmf_calendarmod' '' 1 ((VARIABLE UNKNOWN-INTENT
UNKNOWN-PROC UNKNOWN IMPLICIT-SAVE 0 0 DIMENSION TARGET) (DERIVED 34 0 0
0 DERIVED ()) 0 0 () (1 0 EXPLICIT (CONSTANT (INTEGER 4 0 0 0 INTEGER ())
0 '0') (CONSTANT (INTEGER 4 0 0 0 INTEGER ()) 0 '12')) 0 () () () 0 0)
38 'months_per_year' 'esmf_calendarmod' '' 1 ((PARAMETER UNKNOWN-INTENT
UNKNOWN-PROC UNKNOWN IMPLICIT-SAVE 0 0) (INTEGER 4 0 0 0 INTEGER ()) 0 0
() (CONSTANT (INTEGER 4 0 0 0 INTEGER ()) 0 '12') () 0 () () () 0 0)
10 'Esmf_daysperyear' 'esmf_calendarmod' '' 1 ((DERIVED UNKNOWN-INTENT
UNKNOWN-PROC UNKNOWN UNKNOWN 0 0 PRIVATE_COMP) (UNKNOWN 0 0 0 0 UNKNOWN
()) 0 0 () () 0 ((39 'd' (INTEGER 4 0 0 0 INTEGER ()) () (UNKNOWN-FL
UNKNOWN-INTENT UNKNOWN-PROC UNKNOWN UNKNOWN 0 0) UNKNOWN-ACCESS (
CONSTANT (INTEGER 4 0 0 0 INTEGER ()) 0 '0')) (40 'dn' (INTEGER 4 0 0 0
INTEGER ()) () (UNKNOWN-FL UNKNOWN-INTENT UNKNOWN-PROC UNKNOWN UNKNOWN 0
0) UNKNOWN-ACCESS (CONSTANT (INTEGER 4 0 0 0 INTEGER ()) 0 '0')) (41 'dd'
(INTEGER 4 0 0 0 INTEGER ()) () (UNKNOWN-FL UNKNOWN-INTENT UNKNOWN-PROC
UNKNOWN UNKNOWN 0 0) UNKNOWN-ACCESS (CONSTANT (INTEGER 4 0 0 0 INTEGER ())
0 '1'))) PRIVATE (() () () ()) () 0 0 24971678)
18 'name' '' '' 17 ((VARIABLE IN UNKNOWN-PROC UNKNOWN UNKNOWN 0 0
OPTIONAL DUMMY) (CHARACTER 1 0 0 0 CHARACTER (())) 0 0 () () 0 () () ()
0 0)
19 'calkindflag' '' '' 17 ((VARIABLE IN UNKNOWN-PROC UNKNOWN UNKNOWN 0 0
DUMMY) (DERIVED 3 0 0 0 DERIVED ()) 0 0 () () 0 () () () 0 0)
20 'rc' '' '' 17 ((VARIABLE OUT UNKNOWN-PROC UNKNOWN UNKNOWN 0 0
OPTIONAL DUMMY) (INTEGER 4 0 0 0 INTEGER ()) 0 0 () () 0 () () () 0 0)
23 'calendar' '' '' 22 ((VARIABLE IN UNKNOWN-PROC UNKNOWN UNKNOWN 0 0
DUMMY) (DERIVED 2 0 0 0 DERIVED ()) 0 0 () () 0 () () () 0 0)
34 'Esmf_basetime' 'esmf_basetimemod' '' 1 ((DERIVED UNKNOWN-INTENT
UNKNOWN-PROC UNKNOWN UNKNOWN 0 0) (UNKNOWN 0 0 0 0 UNKNOWN ()) 0 0 () ()
0 ((42 's' (INTEGER 8 0 0 0 INTEGER ()) () (UNKNOWN-FL UNKNOWN-INTENT
UNKNOWN-PROC UNKNOWN UNKNOWN 0 0) UNKNOWN-ACCESS ()) (43 'sn' (INTEGER 8
0 0 0 INTEGER ()) () (UNKNOWN-FL UNKNOWN-INTENT UNKNOWN-PROC UNKNOWN
UNKNOWN 0 0) UNKNOWN-ACCESS ()) (44 'sd' (INTEGER 8 0 0 0 INTEGER ()) ()
(UNKNOWN-FL UNKNOWN-INTENT UNKNOWN-PROC UNKNOWN UNKNOWN 0 0)
UNKNOWN-ACCESS ())) PUBLIC (() () () ()) () 0 0 28065891)
)

('Esmf_calendar' 0 2 'Esmf_calkind_flag' 0 3 'daym' 0 12 'daymleap' 0 13
'defaultcal' 0 14 'esmf_calendar' 0 15 'esmf_calendarcreate' 0 16
'esmf_calendarinitialized' 0 21 'esmf_calkind_360day' 0 24
'esmf_calkind_flag' 0 25 'esmf_calkind_gregorian' 0 26
'esmf_calkind_nocalendar' 0 27 'esmf_calkind_noleap' 0 28 'mday' 0 29
'mdaycum' 0 30 'mdayleap' 0 31 'mdayleapcum' 0 32 'monthbdys' 0 33
'monthbdysleap' 0 35 'monthedys' 0 36 'monthedysleap' 0 37
'months_per_year' 0 38)
