GFORTRAN module version '10' created from /Users/f9y/mygit/clm4_coupled/models/utils/esmf_wrf_timemgr/ESMF_BaseMod.F90
MD5:005360759b5ce0319e3363c2fd7bfede -- If you edit this, you'll get what you deserve.

(() () () () () () () () () () () () () () () () () () (2 3 4 5 6) (7 8 9
10 11) () () () () () (12 13) ())

()

(('esmf_attribute' 'esmf_basemod' 14) ('esmf_axisindex' 'esmf_basemod'
15) ('esmf_base' 'esmf_basemod' 16) ('esmf_datatype' 'esmf_basemod' 17)
('esmf_datavalue' 'esmf_basemod' 18) ('esmf_logical' 'esmf_basemod' 19)
('esmf_pointer' 'esmf_basemod' 20) ('esmf_status' 'esmf_basemod' 21))

()

()

()

(14 'Esmf_attribute' 'esmf_basemod' '' 1 ((DERIVED UNKNOWN-INTENT
UNKNOWN-PROC UNKNOWN UNKNOWN 0 0 PRIVATE_COMP) (UNKNOWN 0 0 0 0 UNKNOWN
()) 0 0 () () 0 ((22 'attr_name' (CHARACTER 1 0 0 0 CHARACTER ((
CONSTANT (INTEGER 4 0 0 0 INTEGER ()) 0 '128'))) () (UNKNOWN-FL
UNKNOWN-INTENT UNKNOWN-PROC UNKNOWN UNKNOWN 0 0) UNKNOWN-ACCESS ()) (23
'attr_type' (DERIVED 17 0 0 0 DERIVED ()) () (UNKNOWN-FL UNKNOWN-INTENT
UNKNOWN-PROC UNKNOWN UNKNOWN 0 0) UNKNOWN-ACCESS ()) (24 'attr_value' (
DERIVED 18 0 0 0 DERIVED ()) () (UNKNOWN-FL UNKNOWN-INTENT UNKNOWN-PROC
UNKNOWN UNKNOWN 0 0) UNKNOWN-ACCESS ())) PRIVATE (() () () ()) () 0 0
38616554)
15 'Esmf_axisindex' 'esmf_basemod' '' 1 ((DERIVED UNKNOWN-INTENT
UNKNOWN-PROC UNKNOWN UNKNOWN 0 0) (UNKNOWN 0 0 0 0 UNKNOWN ()) 0 0 () ()
0 ((25 'l' (INTEGER 4 0 0 0 INTEGER ()) () (UNKNOWN-FL UNKNOWN-INTENT
UNKNOWN-PROC UNKNOWN UNKNOWN 0 0) UNKNOWN-ACCESS ()) (26 'r' (INTEGER 4
0 0 0 INTEGER ()) () (UNKNOWN-FL UNKNOWN-INTENT UNKNOWN-PROC UNKNOWN
UNKNOWN 0 0) UNKNOWN-ACCESS ()) (27 'max' (INTEGER 4 0 0 0 INTEGER ()) ()
(UNKNOWN-FL UNKNOWN-INTENT UNKNOWN-PROC UNKNOWN UNKNOWN 0 0)
UNKNOWN-ACCESS ()) (28 'decomp' (INTEGER 4 0 0 0 INTEGER ()) () (
UNKNOWN-FL UNKNOWN-INTENT UNKNOWN-PROC UNKNOWN UNKNOWN 0 0)
UNKNOWN-ACCESS ()) (29 'gstart' (INTEGER 4 0 0 0 INTEGER ()) () (
UNKNOWN-FL UNKNOWN-INTENT UNKNOWN-PROC UNKNOWN UNKNOWN 0 0)
UNKNOWN-ACCESS ())) PUBLIC (() () () ()) () 0 0 29944671)
16 'Esmf_base' 'esmf_basemod' '' 1 ((DERIVED UNKNOWN-INTENT UNKNOWN-PROC
UNKNOWN UNKNOWN 0 0 PRIVATE_COMP) (UNKNOWN 0 0 0 0 UNKNOWN ()) 0 0 () ()
0 ((30 'id' (INTEGER 4 0 0 0 INTEGER ()) () (UNKNOWN-FL UNKNOWN-INTENT
UNKNOWN-PROC UNKNOWN UNKNOWN 0 0) UNKNOWN-ACCESS ()) (31 'ref_count' (
INTEGER 4 0 0 0 INTEGER ()) () (UNKNOWN-FL UNKNOWN-INTENT UNKNOWN-PROC
UNKNOWN UNKNOWN 0 0) UNKNOWN-ACCESS ()) (32 'base_status' (DERIVED 21 0
0 0 DERIVED ()) () (UNKNOWN-FL UNKNOWN-INTENT UNKNOWN-PROC UNKNOWN
UNKNOWN 0 0) UNKNOWN-ACCESS ()) (33 'name' (CHARACTER 1 0 0 0 CHARACTER
((CONSTANT (INTEGER 4 0 0 0 INTEGER ()) 0 '128'))) () (UNKNOWN-FL
UNKNOWN-INTENT UNKNOWN-PROC UNKNOWN UNKNOWN 0 0) UNKNOWN-ACCESS ()))
PRIVATE (() () () ()) () 0 0 74290979)
17 'Esmf_datatype' 'esmf_basemod' '' 1 ((DERIVED UNKNOWN-INTENT
UNKNOWN-PROC UNKNOWN UNKNOWN 0 0) (UNKNOWN 0 0 0 0 UNKNOWN ()) 0 0 () ()
0 ((34 'dtype' (INTEGER 4 0 0 0 INTEGER ()) () (UNKNOWN-FL
UNKNOWN-INTENT UNKNOWN-PROC UNKNOWN UNKNOWN 0 0) UNKNOWN-ACCESS ()))
PUBLIC (() () () ()) () 0 0 68201814)
18 'Esmf_datavalue' 'esmf_basemod' '' 1 ((DERIVED UNKNOWN-INTENT
UNKNOWN-PROC UNKNOWN UNKNOWN 0 0 PRIVATE_COMP) (UNKNOWN 0 0 0 0 UNKNOWN
()) 0 0 () () 0 ((35 'dt' (DERIVED 17 0 0 0 DERIVED ()) () (UNKNOWN-FL
UNKNOWN-INTENT UNKNOWN-PROC UNKNOWN UNKNOWN 0 0) UNKNOWN-ACCESS ()) (36
'rank' (INTEGER 4 0 0 0 INTEGER ()) () (UNKNOWN-FL UNKNOWN-INTENT
UNKNOWN-PROC UNKNOWN UNKNOWN 0 0) UNKNOWN-ACCESS ()) (37 'vi' (INTEGER 4
0 0 0 INTEGER ()) () (UNKNOWN-FL UNKNOWN-INTENT UNKNOWN-PROC UNKNOWN
UNKNOWN 0 0) UNKNOWN-ACCESS ())) PRIVATE (() () () ()) () 0 0 77660821)
19 'Esmf_logical' 'esmf_basemod' '' 1 ((DERIVED UNKNOWN-INTENT
UNKNOWN-PROC UNKNOWN UNKNOWN 0 0 PRIVATE_COMP) (UNKNOWN 0 0 0 0 UNKNOWN
()) 0 0 () () 0 ((38 'value' (INTEGER 4 0 0 0 INTEGER ()) () (
UNKNOWN-FL UNKNOWN-INTENT UNKNOWN-PROC UNKNOWN UNKNOWN 0 0)
UNKNOWN-ACCESS ())) PRIVATE (() () () ()) () 0 0 5328567)
20 'Esmf_pointer' 'esmf_basemod' '' 1 ((DERIVED UNKNOWN-INTENT
UNKNOWN-PROC UNKNOWN UNKNOWN 0 0 PRIVATE_COMP) (UNKNOWN 0 0 0 0 UNKNOWN
()) 0 0 () () 0 ((39 'ptr' (INTEGER 8 0 0 0 INTEGER ()) () (UNKNOWN-FL
UNKNOWN-INTENT UNKNOWN-PROC UNKNOWN UNKNOWN 0 0) UNKNOWN-ACCESS ()))
PRIVATE (() () () ()) () 0 0 20783115)
21 'Esmf_status' 'esmf_basemod' '' 1 ((DERIVED UNKNOWN-INTENT
UNKNOWN-PROC UNKNOWN UNKNOWN 0 0 PRIVATE_COMP) (UNKNOWN 0 0 0 0 UNKNOWN
()) 0 0 () () 0 ((40 'status' (INTEGER 4 0 0 0 INTEGER ()) () (
UNKNOWN-FL UNKNOWN-INTENT UNKNOWN-PROC UNKNOWN UNKNOWN 0 0)
UNKNOWN-ACCESS ())) PRIVATE (() () () ()) () 0 0 23483972)
41 'esmf_attribute' 'esmf_basemod' '' 1 ((PROCEDURE UNKNOWN-INTENT
UNKNOWN-PROC DECL UNKNOWN 0 0 FUNCTION GENERIC) (UNKNOWN 0 0 0 0 UNKNOWN
()) 0 0 () () 0 () () () 0 0)
42 'esmf_attributecopy' 'esmf_basemod' '' 1 ((PROCEDURE UNKNOWN-INTENT
MODULE-PROC DECL UNKNOWN 0 0 SUBROUTINE IMPLICIT_PURE ALWAYS_EXPLICIT) (
UNKNOWN 0 0 0 0 UNKNOWN ()) 43 0 (44 45 46 47) () 0 () () () 0 0)
48 'esmf_attributecopyall' 'esmf_basemod' '' 1 ((PROCEDURE
UNKNOWN-INTENT MODULE-PROC DECL UNKNOWN 0 0 SUBROUTINE IMPLICIT_PURE
ALWAYS_EXPLICIT) (UNKNOWN 0 0 0 0 UNKNOWN ()) 49 0 (50 51 52) () 0 () ()
() 0 0)
53 'esmf_attributeget' 'esmf_basemod' '' 1 ((PROCEDURE UNKNOWN-INTENT
MODULE-PROC DECL UNKNOWN 0 0 SUBROUTINE IMPLICIT_PURE ALWAYS_EXPLICIT) (
UNKNOWN 0 0 0 0 UNKNOWN ()) 54 0 (55 56 57 58 59) () 0 () () () 0 0)
60 'esmf_attributegetbynumber' 'esmf_basemod' '' 1 ((PROCEDURE
UNKNOWN-INTENT MODULE-PROC DECL UNKNOWN 0 0 SUBROUTINE IMPLICIT_PURE
ALWAYS_EXPLICIT) (UNKNOWN 0 0 0 0 UNKNOWN ()) 61 0 (62 63 64 65 66 67) ()
0 () () () 0 0)
68 'esmf_attributegetcount' 'esmf_basemod' '' 1 ((PROCEDURE
UNKNOWN-INTENT MODULE-PROC DECL UNKNOWN 0 0 SUBROUTINE IMPLICIT_PURE
ALWAYS_EXPLICIT) (UNKNOWN 0 0 0 0 UNKNOWN ()) 69 0 (70 71 72) () 0 () ()
() 0 0)
73 'esmf_attributegetlist' 'esmf_basemod' '' 1 ((PROCEDURE
UNKNOWN-INTENT MODULE-PROC DECL UNKNOWN 0 0 SUBROUTINE IMPLICIT_PURE
ALWAYS_EXPLICIT) (UNKNOWN 0 0 0 0 UNKNOWN ()) 74 0 (75 76 77 78 79) () 0
() () () 0 0)
80 'esmf_attributegetnamelist' 'esmf_basemod' '' 1 ((PROCEDURE
UNKNOWN-INTENT MODULE-PROC DECL UNKNOWN 0 0 SUBROUTINE IMPLICIT_PURE
ALWAYS_EXPLICIT) (UNKNOWN 0 0 0 0 UNKNOWN ()) 81 0 (82 83 84 85) () 0 ()
() () 0 0)
86 'esmf_attributegetobjectlist' 'esmf_basemod' '' 1 ((PROCEDURE
UNKNOWN-INTENT MODULE-PROC DECL UNKNOWN 0 0 SUBROUTINE IMPLICIT_PURE
ALWAYS_EXPLICIT) (UNKNOWN 0 0 0 0 UNKNOWN ()) 87 0 (88 89 90 91 92) () 0
() () () 0 0)
93 'esmf_attributeset' 'esmf_basemod' '' 1 ((PROCEDURE UNKNOWN-INTENT
MODULE-PROC DECL UNKNOWN 0 0 SUBROUTINE IMPLICIT_PURE ALWAYS_EXPLICIT) (
UNKNOWN 0 0 0 0 UNKNOWN ()) 94 0 (95 96 97 98) () 0 () () () 0 0)
99 'esmf_attributesetlist' 'esmf_basemod' '' 1 ((PROCEDURE
UNKNOWN-INTENT MODULE-PROC DECL UNKNOWN 0 0 SUBROUTINE IMPLICIT_PURE
ALWAYS_EXPLICIT) (UNKNOWN 0 0 0 0 UNKNOWN ()) 100 0 (101 102 103 104) ()
0 () () () 0 0)
105 'esmf_attributesetobjectlist' 'esmf_basemod' '' 1 ((PROCEDURE
UNKNOWN-INTENT MODULE-PROC DECL UNKNOWN 0 0 SUBROUTINE IMPLICIT_PURE
ALWAYS_EXPLICIT) (UNKNOWN 0 0 0 0 UNKNOWN ()) 106 0 (107 108 109 110) ()
0 () () () 0 0)
111 'esmf_axisindex' 'esmf_basemod' '' 1 ((PROCEDURE UNKNOWN-INTENT
UNKNOWN-PROC DECL UNKNOWN 0 0 FUNCTION GENERIC) (UNKNOWN 0 0 0 0 UNKNOWN
()) 0 0 () () 0 () () () 0 0)
112 'esmf_axisindexget' 'esmf_basemod' '' 1 ((PROCEDURE UNKNOWN-INTENT
MODULE-PROC DECL UNKNOWN 0 0 SUBROUTINE IMPLICIT_PURE ALWAYS_EXPLICIT) (
UNKNOWN 0 0 0 0 UNKNOWN ()) 113 0 (114 115 116 117 118 119 120) () 0 ()
() () 0 0)
121 'esmf_bad_pointer' 'esmf_basemod' '' 1 ((PARAMETER UNKNOWN-INTENT
UNKNOWN-PROC UNKNOWN IMPLICIT-SAVE 0 0) (DERIVED 20 0 0 0 DERIVED ()) 0
0 () (STRUCTURE (DERIVED 20 0 0 0 DERIVED ()) 0 (((CONSTANT (INTEGER 8 0
0 0 INTEGER ()) 0 '-1') ())) ()) () 0 () () () 0 0)
122 'esmf_base' 'esmf_basemod' '' 1 ((PROCEDURE UNKNOWN-INTENT
UNKNOWN-PROC DECL UNKNOWN 0 0 FUNCTION GENERIC) (UNKNOWN 0 0 0 0 UNKNOWN
()) 0 0 () () 0 () () () 0 0)
123 'esmf_data_character' 'esmf_basemod' '' 1 ((PARAMETER UNKNOWN-INTENT
UNKNOWN-PROC UNKNOWN IMPLICIT-SAVE 0 0) (DERIVED 17 0 0 0 DERIVED ()) 0
0 () (STRUCTURE (DERIVED 17 0 0 0 DERIVED ()) 0 (((CONSTANT (INTEGER 4 0
0 0 INTEGER ()) 0 '4') ())) ()) () 0 () () () 0 0)
124 'esmf_data_integer' 'esmf_basemod' '' 1 ((PARAMETER UNKNOWN-INTENT
UNKNOWN-PROC UNKNOWN IMPLICIT-SAVE 0 0) (DERIVED 17 0 0 0 DERIVED ()) 0
0 () (STRUCTURE (DERIVED 17 0 0 0 DERIVED ()) 0 (((CONSTANT (INTEGER 4 0
0 0 INTEGER ()) 0 '1') ())) ()) () 0 () () () 0 0)
125 'esmf_data_logical' 'esmf_basemod' '' 1 ((PARAMETER UNKNOWN-INTENT
UNKNOWN-PROC UNKNOWN IMPLICIT-SAVE 0 0) (DERIVED 17 0 0 0 DERIVED ()) 0
0 () (STRUCTURE (DERIVED 17 0 0 0 DERIVED ()) 0 (((CONSTANT (INTEGER 4 0
0 0 INTEGER ()) 0 '3') ())) ()) () 0 () () () 0 0)
126 'esmf_data_real' 'esmf_basemod' '' 1 ((PARAMETER UNKNOWN-INTENT
UNKNOWN-PROC UNKNOWN IMPLICIT-SAVE 0 0) (DERIVED 17 0 0 0 DERIVED ()) 0
0 () (STRUCTURE (DERIVED 17 0 0 0 DERIVED ()) 0 (((CONSTANT (INTEGER 4 0
0 0 INTEGER ()) 0 '2') ())) ()) () 0 () () () 0 0)
127 'esmf_datatype' 'esmf_basemod' '' 1 ((PROCEDURE UNKNOWN-INTENT
UNKNOWN-PROC DECL UNKNOWN 0 0 FUNCTION GENERIC) (UNKNOWN 0 0 0 0 UNKNOWN
()) 0 0 () () 127 () () () 0 0)
128 'esmf_datatypestring' 'esmf_basemod' '' 1 ((PROCEDURE UNKNOWN-INTENT
MODULE-PROC DECL UNKNOWN 0 0 SUBROUTINE ALWAYS_EXPLICIT) (UNKNOWN 0 0 0
0 UNKNOWN ()) 129 0 (130 131 132) () 0 () () () 0 0)
133 'esmf_datavalue' 'esmf_basemod' '' 1 ((PROCEDURE UNKNOWN-INTENT
UNKNOWN-PROC DECL UNKNOWN 0 0 FUNCTION GENERIC) (UNKNOWN 0 0 0 0 UNKNOWN
()) 0 0 () () 0 () () () 0 0)
134 'esmf_failure' 'esmf_basemod' '' 1 ((PARAMETER UNKNOWN-INTENT
UNKNOWN-PROC UNKNOWN IMPLICIT-SAVE 0 0) (INTEGER 4 0 0 0 INTEGER ()) 0 0
() (CONSTANT (INTEGER 4 0 0 0 INTEGER ()) 0 '-1') () 0 () () () 0 0)
135 'esmf_getname' 'esmf_basemod' '' 1 ((PROCEDURE UNKNOWN-INTENT
MODULE-PROC DECL UNKNOWN 0 0 SUBROUTINE IMPLICIT_PURE ALWAYS_EXPLICIT) (
UNKNOWN 0 0 0 0 UNKNOWN ()) 136 0 (137 138 139) () 0 () () () 0 0)
140 'esmf_getpointer' 'esmf_basemod' '' 1 ((PROCEDURE UNKNOWN-INTENT
MODULE-PROC DECL UNKNOWN 0 0 FUNCTION ALWAYS_EXPLICIT) (INTEGER 8 0 0 0
INTEGER ()) 141 0 (142 143) () 140 () () () 0 0)
144 'esmf_kind_c16' 'esmf_basemod' '' 1 ((PARAMETER UNKNOWN-INTENT
UNKNOWN-PROC UNKNOWN IMPLICIT-SAVE 0 0) (INTEGER 4 0 0 0 INTEGER ()) 0 0
() (CONSTANT (INTEGER 4 0 0 0 INTEGER ()) 0 '8') () 0 () () () 0 0)
145 'esmf_kind_c8' 'esmf_basemod' '' 1 ((PARAMETER UNKNOWN-INTENT
UNKNOWN-PROC UNKNOWN IMPLICIT-SAVE 0 0) (INTEGER 4 0 0 0 INTEGER ()) 0 0
() (CONSTANT (INTEGER 4 0 0 0 INTEGER ()) 0 '4') () 0 () () () 0 0)
146 'esmf_kind_i1' 'esmf_basemod' '' 1 ((PARAMETER UNKNOWN-INTENT
UNKNOWN-PROC UNKNOWN IMPLICIT-SAVE 0 0) (INTEGER 4 0 0 0 INTEGER ()) 0 0
() (CONSTANT (INTEGER 4 0 0 0 INTEGER ()) 0 '1') () 0 () () () 0 0)
147 'esmf_kind_i2' 'esmf_basemod' '' 1 ((PARAMETER UNKNOWN-INTENT
UNKNOWN-PROC UNKNOWN IMPLICIT-SAVE 0 0) (INTEGER 4 0 0 0 INTEGER ()) 0 0
() (CONSTANT (INTEGER 4 0 0 0 INTEGER ()) 0 '2') () 0 () () () 0 0)
148 'esmf_kind_i4' 'esmf_basemod' '' 1 ((PARAMETER UNKNOWN-INTENT
UNKNOWN-PROC UNKNOWN IMPLICIT-SAVE 0 0) (INTEGER 4 0 0 0 INTEGER ()) 0 0
() (CONSTANT (INTEGER 4 0 0 0 INTEGER ()) 0 '4') () 0 () () () 0 0)
149 'esmf_kind_i8' 'esmf_basemod' '' 1 ((PARAMETER UNKNOWN-INTENT
UNKNOWN-PROC UNKNOWN IMPLICIT-SAVE 0 0) (INTEGER 4 0 0 0 INTEGER ()) 0 0
() (CONSTANT (INTEGER 4 0 0 0 INTEGER ()) 0 '8') () 0 () () () 0 0)
150 'esmf_kind_r4' 'esmf_basemod' '' 1 ((PARAMETER UNKNOWN-INTENT
UNKNOWN-PROC UNKNOWN IMPLICIT-SAVE 0 0) (INTEGER 4 0 0 0 INTEGER ()) 0 0
() (CONSTANT (INTEGER 4 0 0 0 INTEGER ()) 0 '4') () 0 () () () 0 0)
151 'esmf_kind_r8' 'esmf_basemod' '' 1 ((PARAMETER UNKNOWN-INTENT
UNKNOWN-PROC UNKNOWN IMPLICIT-SAVE 0 0) (INTEGER 4 0 0 0 INTEGER ()) 0 0
() (CONSTANT (INTEGER 4 0 0 0 INTEGER ()) 0 '8') () 0 () () () 0 0)
152 'esmf_logical' 'esmf_basemod' '' 1 ((PROCEDURE UNKNOWN-INTENT
UNKNOWN-PROC DECL UNKNOWN 0 0 FUNCTION GENERIC) (UNKNOWN 0 0 0 0 UNKNOWN
()) 0 0 () () 152 () () () 0 0)
153 'esmf_major_version' 'esmf_basemod' '' 1 ((PARAMETER UNKNOWN-INTENT
UNKNOWN-PROC UNKNOWN IMPLICIT-SAVE 0 0) (INTEGER 4 0 0 0 INTEGER ()) 0 0
() (CONSTANT (INTEGER 4 0 0 0 INTEGER ()) 0 '2') () 0 () () () 0 0)
154 'esmf_maxdecompdim' 'esmf_basemod' '' 1 ((PARAMETER UNKNOWN-INTENT
UNKNOWN-PROC UNKNOWN IMPLICIT-SAVE 0 0) (INTEGER 4 0 0 0 INTEGER ()) 0 0
() (CONSTANT (INTEGER 4 0 0 0 INTEGER ()) 0 '3') () 0 () () () 0 0)
155 'esmf_maxdim' 'esmf_basemod' '' 1 ((PARAMETER UNKNOWN-INTENT
UNKNOWN-PROC UNKNOWN IMPLICIT-SAVE 0 0) (INTEGER 4 0 0 0 INTEGER ()) 0 0
() (CONSTANT (INTEGER 4 0 0 0 INTEGER ()) 0 '7') () 0 () () () 0 0)
156 'esmf_maxgriddim' 'esmf_basemod' '' 1 ((PARAMETER UNKNOWN-INTENT
UNKNOWN-PROC UNKNOWN IMPLICIT-SAVE 0 0) (INTEGER 4 0 0 0 INTEGER ()) 0 0
() (CONSTANT (INTEGER 4 0 0 0 INTEGER ()) 0 '2') () 0 () () () 0 0)
157 'esmf_maxstr' 'esmf_basemod' '' 1 ((PARAMETER UNKNOWN-INTENT
UNKNOWN-PROC UNKNOWN IMPLICIT-SAVE 0 0) (INTEGER 4 0 0 0 INTEGER ()) 0 0
() (CONSTANT (INTEGER 4 0 0 0 INTEGER ()) 0 '128') () 0 () () () 0 0)
158 'esmf_minor_version' 'esmf_basemod' '' 1 ((PARAMETER UNKNOWN-INTENT
UNKNOWN-PROC UNKNOWN IMPLICIT-SAVE 0 0) (INTEGER 4 0 0 0 INTEGER ()) 0 0
() (CONSTANT (INTEGER 4 0 0 0 INTEGER ()) 0 '2') () 0 () () () 0 0)
159 'esmf_null_pointer' 'esmf_basemod' '' 1 ((PARAMETER UNKNOWN-INTENT
UNKNOWN-PROC UNKNOWN IMPLICIT-SAVE 0 0) (DERIVED 20 0 0 0 DERIVED ()) 0
0 () (STRUCTURE (DERIVED 20 0 0 0 DERIVED ()) 0 (((CONSTANT (INTEGER 8 0
0 0 INTEGER ()) 0 '0') ())) ()) () 0 () () () 0 0)
160 'esmf_pointer' 'esmf_basemod' '' 1 ((PROCEDURE UNKNOWN-INTENT
UNKNOWN-PROC DECL UNKNOWN 0 0 FUNCTION GENERIC) (UNKNOWN 0 0 0 0 UNKNOWN
()) 0 0 () () 160 () () () 0 0)
161 'esmf_revision' 'esmf_basemod' '' 1 ((PARAMETER UNKNOWN-INTENT
UNKNOWN-PROC UNKNOWN IMPLICIT-SAVE 0 0) (INTEGER 4 0 0 0 INTEGER ()) 0 0
() (CONSTANT (INTEGER 4 0 0 0 INTEGER ()) 0 '3') () 0 () () () 0 0)
162 'esmf_setname' 'esmf_basemod' '' 1 ((PROCEDURE UNKNOWN-INTENT
MODULE-PROC DECL UNKNOWN 0 0 SUBROUTINE ALWAYS_EXPLICIT) (UNKNOWN 0 0 0
0 UNKNOWN ()) 163 0 (164 165 166 167) () 0 () () () 0 0)
168 'esmf_setnullpointer' 'esmf_basemod' '' 1 ((PROCEDURE UNKNOWN-INTENT
MODULE-PROC DECL UNKNOWN 0 0 SUBROUTINE ALWAYS_EXPLICIT) (UNKNOWN 0 0 0
0 UNKNOWN ()) 169 0 (170 171) () 0 () () () 0 0)
172 'esmf_setpointer' 'esmf_basemod' '' 1 ((PROCEDURE UNKNOWN-INTENT
MODULE-PROC DECL UNKNOWN 0 0 SUBROUTINE ALWAYS_EXPLICIT) (UNKNOWN 0 0 0
0 UNKNOWN ()) 173 0 (174 175 176) () 0 () () () 0 0)
177 'esmf_state_invalid' 'esmf_basemod' '' 1 ((PARAMETER UNKNOWN-INTENT
UNKNOWN-PROC UNKNOWN IMPLICIT-SAVE 0 0) (DERIVED 21 0 0 0 DERIVED ()) 0
0 () (STRUCTURE (DERIVED 21 0 0 0 DERIVED ()) 0 (((CONSTANT (INTEGER 4 0
0 0 INTEGER ()) 0 '6') ())) ()) () 0 () () () 0 0)
178 'esmf_status' 'esmf_basemod' '' 1 ((PROCEDURE UNKNOWN-INTENT
UNKNOWN-PROC DECL UNKNOWN 0 0 FUNCTION GENERIC) (UNKNOWN 0 0 0 0 UNKNOWN
()) 0 0 () () 178 () () () 0 0)
179 'esmf_statusstring' 'esmf_basemod' '' 1 ((PROCEDURE UNKNOWN-INTENT
MODULE-PROC DECL UNKNOWN 0 0 SUBROUTINE ALWAYS_EXPLICIT) (UNKNOWN 0 0 0
0 UNKNOWN ()) 180 0 (181 182 183) () 0 () () () 0 0)
184 'esmf_success' 'esmf_basemod' '' 1 ((PARAMETER UNKNOWN-INTENT
UNKNOWN-PROC UNKNOWN IMPLICIT-SAVE 0 0) (INTEGER 4 0 0 0 INTEGER ()) 0 0
() (CONSTANT (INTEGER 4 0 0 0 INTEGER ()) 0 '0') () 0 () () () 0 0)
185 'esmf_version_string' 'esmf_basemod' '' 1 ((PARAMETER UNKNOWN-INTENT
UNKNOWN-PROC UNKNOWN IMPLICIT-SAVE 0 0) (CHARACTER 1 0 0 0 CHARACTER ((
CONSTANT (INTEGER 4 0 0 0 INTEGER ()) 0 '32'))) 0 0 () (CONSTANT (
CHARACTER 1 0 0 0 CHARACTER (())) 0 32 '2.2.3                           ')
() 0 () () () 0 0)
2 'esmf_aieq' 'esmf_basemod' '' 1 ((PROCEDURE UNKNOWN-INTENT MODULE-PROC
DECL UNKNOWN 0 0 FUNCTION IMPLICIT_PURE) (LOGICAL 4 0 0 0 LOGICAL ())
186 0 (187 188) () 2 () () () 0 0)
3 'esmf_tfeq' 'esmf_basemod' '' 1 ((PROCEDURE UNKNOWN-INTENT MODULE-PROC
DECL UNKNOWN 0 0 FUNCTION IMPLICIT_PURE) (LOGICAL 4 0 0 0 LOGICAL ())
189 0 (190 191) () 3 () () () 0 0)
4 'esmf_pteq' 'esmf_basemod' '' 1 ((PROCEDURE UNKNOWN-INTENT MODULE-PROC
DECL UNKNOWN 0 0 FUNCTION IMPLICIT_PURE) (LOGICAL 4 0 0 0 LOGICAL ())
192 0 (193 194) () 4 () () () 0 0)
5 'esmf_dteq' 'esmf_basemod' '' 1 ((PROCEDURE UNKNOWN-INTENT MODULE-PROC
DECL UNKNOWN 0 0 FUNCTION IMPLICIT_PURE) (LOGICAL 4 0 0 0 LOGICAL ())
195 0 (196 197) () 5 () () () 0 0)
6 'esmf_sfeq' 'esmf_basemod' '' 1 ((PROCEDURE UNKNOWN-INTENT MODULE-PROC
DECL UNKNOWN 0 0 FUNCTION IMPLICIT_PURE) (LOGICAL 4 0 0 0 LOGICAL ())
198 0 (199 200) () 6 () () () 0 0)
7 'esmf_aine' 'esmf_basemod' '' 1 ((PROCEDURE UNKNOWN-INTENT MODULE-PROC
DECL UNKNOWN 0 0 FUNCTION IMPLICIT_PURE) (LOGICAL 4 0 0 0 LOGICAL ())
201 0 (202 203) () 7 () () () 0 0)
8 'esmf_tfne' 'esmf_basemod' '' 1 ((PROCEDURE UNKNOWN-INTENT MODULE-PROC
DECL UNKNOWN 0 0 FUNCTION IMPLICIT_PURE) (LOGICAL 4 0 0 0 LOGICAL ())
204 0 (205 206) () 8 () () () 0 0)
9 'esmf_ptne' 'esmf_basemod' '' 1 ((PROCEDURE UNKNOWN-INTENT MODULE-PROC
DECL UNKNOWN 0 0 FUNCTION IMPLICIT_PURE) (LOGICAL 4 0 0 0 LOGICAL ())
207 0 (208 209) () 9 () () () 0 0)
10 'esmf_dtne' 'esmf_basemod' '' 1 ((PROCEDURE UNKNOWN-INTENT
MODULE-PROC DECL UNKNOWN 0 0 FUNCTION IMPLICIT_PURE) (LOGICAL 4 0 0 0
LOGICAL ()) 210 0 (211 212) () 10 () () () 0 0)
11 'esmf_sfne' 'esmf_basemod' '' 1 ((PROCEDURE UNKNOWN-INTENT
MODULE-PROC DECL UNKNOWN 0 0 FUNCTION IMPLICIT_PURE) (LOGICAL 4 0 0 0
LOGICAL ()) 213 0 (214 215) () 11 () () () 0 0)
12 'esmf_ptas' 'esmf_basemod' '' 1 ((PROCEDURE UNKNOWN-INTENT
MODULE-PROC DECL UNKNOWN 0 0 SUBROUTINE IMPLICIT_PURE) (UNKNOWN 0 0 0 0
UNKNOWN ()) 216 0 (217 218) () 0 () () () 0 0)
13 'esmf_dtas' 'esmf_basemod' '' 1 ((PROCEDURE UNKNOWN-INTENT
MODULE-PROC DECL UNKNOWN 0 0 SUBROUTINE IMPLICIT_PURE) (UNKNOWN 0 0 0 0
UNKNOWN ()) 219 0 (220 221) () 0 () () () 0 0)
44 'name' '' '' 43 ((VARIABLE IN UNKNOWN-PROC UNKNOWN UNKNOWN 0 0 DUMMY)
(CHARACTER 1 0 0 0 CHARACTER (())) 0 0 () () 0 () () () 0 0)
45 'source' '' '' 43 ((VARIABLE IN UNKNOWN-PROC UNKNOWN UNKNOWN 0 0
DUMMY) (DERIVED 16 0 0 0 DERIVED ()) 0 0 () () 0 () () () 0 0)
46 'destination' '' '' 43 ((VARIABLE IN UNKNOWN-PROC UNKNOWN UNKNOWN 0 0
DUMMY) (DERIVED 16 0 0 0 DERIVED ()) 0 0 () () 0 () () () 0 0)
47 'rc' '' '' 43 ((VARIABLE OUT UNKNOWN-PROC UNKNOWN UNKNOWN 0 0
OPTIONAL DUMMY) (INTEGER 4 0 0 0 INTEGER ()) 0 0 () () 0 () () () 0 0)
50 'source' '' '' 49 ((VARIABLE IN UNKNOWN-PROC UNKNOWN UNKNOWN 0 0
DUMMY) (DERIVED 16 0 0 0 DERIVED ()) 0 0 () () 0 () () () 0 0)
51 'destination' '' '' 49 ((VARIABLE IN UNKNOWN-PROC UNKNOWN UNKNOWN 0 0
DUMMY) (DERIVED 16 0 0 0 DERIVED ()) 0 0 () () 0 () () () 0 0)
52 'rc' '' '' 49 ((VARIABLE OUT UNKNOWN-PROC UNKNOWN UNKNOWN 0 0
OPTIONAL DUMMY) (INTEGER 4 0 0 0 INTEGER ()) 0 0 () () 0 () () () 0 0)
55 'anytype' '' '' 54 ((VARIABLE IN UNKNOWN-PROC UNKNOWN UNKNOWN 0 0
DUMMY) (DERIVED 16 0 0 0 DERIVED ()) 0 0 () () 0 () () () 0 0)
56 'name' '' '' 54 ((VARIABLE IN UNKNOWN-PROC UNKNOWN UNKNOWN 0 0 DUMMY)
(CHARACTER 1 0 0 0 CHARACTER (())) 0 0 () () 0 () () () 0 0)
57 'type' '' '' 54 ((VARIABLE OUT UNKNOWN-PROC UNKNOWN UNKNOWN 0 0 DUMMY)
(DERIVED 17 0 0 0 DERIVED ()) 0 0 () () 0 () () () 0 0)
58 'value' '' '' 54 ((VARIABLE OUT UNKNOWN-PROC UNKNOWN UNKNOWN 0 0
DUMMY) (DERIVED 18 0 0 0 DERIVED ()) 0 0 () () 0 () () () 0 0)
59 'rc' '' '' 54 ((VARIABLE OUT UNKNOWN-PROC UNKNOWN UNKNOWN 0 0
OPTIONAL DUMMY) (INTEGER 4 0 0 0 INTEGER ()) 0 0 () () 0 () () () 0 0)
62 'anytype' '' '' 61 ((VARIABLE IN UNKNOWN-PROC UNKNOWN UNKNOWN 0 0
DUMMY) (DERIVED 16 0 0 0 DERIVED ()) 0 0 () () 0 () () () 0 0)
63 'number' '' '' 61 ((VARIABLE IN UNKNOWN-PROC UNKNOWN UNKNOWN 0 0
DUMMY) (INTEGER 4 0 0 0 INTEGER ()) 0 0 () () 0 () () () 0 0)
64 'name' '' '' 61 ((VARIABLE IN UNKNOWN-PROC UNKNOWN UNKNOWN 0 0 DUMMY)
(CHARACTER 1 0 0 0 CHARACTER (())) 0 0 () () 0 () () () 0 0)
65 'type' '' '' 61 ((VARIABLE OUT UNKNOWN-PROC UNKNOWN UNKNOWN 0 0 DUMMY)
(DERIVED 17 0 0 0 DERIVED ()) 0 0 () () 0 () () () 0 0)
66 'value' '' '' 61 ((VARIABLE OUT UNKNOWN-PROC UNKNOWN UNKNOWN 0 0
DUMMY) (DERIVED 18 0 0 0 DERIVED ()) 0 0 () () 0 () () () 0 0)
67 'rc' '' '' 61 ((VARIABLE OUT UNKNOWN-PROC UNKNOWN UNKNOWN 0 0
OPTIONAL DUMMY) (INTEGER 4 0 0 0 INTEGER ()) 0 0 () () 0 () () () 0 0)
70 'anytype' '' '' 69 ((VARIABLE IN UNKNOWN-PROC UNKNOWN UNKNOWN 0 0
DUMMY) (DERIVED 16 0 0 0 DERIVED ()) 0 0 () () 0 () () () 0 0)
71 'count' '' '' 69 ((VARIABLE OUT UNKNOWN-PROC UNKNOWN UNKNOWN 0 0
DUMMY) (INTEGER 4 0 0 0 INTEGER ()) 0 0 () () 0 () () () 0 0)
72 'rc' '' '' 69 ((VARIABLE OUT UNKNOWN-PROC UNKNOWN UNKNOWN 0 0
OPTIONAL DUMMY) (INTEGER 4 0 0 0 INTEGER ()) 0 0 () () 0 () () () 0 0)
75 'anytype' '' '' 74 ((VARIABLE IN UNKNOWN-PROC UNKNOWN UNKNOWN 0 0
DUMMY) (DERIVED 16 0 0 0 DERIVED ()) 0 0 () () 0 () () () 0 0)
76 'namelist' '' '' 74 ((VARIABLE IN UNKNOWN-PROC UNKNOWN UNKNOWN 0 0
DIMENSION DUMMY) (CHARACTER 1 0 0 0 CHARACTER (())) 0 0 () (1 0
ASSUMED_SHAPE (CONSTANT (INTEGER 4 0 0 0 INTEGER ()) 0 '1') ()) 0 () ()
() 0 0)
77 'typelist' '' '' 74 ((VARIABLE OUT UNKNOWN-PROC UNKNOWN UNKNOWN 0 0
DIMENSION DUMMY) (DERIVED 17 0 0 0 DERIVED ()) 0 0 () (1 0 ASSUMED_SHAPE
(CONSTANT (INTEGER 4 0 0 0 INTEGER ()) 0 '1') ()) 0 () () () 0 0)
78 'valuelist' '' '' 74 ((VARIABLE OUT UNKNOWN-PROC UNKNOWN UNKNOWN 0 0
DIMENSION DUMMY) (DERIVED 18 0 0 0 DERIVED ()) 0 0 () (1 0 ASSUMED_SHAPE
(CONSTANT (INTEGER 4 0 0 0 INTEGER ()) 0 '1') ()) 0 () () () 0 0)
79 'rc' '' '' 74 ((VARIABLE OUT UNKNOWN-PROC UNKNOWN UNKNOWN 0 0
OPTIONAL DUMMY) (INTEGER 4 0 0 0 INTEGER ()) 0 0 () () 0 () () () 0 0)
82 'anytype' '' '' 81 ((VARIABLE IN UNKNOWN-PROC UNKNOWN UNKNOWN 0 0
DUMMY) (DERIVED 16 0 0 0 DERIVED ()) 0 0 () () 0 () () () 0 0)
83 'count' '' '' 81 ((VARIABLE OUT UNKNOWN-PROC UNKNOWN UNKNOWN 0 0
DUMMY) (INTEGER 4 0 0 0 INTEGER ()) 0 0 () () 0 () () () 0 0)
84 'namelist' '' '' 81 ((VARIABLE OUT UNKNOWN-PROC UNKNOWN UNKNOWN 0 0
DIMENSION DUMMY) (CHARACTER 1 0 0 0 CHARACTER (())) 0 0 () (1 0
ASSUMED_SHAPE (CONSTANT (INTEGER 4 0 0 0 INTEGER ()) 0 '1') ()) 0 () ()
() 0 0)
85 'rc' '' '' 81 ((VARIABLE OUT UNKNOWN-PROC UNKNOWN UNKNOWN 0 0
OPTIONAL DUMMY) (INTEGER 4 0 0 0 INTEGER ()) 0 0 () () 0 () () () 0 0)
88 'anytypelist' '' '' 87 ((VARIABLE IN UNKNOWN-PROC UNKNOWN UNKNOWN 0 0
DIMENSION DUMMY) (DERIVED 16 0 0 0 DERIVED ()) 0 0 () (1 0 ASSUMED_SHAPE
(CONSTANT (INTEGER 4 0 0 0 INTEGER ()) 0 '1') ()) 0 () () () 0 0)
89 'name' '' '' 87 ((VARIABLE IN UNKNOWN-PROC UNKNOWN UNKNOWN 0 0 DUMMY)
(CHARACTER 1 0 0 0 CHARACTER (())) 0 0 () () 0 () () () 0 0)
90 'typelist' '' '' 87 ((VARIABLE OUT UNKNOWN-PROC UNKNOWN UNKNOWN 0 0
DIMENSION DUMMY) (DERIVED 17 0 0 0 DERIVED ()) 0 0 () (1 0 ASSUMED_SHAPE
(CONSTANT (INTEGER 4 0 0 0 INTEGER ()) 0 '1') ()) 0 () () () 0 0)
91 'valuelist' '' '' 87 ((VARIABLE OUT UNKNOWN-PROC UNKNOWN UNKNOWN 0 0
DIMENSION DUMMY) (DERIVED 18 0 0 0 DERIVED ()) 0 0 () (1 0 ASSUMED_SHAPE
(CONSTANT (INTEGER 4 0 0 0 INTEGER ()) 0 '1') ()) 0 () () () 0 0)
92 'rc' '' '' 87 ((VARIABLE OUT UNKNOWN-PROC UNKNOWN UNKNOWN 0 0
OPTIONAL DUMMY) (INTEGER 4 0 0 0 INTEGER ()) 0 0 () () 0 () () () 0 0)
95 'anytype' '' '' 94 ((VARIABLE IN UNKNOWN-PROC UNKNOWN UNKNOWN 0 0
DUMMY) (DERIVED 16 0 0 0 DERIVED ()) 0 0 () () 0 () () () 0 0)
96 'name' '' '' 94 ((VARIABLE IN UNKNOWN-PROC UNKNOWN UNKNOWN 0 0 DUMMY)
(CHARACTER 1 0 0 0 CHARACTER (())) 0 0 () () 0 () () () 0 0)
97 'value' '' '' 94 ((VARIABLE IN UNKNOWN-PROC UNKNOWN UNKNOWN 0 0 DUMMY)
(DERIVED 18 0 0 0 DERIVED ()) 0 0 () () 0 () () () 0 0)
98 'rc' '' '' 94 ((VARIABLE OUT UNKNOWN-PROC UNKNOWN UNKNOWN 0 0
OPTIONAL DUMMY) (INTEGER 4 0 0 0 INTEGER ()) 0 0 () () 0 () () () 0 0)
101 'anytype' '' '' 100 ((VARIABLE IN UNKNOWN-PROC UNKNOWN UNKNOWN 0 0
DUMMY) (DERIVED 16 0 0 0 DERIVED ()) 0 0 () () 0 () () () 0 0)
102 'namelist' '' '' 100 ((VARIABLE IN UNKNOWN-PROC UNKNOWN UNKNOWN 0 0
DIMENSION DUMMY) (CHARACTER 1 0 0 0 CHARACTER (())) 0 0 () (1 0
ASSUMED_SHAPE (CONSTANT (INTEGER 4 0 0 0 INTEGER ()) 0 '1') ()) 0 () ()
() 0 0)
103 'valuelist' '' '' 100 ((VARIABLE IN UNKNOWN-PROC UNKNOWN UNKNOWN 0 0
DIMENSION DUMMY) (DERIVED 18 0 0 0 DERIVED ()) 0 0 () (1 0 ASSUMED_SHAPE
(CONSTANT (INTEGER 4 0 0 0 INTEGER ()) 0 '1') ()) 0 () () () 0 0)
104 'rc' '' '' 100 ((VARIABLE OUT UNKNOWN-PROC UNKNOWN UNKNOWN 0 0
OPTIONAL DUMMY) (INTEGER 4 0 0 0 INTEGER ()) 0 0 () () 0 () () () 0 0)
107 'anytypelist' '' '' 106 ((VARIABLE IN UNKNOWN-PROC UNKNOWN UNKNOWN 0
0 DIMENSION DUMMY) (DERIVED 16 0 0 0 DERIVED ()) 0 0 () (1 0
ASSUMED_SHAPE (CONSTANT (INTEGER 4 0 0 0 INTEGER ()) 0 '1') ()) 0 () ()
() 0 0)
108 'name' '' '' 106 ((VARIABLE IN UNKNOWN-PROC UNKNOWN UNKNOWN 0 0
DUMMY) (CHARACTER 1 0 0 0 CHARACTER (())) 0 0 () () 0 () () () 0 0)
109 'value' '' '' 106 ((VARIABLE IN UNKNOWN-PROC UNKNOWN UNKNOWN 0 0
DIMENSION DUMMY) (DERIVED 18 0 0 0 DERIVED ()) 0 0 () (1 0 ASSUMED_SHAPE
(CONSTANT (INTEGER 4 0 0 0 INTEGER ()) 0 '1') ()) 0 () () () 0 0)
110 'rc' '' '' 106 ((VARIABLE OUT UNKNOWN-PROC UNKNOWN UNKNOWN 0 0
OPTIONAL DUMMY) (INTEGER 4 0 0 0 INTEGER ()) 0 0 () () 0 () () () 0 0)
114 'ai' '' '' 113 ((VARIABLE INOUT UNKNOWN-PROC UNKNOWN UNKNOWN 0 0
DUMMY) (DERIVED 15 0 0 0 DERIVED ()) 0 0 () () 0 () () () 0 0)
115 'l' '' '' 113 ((VARIABLE OUT UNKNOWN-PROC UNKNOWN UNKNOWN 0 0
OPTIONAL DUMMY) (INTEGER 4 0 0 0 INTEGER ()) 0 0 () () 0 () () () 0 0)
116 'r' '' '' 113 ((VARIABLE OUT UNKNOWN-PROC UNKNOWN UNKNOWN 0 0
OPTIONAL DUMMY) (INTEGER 4 0 0 0 INTEGER ()) 0 0 () () 0 () () () 0 0)
117 'max' '' '' 113 ((VARIABLE OUT UNKNOWN-PROC UNKNOWN UNKNOWN 0 0
OPTIONAL DUMMY) (INTEGER 4 0 0 0 INTEGER ()) 0 0 () () 0 () () () 0 0)
118 'decomp' '' '' 113 ((VARIABLE OUT UNKNOWN-PROC UNKNOWN UNKNOWN 0 0
OPTIONAL DUMMY) (INTEGER 4 0 0 0 INTEGER ()) 0 0 () () 0 () () () 0 0)
119 'gstart' '' '' 113 ((VARIABLE OUT UNKNOWN-PROC UNKNOWN UNKNOWN 0 0
OPTIONAL DUMMY) (INTEGER 4 0 0 0 INTEGER ()) 0 0 () () 0 () () () 0 0)
120 'rc' '' '' 113 ((VARIABLE OUT UNKNOWN-PROC UNKNOWN UNKNOWN 0 0
OPTIONAL DUMMY) (INTEGER 4 0 0 0 INTEGER ()) 0 0 () () 0 () () () 0 0)
130 'datatype' '' '' 129 ((VARIABLE IN UNKNOWN-PROC UNKNOWN UNKNOWN 0 0
DUMMY) (DERIVED 17 0 0 0 DERIVED ()) 0 0 () () 0 () () () 0 0)
131 'string' '' '' 129 ((VARIABLE OUT UNKNOWN-PROC UNKNOWN UNKNOWN 0 0
DUMMY) (CHARACTER 1 0 0 0 CHARACTER (())) 0 0 () () 0 () () () 0 0)
132 'rc' '' '' 129 ((VARIABLE OUT UNKNOWN-PROC UNKNOWN UNKNOWN 0 0
OPTIONAL DUMMY) (INTEGER 4 0 0 0 INTEGER ()) 0 0 () () 0 () () () 0 0)
137 'anytype' '' '' 136 ((VARIABLE IN UNKNOWN-PROC UNKNOWN UNKNOWN 0 0
DUMMY) (DERIVED 16 0 0 0 DERIVED ()) 0 0 () () 0 () () () 0 0)
138 'name' '' '' 136 ((VARIABLE OUT UNKNOWN-PROC UNKNOWN UNKNOWN 0 0
DUMMY) (CHARACTER 1 0 0 0 CHARACTER (())) 0 0 () () 0 () () () 0 0)
139 'rc' '' '' 136 ((VARIABLE OUT UNKNOWN-PROC UNKNOWN UNKNOWN 0 0
OPTIONAL DUMMY) (INTEGER 4 0 0 0 INTEGER ()) 0 0 () () 0 () () () 0 0)
142 'ptype' '' '' 141 ((VARIABLE IN UNKNOWN-PROC UNKNOWN UNKNOWN 0 0
DUMMY) (DERIVED 20 0 0 0 DERIVED ()) 0 0 () () 0 () () () 0 0)
143 'rc' '' '' 141 ((VARIABLE OUT UNKNOWN-PROC UNKNOWN UNKNOWN 0 0
OPTIONAL DUMMY) (INTEGER 4 0 0 0 INTEGER ()) 0 0 () () 0 () () () 0 0)
164 'anytype' '' '' 163 ((VARIABLE UNKNOWN-INTENT UNKNOWN-PROC UNKNOWN
UNKNOWN 0 0 DUMMY) (DERIVED 16 0 0 0 DERIVED ()) 0 0 () () 0 () () () 0
0)
165 'name' '' '' 163 ((VARIABLE IN UNKNOWN-PROC UNKNOWN UNKNOWN 0 0
OPTIONAL DUMMY) (CHARACTER 1 0 0 0 CHARACTER (())) 0 0 () () 0 () () ()
0 0)
166 'namespace' '' '' 163 ((VARIABLE IN UNKNOWN-PROC UNKNOWN UNKNOWN 0 0
OPTIONAL DUMMY) (CHARACTER 1 0 0 0 CHARACTER (())) 0 0 () () 0 () () ()
0 0)
167 'rc' '' '' 163 ((VARIABLE OUT UNKNOWN-PROC UNKNOWN UNKNOWN 0 0
OPTIONAL DUMMY) (INTEGER 4 0 0 0 INTEGER ()) 0 0 () () 0 () () () 0 0)
170 'ptype' '' '' 169 ((VARIABLE UNKNOWN-INTENT UNKNOWN-PROC UNKNOWN
UNKNOWN 0 0 DUMMY) (DERIVED 20 0 0 0 DERIVED ()) 0 0 () () 0 () () () 0
0)
171 'rc' '' '' 169 ((VARIABLE OUT UNKNOWN-PROC UNKNOWN UNKNOWN 0 0
OPTIONAL DUMMY) (INTEGER 4 0 0 0 INTEGER ()) 0 0 () () 0 () () () 0 0)
174 'ptype' '' '' 173 ((VARIABLE UNKNOWN-INTENT UNKNOWN-PROC UNKNOWN
UNKNOWN 0 0 DUMMY) (DERIVED 20 0 0 0 DERIVED ()) 0 0 () () 0 () () () 0
0)
175 'contents' '' '' 173 ((VARIABLE IN UNKNOWN-PROC UNKNOWN UNKNOWN 0 0
DUMMY) (INTEGER 8 0 0 0 INTEGER ()) 0 0 () () 0 () () () 0 0)
176 'rc' '' '' 173 ((VARIABLE OUT UNKNOWN-PROC UNKNOWN UNKNOWN 0 0
OPTIONAL DUMMY) (INTEGER 4 0 0 0 INTEGER ()) 0 0 () () 0 () () () 0 0)
181 'status' '' '' 180 ((VARIABLE IN UNKNOWN-PROC UNKNOWN UNKNOWN 0 0
DUMMY) (DERIVED 21 0 0 0 DERIVED ()) 0 0 () () 0 () () () 0 0)
182 'string' '' '' 180 ((VARIABLE OUT UNKNOWN-PROC UNKNOWN UNKNOWN 0 0
DUMMY) (CHARACTER 1 0 0 0 CHARACTER (())) 0 0 () () 0 () () () 0 0)
183 'rc' '' '' 180 ((VARIABLE OUT UNKNOWN-PROC UNKNOWN UNKNOWN 0 0
OPTIONAL DUMMY) (INTEGER 4 0 0 0 INTEGER ()) 0 0 () () 0 () () () 0 0)
187 'ai1' '' '' 186 ((VARIABLE IN UNKNOWN-PROC UNKNOWN UNKNOWN 0 0 DUMMY)
(DERIVED 15 0 0 0 DERIVED ()) 0 0 () () 0 () () () 0 0)
188 'ai2' '' '' 186 ((VARIABLE IN UNKNOWN-PROC UNKNOWN UNKNOWN 0 0 DUMMY)
(DERIVED 15 0 0 0 DERIVED ()) 0 0 () () 0 () () () 0 0)
190 'tf1' '' '' 189 ((VARIABLE IN UNKNOWN-PROC UNKNOWN UNKNOWN 0 0 DUMMY)
(DERIVED 19 0 0 0 DERIVED ()) 0 0 () () 0 () () () 0 0)
191 'tf2' '' '' 189 ((VARIABLE IN UNKNOWN-PROC UNKNOWN UNKNOWN 0 0 DUMMY)
(DERIVED 19 0 0 0 DERIVED ()) 0 0 () () 0 () () () 0 0)
193 'pt1' '' '' 192 ((VARIABLE IN UNKNOWN-PROC UNKNOWN UNKNOWN 0 0 DUMMY)
(DERIVED 20 0 0 0 DERIVED ()) 0 0 () () 0 () () () 0 0)
194 'pt2' '' '' 192 ((VARIABLE IN UNKNOWN-PROC UNKNOWN UNKNOWN 0 0 DUMMY)
(DERIVED 20 0 0 0 DERIVED ()) 0 0 () () 0 () () () 0 0)
196 'dt1' '' '' 195 ((VARIABLE IN UNKNOWN-PROC UNKNOWN UNKNOWN 0 0 DUMMY)
(DERIVED 17 0 0 0 DERIVED ()) 0 0 () () 0 () () () 0 0)
197 'dt2' '' '' 195 ((VARIABLE IN UNKNOWN-PROC UNKNOWN UNKNOWN 0 0 DUMMY)
(DERIVED 17 0 0 0 DERIVED ()) 0 0 () () 0 () () () 0 0)
199 'sf1' '' '' 198 ((VARIABLE IN UNKNOWN-PROC UNKNOWN UNKNOWN 0 0 DUMMY)
(DERIVED 21 0 0 0 DERIVED ()) 0 0 () () 0 () () () 0 0)
200 'sf2' '' '' 198 ((VARIABLE IN UNKNOWN-PROC UNKNOWN UNKNOWN 0 0 DUMMY)
(DERIVED 21 0 0 0 DERIVED ()) 0 0 () () 0 () () () 0 0)
202 'ai1' '' '' 201 ((VARIABLE IN UNKNOWN-PROC UNKNOWN UNKNOWN 0 0 DUMMY)
(DERIVED 15 0 0 0 DERIVED ()) 0 0 () () 0 () () () 0 0)
203 'ai2' '' '' 201 ((VARIABLE IN UNKNOWN-PROC UNKNOWN UNKNOWN 0 0 DUMMY)
(DERIVED 15 0 0 0 DERIVED ()) 0 0 () () 0 () () () 0 0)
205 'tf1' '' '' 204 ((VARIABLE IN UNKNOWN-PROC UNKNOWN UNKNOWN 0 0 DUMMY)
(DERIVED 19 0 0 0 DERIVED ()) 0 0 () () 0 () () () 0 0)
206 'tf2' '' '' 204 ((VARIABLE IN UNKNOWN-PROC UNKNOWN UNKNOWN 0 0 DUMMY)
(DERIVED 19 0 0 0 DERIVED ()) 0 0 () () 0 () () () 0 0)
208 'pt1' '' '' 207 ((VARIABLE IN UNKNOWN-PROC UNKNOWN UNKNOWN 0 0 DUMMY)
(DERIVED 20 0 0 0 DERIVED ()) 0 0 () () 0 () () () 0 0)
209 'pt2' '' '' 207 ((VARIABLE IN UNKNOWN-PROC UNKNOWN UNKNOWN 0 0 DUMMY)
(DERIVED 20 0 0 0 DERIVED ()) 0 0 () () 0 () () () 0 0)
211 'dt1' '' '' 210 ((VARIABLE IN UNKNOWN-PROC UNKNOWN UNKNOWN 0 0 DUMMY)
(DERIVED 17 0 0 0 DERIVED ()) 0 0 () () 0 () () () 0 0)
212 'dt2' '' '' 210 ((VARIABLE IN UNKNOWN-PROC UNKNOWN UNKNOWN 0 0 DUMMY)
(DERIVED 17 0 0 0 DERIVED ()) 0 0 () () 0 () () () 0 0)
214 'sf1' '' '' 213 ((VARIABLE IN UNKNOWN-PROC UNKNOWN UNKNOWN 0 0 DUMMY)
(DERIVED 21 0 0 0 DERIVED ()) 0 0 () () 0 () () () 0 0)
215 'sf2' '' '' 213 ((VARIABLE IN UNKNOWN-PROC UNKNOWN UNKNOWN 0 0 DUMMY)
(DERIVED 21 0 0 0 DERIVED ()) 0 0 () () 0 () () () 0 0)
217 'ptval' '' '' 216 ((VARIABLE OUT UNKNOWN-PROC UNKNOWN UNKNOWN 0 0
DUMMY) (DERIVED 20 0 0 0 DERIVED ()) 0 0 () () 0 () () () 0 0)
218 'intval' '' '' 216 ((VARIABLE IN UNKNOWN-PROC UNKNOWN UNKNOWN 0 0
DUMMY) (INTEGER 4 0 0 0 INTEGER ()) 0 0 () () 0 () () () 0 0)
220 'intval' '' '' 219 ((VARIABLE OUT UNKNOWN-PROC UNKNOWN UNKNOWN 0 0
DUMMY) (INTEGER 4 0 0 0 INTEGER ()) 0 0 () () 0 () () () 0 0)
221 'dtval' '' '' 219 ((VARIABLE IN UNKNOWN-PROC UNKNOWN UNKNOWN 0 0
DUMMY) (DERIVED 17 0 0 0 DERIVED ()) 0 0 () () 0 () () () 0 0)
)

('Esmf_attribute' 0 14 'Esmf_axisindex' 0 15 'Esmf_base' 0 16
'Esmf_datatype' 0 17 'Esmf_datavalue' 0 18 'Esmf_logical' 0 19
'Esmf_pointer' 0 20 'Esmf_status' 0 21 'esmf_attribute' 0 41
'esmf_attributecopy' 0 42 'esmf_attributecopyall' 0 48 'esmf_attributeget'
0 53 'esmf_attributegetbynumber' 0 60 'esmf_attributegetcount' 0 68
'esmf_attributegetlist' 0 73 'esmf_attributegetnamelist' 0 80
'esmf_attributegetobjectlist' 0 86 'esmf_attributeset' 0 93
'esmf_attributesetlist' 0 99 'esmf_attributesetobjectlist' 0 105
'esmf_axisindex' 0 111 'esmf_axisindexget' 0 112 'esmf_bad_pointer' 0
121 'esmf_base' 0 122 'esmf_data_character' 0 123 'esmf_data_integer' 0
124 'esmf_data_logical' 0 125 'esmf_data_real' 0 126 'esmf_datatype' 0
127 'esmf_datatypestring' 0 128 'esmf_datavalue' 0 133 'esmf_failure' 0
134 'esmf_getname' 0 135 'esmf_getpointer' 0 140 'esmf_kind_c16' 0 144
'esmf_kind_c8' 0 145 'esmf_kind_i1' 0 146 'esmf_kind_i2' 0 147
'esmf_kind_i4' 0 148 'esmf_kind_i8' 0 149 'esmf_kind_r4' 0 150
'esmf_kind_r8' 0 151 'esmf_logical' 0 152 'esmf_major_version' 0 153
'esmf_maxdecompdim' 0 154 'esmf_maxdim' 0 155 'esmf_maxgriddim' 0 156
'esmf_maxstr' 0 157 'esmf_minor_version' 0 158 'esmf_null_pointer' 0 159
'esmf_pointer' 0 160 'esmf_revision' 0 161 'esmf_setname' 0 162
'esmf_setnullpointer' 0 168 'esmf_setpointer' 0 172 'esmf_state_invalid'
0 177 'esmf_status' 0 178 'esmf_statusstring' 0 179 'esmf_success' 0 184
'esmf_version_string' 0 185)
