GFORTRAN module version '10' created from /Users/f9y/mygit/clm4_coupled/models/utils/esmf_wrf_timemgr/ESMF_FractionMod.F90
MD5:0ddd2966508b7ab2ab92b010c21ad52d -- If you edit this, you'll get what you deserve.

(() () () () () () () () () () () () () () () () () () () () () () () ()
() () ())

()

(('esmf_fraction' 'esmf_fractionmod' 2))

()

()

()

(2 'Esmf_fraction' 'esmf_fractionmod' '' 1 ((DERIVED UNKNOWN-INTENT
UNKNOWN-PROC UNKNOWN UNKNOWN 0 0 PRIVATE_COMP) (UNKNOWN 0 0 0 0 UNKNOWN
()) 0 0 () () 0 ((3 'n' (INTEGER 4 0 0 0 INTEGER ()) () (UNKNOWN-FL
UNKNOWN-INTENT UNKNOWN-PROC UNKNOWN UNKNOWN 0 0) UNKNOWN-ACCESS ()) (4 'd'
(INTEGER 4 0 0 0 INTEGER ()) () (UNKNOWN-FL UNKNOWN-INTENT UNKNOWN-PROC
UNKNOWN UNKNOWN 0 0) UNKNOWN-ACCESS ())) PRIVATE (() () () ()) () 0 0
61807459)
5 'esmf_fraction' 'esmf_fractionmod' '' 1 ((PROCEDURE UNKNOWN-INTENT
UNKNOWN-PROC DECL UNKNOWN 0 0 FUNCTION GENERIC) (UNKNOWN 0 0 0 0 UNKNOWN
()) 0 0 () () 0 () () () 0 0)
)

('Esmf_fraction' 0 2 'esmf_fraction' 0 5)
