GFORTRAN module version '10' created from /Users/f9y/mygit/clm4_coupled/models/utils/mct/mct/m_ConvertMaps.F90
MD5:fcb1ca821b3c7cfef4df9c1b862cf32f -- If you edit this, you'll get what you deserve.

(() () () () () () () () () () () () () () () () () () () () () () ()
() () () ())

()

(('globalmaptoglobalsegmap' 'm_convertmaps' 2) ('globalsegmaptoglobalmap'
'm_convertmaps' 3))

()

()

()

(2 'globalmaptoglobalsegmap_' 'm_convertmaps' '' 1 ((PROCEDURE
UNKNOWN-INTENT MODULE-PROC DECL UNKNOWN 0 0 SUBROUTINE) (UNKNOWN 0 0 0 0
UNKNOWN ()) 4 0 (5 6) () 0 () () () 0 0)
3 'globalsegmaptoglobalmap_' 'm_convertmaps' '' 1 ((PROCEDURE
UNKNOWN-INTENT MODULE-PROC DECL UNKNOWN 0 0 SUBROUTINE ALWAYS_EXPLICIT)
(UNKNOWN 0 0 0 0 UNKNOWN ()) 7 0 (8 9 10) () 0 () () () 0 0)
5 'gmap' '' '' 4 ((VARIABLE IN UNKNOWN-PROC UNKNOWN UNKNOWN 0 0 DUMMY) (
DERIVED 11 0 0 0 DERIVED ()) 0 0 () () 0 () () () 0 0)
6 'gsmap' '' '' 4 ((VARIABLE OUT UNKNOWN-PROC UNKNOWN UNKNOWN 0 0 DUMMY)
(DERIVED 12 0 0 0 DERIVED ()) 0 0 () () 0 () () () 0 0)
8 'gsmap' '' '' 7 ((VARIABLE IN UNKNOWN-PROC UNKNOWN UNKNOWN 0 0 DUMMY)
(DERIVED 13 0 0 0 DERIVED ()) 0 0 () () 0 () () () 0 0)
9 'gmap' '' '' 7 ((VARIABLE OUT UNKNOWN-PROC UNKNOWN UNKNOWN 0 0 DUMMY)
(DERIVED 14 0 0 0 DERIVED ()) 0 0 () () 0 () () () 0 0)
10 'status' '' '' 7 ((VARIABLE OUT UNKNOWN-PROC UNKNOWN UNKNOWN 0 0
OPTIONAL DUMMY) (INTEGER 4 0 0 0 INTEGER ()) 0 0 () () 0 () () () 0 0)
11 'Globalmap' 'm_globalmap' '' 4 ((DERIVED UNKNOWN-INTENT UNKNOWN-PROC
UNKNOWN UNKNOWN 0 0 POINTER_COMP) (UNKNOWN 0 0 0 0 UNKNOWN ()) 0 0 () ()
0 ((15 'comp_id' (INTEGER 4 0 0 0 INTEGER ()) () (UNKNOWN-FL
UNKNOWN-INTENT UNKNOWN-PROC UNKNOWN UNKNOWN 0 0) UNKNOWN-ACCESS ()) (16
'gsize' (INTEGER 4 0 0 0 INTEGER ()) () (UNKNOWN-FL UNKNOWN-INTENT
UNKNOWN-PROC UNKNOWN UNKNOWN 0 0) UNKNOWN-ACCESS ()) (17 'lsize' (
INTEGER 4 0 0 0 INTEGER ()) () (UNKNOWN-FL UNKNOWN-INTENT UNKNOWN-PROC
UNKNOWN UNKNOWN 0 0) UNKNOWN-ACCESS ()) (18 'counts' (INTEGER 4 0 0 0
INTEGER ()) (1 0 DEFERRED () ()) (UNKNOWN-FL UNKNOWN-INTENT UNKNOWN-PROC
UNKNOWN UNKNOWN 0 0 DIMENSION POINTER) UNKNOWN-ACCESS ()) (19 'displs' (
INTEGER 4 0 0 0 INTEGER ()) (1 0 DEFERRED () ()) (UNKNOWN-FL
UNKNOWN-INTENT UNKNOWN-PROC UNKNOWN UNKNOWN 0 0 DIMENSION POINTER)
UNKNOWN-ACCESS ())) PUBLIC (() () () ()) () 0 0 55028865)
12 'Globalsegmap' 'm_globalsegmap' '' 4 ((DERIVED UNKNOWN-INTENT
UNKNOWN-PROC UNKNOWN UNKNOWN 0 0 POINTER_COMP) (UNKNOWN 0 0 0 0 UNKNOWN
()) 0 0 () () 0 ((20 'comp_id' (INTEGER 4 0 0 0 INTEGER ()) () (
UNKNOWN-FL UNKNOWN-INTENT UNKNOWN-PROC UNKNOWN UNKNOWN 0 0)
UNKNOWN-ACCESS ()) (21 'ngseg' (INTEGER 4 0 0 0 INTEGER ()) () (
UNKNOWN-FL UNKNOWN-INTENT UNKNOWN-PROC UNKNOWN UNKNOWN 0 0)
UNKNOWN-ACCESS ()) (22 'gsize' (INTEGER 4 0 0 0 INTEGER ()) () (
UNKNOWN-FL UNKNOWN-INTENT UNKNOWN-PROC UNKNOWN UNKNOWN 0 0)
UNKNOWN-ACCESS ()) (23 'start' (INTEGER 4 0 0 0 INTEGER ()) (1 0
DEFERRED () ()) (UNKNOWN-FL UNKNOWN-INTENT UNKNOWN-PROC UNKNOWN UNKNOWN
0 0 DIMENSION POINTER) UNKNOWN-ACCESS ()) (24 'length' (INTEGER 4 0 0 0
INTEGER ()) (1 0 DEFERRED () ()) (UNKNOWN-FL UNKNOWN-INTENT UNKNOWN-PROC
UNKNOWN UNKNOWN 0 0 DIMENSION POINTER) UNKNOWN-ACCESS ()) (25 'pe_loc' (
INTEGER 4 0 0 0 INTEGER ()) (1 0 DEFERRED () ()) (UNKNOWN-FL
UNKNOWN-INTENT UNKNOWN-PROC UNKNOWN UNKNOWN 0 0 DIMENSION POINTER)
UNKNOWN-ACCESS ())) PUBLIC (() () () ()) () 0 0 40927821)
13 'Globalsegmap' 'm_globalsegmap' '' 7 ((DERIVED UNKNOWN-INTENT
UNKNOWN-PROC UNKNOWN UNKNOWN 0 0 POINTER_COMP) (UNKNOWN 0 0 0 0 UNKNOWN
()) 0 0 () () 0 ((26 'comp_id' (INTEGER 4 0 0 0 INTEGER ()) () (
UNKNOWN-FL UNKNOWN-INTENT UNKNOWN-PROC UNKNOWN UNKNOWN 0 0)
UNKNOWN-ACCESS ()) (27 'ngseg' (INTEGER 4 0 0 0 INTEGER ()) () (
UNKNOWN-FL UNKNOWN-INTENT UNKNOWN-PROC UNKNOWN UNKNOWN 0 0)
UNKNOWN-ACCESS ()) (28 'gsize' (INTEGER 4 0 0 0 INTEGER ()) () (
UNKNOWN-FL UNKNOWN-INTENT UNKNOWN-PROC UNKNOWN UNKNOWN 0 0)
UNKNOWN-ACCESS ()) (29 'start' (INTEGER 4 0 0 0 INTEGER ()) (1 0
DEFERRED () ()) (UNKNOWN-FL UNKNOWN-INTENT UNKNOWN-PROC UNKNOWN UNKNOWN
0 0 DIMENSION POINTER) UNKNOWN-ACCESS ()) (30 'length' (INTEGER 4 0 0 0
INTEGER ()) (1 0 DEFERRED () ()) (UNKNOWN-FL UNKNOWN-INTENT UNKNOWN-PROC
UNKNOWN UNKNOWN 0 0 DIMENSION POINTER) UNKNOWN-ACCESS ()) (31 'pe_loc' (
INTEGER 4 0 0 0 INTEGER ()) (1 0 DEFERRED () ()) (UNKNOWN-FL
UNKNOWN-INTENT UNKNOWN-PROC UNKNOWN UNKNOWN 0 0 DIMENSION POINTER)
UNKNOWN-ACCESS ())) PUBLIC (() () () ()) () 0 0 40927821)
14 'Globalmap' 'm_globalmap' '' 7 ((DERIVED UNKNOWN-INTENT UNKNOWN-PROC
UNKNOWN UNKNOWN 0 0 POINTER_COMP) (UNKNOWN 0 0 0 0 UNKNOWN ()) 0 0 () ()
0 ((32 'comp_id' (INTEGER 4 0 0 0 INTEGER ()) () (UNKNOWN-FL
UNKNOWN-INTENT UNKNOWN-PROC UNKNOWN UNKNOWN 0 0) UNKNOWN-ACCESS ()) (33
'gsize' (INTEGER 4 0 0 0 INTEGER ()) () (UNKNOWN-FL UNKNOWN-INTENT
UNKNOWN-PROC UNKNOWN UNKNOWN 0 0) UNKNOWN-ACCESS ()) (34 'lsize' (
INTEGER 4 0 0 0 INTEGER ()) () (UNKNOWN-FL UNKNOWN-INTENT UNKNOWN-PROC
UNKNOWN UNKNOWN 0 0) UNKNOWN-ACCESS ()) (35 'counts' (INTEGER 4 0 0 0
INTEGER ()) (1 0 DEFERRED () ()) (UNKNOWN-FL UNKNOWN-INTENT UNKNOWN-PROC
UNKNOWN UNKNOWN 0 0 DIMENSION POINTER) UNKNOWN-ACCESS ()) (36 'displs' (
INTEGER 4 0 0 0 INTEGER ()) (1 0 DEFERRED () ()) (UNKNOWN-FL
UNKNOWN-INTENT UNKNOWN-PROC UNKNOWN UNKNOWN 0 0 DIMENSION POINTER)
UNKNOWN-ACCESS ())) PUBLIC (() () () ()) () 0 0 55028865)
)

()
