GFORTRAN module version '10' created from /Users/f9y/mygit/clm4_coupled/models/utils/mct/mpeu/m_Filename.F90
MD5:01fc15aa962490f5d6f5564fd84bd9a5 -- If you edit this, you'll get what you deserve.

(() () () () () () () () () () () () () () () () () () () () () () () ()
() () ())

()

(('filename_base' 'm_filename' 2) ('filename_dir' 'm_filename' 3))

()

()

()

(2 'base_' 'm_filename' '' 1 ((PROCEDURE UNKNOWN-INTENT MODULE-PROC DECL
UNKNOWN 0 0 FUNCTION IMPLICIT_PURE ALWAYS_EXPLICIT) (CHARACTER 1 0 0 0
CHARACTER ((FUNCTION (INTEGER 4 0 0 0 INTEGER ()) 0 4 (('' (VARIABLE (
CHARACTER 1 0 0 0 CHARACTER (())) 0 5 ())) ('' ())) '__len_1_i4' 0 'len')))
6 0 (5 7) () 2 () () () 0 0)
3 'dir_' 'm_filename' '' 1 ((PROCEDURE UNKNOWN-INTENT MODULE-PROC DECL
UNKNOWN 0 0 FUNCTION IMPLICIT_PURE) (CHARACTER 1 0 0 0 CHARACTER ((
FUNCTION (INTEGER 4 0 0 0 INTEGER ()) 0 8 (('' (VARIABLE (CHARACTER 1 0
0 0 CHARACTER (())) 0 9 ())) ('' ())) '__len_1_i4' 0 'len'))) 10 0 (9) ()
3 () () () 0 0)
4 'len' '(intrinsic)' '' 6 ((PROCEDURE UNKNOWN-INTENT UNKNOWN-PROC
UNKNOWN UNKNOWN 0 0 FUNCTION) (UNKNOWN 0 0 0 0 UNKNOWN ()) 0 0 () () 4 ()
() () 0 0)
5 'cstr' '' '' 6 ((VARIABLE IN UNKNOWN-PROC UNKNOWN UNKNOWN 0 0 DUMMY) (
CHARACTER 1 0 0 0 CHARACTER (())) 0 0 () () 0 () () () 0 0)
7 'sfx' '' '' 6 ((VARIABLE IN UNKNOWN-PROC UNKNOWN UNKNOWN 0 0 OPTIONAL
DUMMY) (CHARACTER 1 0 0 0 CHARACTER (())) 0 0 () () 0 () () () 0 0)
8 'len' '(intrinsic)' '' 10 ((PROCEDURE UNKNOWN-INTENT UNKNOWN-PROC
UNKNOWN UNKNOWN 0 0 FUNCTION) (UNKNOWN 0 0 0 0 UNKNOWN ()) 0 0 () () 8 ()
() () 0 0)
9 'cstr' '' '' 10 ((VARIABLE IN UNKNOWN-PROC UNKNOWN UNKNOWN 0 0 DUMMY)
(CHARACTER 1 0 0 0 CHARACTER (())) 0 0 () () 0 () () () 0 0)
)

()
