GFORTRAN module version '10' created from /Users/f9y/mygit/clm4_coupled/models/utils/mct/mpeu/m_flow.F90
MD5:b0ca8e8eefa22076d56f42065f12bc27 -- If you edit this, you'll get what you deserve.

(() () () () () () () () () () () () () () () () () () () () () () ()
() () () ())

()

(('flow_ci' 'm_flow' 2) ('flow_co' 'm_flow' 3) ('flow_flush' 'm_flow' 4)
('flow_reset' 'm_flow' 5))

()

()

()

(2 'ci_' 'm_flow' '' 1 ((PROCEDURE UNKNOWN-INTENT MODULE-PROC DECL
UNKNOWN 0 0 SUBROUTINE) (UNKNOWN 0 0 0 0 UNKNOWN ()) 6 0 (7) () 0 () ()
() 0 0)
3 'co_' 'm_flow' '' 1 ((PROCEDURE UNKNOWN-INTENT MODULE-PROC DECL
UNKNOWN 0 0 SUBROUTINE) (UNKNOWN 0 0 0 0 UNKNOWN ()) 8 0 (9) () 0 () ()
() 0 0)
4 'flush_' 'm_flow' '' 1 ((PROCEDURE UNKNOWN-INTENT MODULE-PROC DECL
UNKNOWN 0 0 SUBROUTINE) (UNKNOWN 0 0 0 0 UNKNOWN ()) 10 0 (11) () 0 () ()
() 0 0)
5 'reset_' 'm_flow' '' 1 ((PROCEDURE UNKNOWN-INTENT MODULE-PROC DECL
UNKNOWN 0 0 SUBROUTINE) (UNKNOWN 0 0 0 0 UNKNOWN ()) 0 0 () () 0 () () ()
0 0)
7 'name' '' '' 6 ((VARIABLE IN UNKNOWN-PROC UNKNOWN UNKNOWN 0 0 DUMMY) (
CHARACTER 1 0 0 0 CHARACTER (())) 0 0 () () 0 () () () 0 0)
9 'name' '' '' 8 ((VARIABLE IN UNKNOWN-PROC UNKNOWN UNKNOWN 0 0 DUMMY) (
CHARACTER 1 0 0 0 CHARACTER (())) 0 0 () () 0 () () () 0 0)
11 'lu' '' '' 10 ((VARIABLE IN UNKNOWN-PROC UNKNOWN UNKNOWN 0 0 DUMMY) (
INTEGER 4 0 0 0 INTEGER ()) 0 0 () () 0 () () () 0 0)
)

()
