GFORTRAN module version '10' created from /Users/f9y/mygit/clm4_coupled/models/utils/mct/mpeu/m_List.F90
MD5:a074a38663b01ee830206af3ad3d8f15 -- If you edit this, you'll get what you deserve.

(() () () () () () () () () () () () () () () () () () () () () () ()
() () (2) ())

()

(('allocated' 'm_list' 3) ('append' 'm_list' 4) ('bcast' 'm_list' 5) (
'charbuffersize' 'm_list' 6) ('clean' 'm_list' 7) ('concatenate' 'm_list'
8) ('copy' 'm_list' 2) ('exporttochar' 'm_list' 9) ('exporttostring'
'm_list' 10) ('get' 'm_list' 11 12 13) ('get_indices' 'm_list' 14) (
'getsharedlistindices' 'm_list' 15) ('identical' 'm_list' 16) ('index'
'm_list' 17 18) ('init' 'm_list' 19 20 21) ('list' 'm_list' 22) ('nitem'
'm_list' 23) ('nullify' 'm_list' 24) ('recv' 'm_list' 25) ('send' 'm_list'
26) ('test_indices' 'm_list' 27))

()

()

()

(22 'List' 'm_list' '' 1 ((DERIVED UNKNOWN-INTENT UNKNOWN-PROC UNKNOWN
UNKNOWN 0 0 POINTER_COMP) (UNKNOWN 0 0 0 0 UNKNOWN ()) 0 0 () () 0 ((28
'bf' (CHARACTER 1 0 0 0 CHARACTER ((CONSTANT (INTEGER 4 0 0 0 INTEGER ())
0 '1'))) (1 0 DEFERRED () ()) (UNKNOWN-FL UNKNOWN-INTENT UNKNOWN-PROC
UNKNOWN UNKNOWN 0 0 DIMENSION POINTER) UNKNOWN-ACCESS ()) (29 'lc' (
INTEGER 4 0 0 0 INTEGER ()) (2 0 DEFERRED () () () ()) (UNKNOWN-FL
UNKNOWN-INTENT UNKNOWN-PROC UNKNOWN UNKNOWN 0 0 DIMENSION POINTER)
UNKNOWN-ACCESS ())) PUBLIC (() () () ()) () 0 0 20202829)
30 'list' 'm_list' '' 1 ((PROCEDURE UNKNOWN-INTENT UNKNOWN-PROC DECL
UNKNOWN 0 0 FUNCTION GENERIC) (UNKNOWN 0 0 0 0 UNKNOWN ()) 0 0 () () 0 ()
() () 0 0)
2 'copy_' 'm_list' '' 1 ((PROCEDURE UNKNOWN-INTENT MODULE-PROC DECL
UNKNOWN 0 0 SUBROUTINE) (UNKNOWN 0 0 0 0 UNKNOWN ()) 31 0 (32 33) () 0 ()
() () 0 0)
3 'allocated_' 'm_list' '' 1 ((PROCEDURE UNKNOWN-INTENT MODULE-PROC DECL
UNKNOWN 0 0 FUNCTION IMPLICIT_PURE) (LOGICAL 4 0 0 0 LOGICAL ()) 34 0 (
35) () 3 () () () 0 0)
4 'append_' 'm_list' '' 1 ((PROCEDURE UNKNOWN-INTENT MODULE-PROC DECL
UNKNOWN 0 0 SUBROUTINE) (UNKNOWN 0 0 0 0 UNKNOWN ()) 36 0 (37 38) () 0 ()
() () 0 0)
5 'bcast_' 'm_list' '' 1 ((PROCEDURE UNKNOWN-INTENT MODULE-PROC DECL
UNKNOWN 0 0 SUBROUTINE ALWAYS_EXPLICIT) (UNKNOWN 0 0 0 0 UNKNOWN ()) 39
0 (40 41 42 43) () 0 () () () 0 0)
6 'charbuffersize_' 'm_list' '' 1 ((PROCEDURE UNKNOWN-INTENT MODULE-PROC
DECL UNKNOWN 0 0 FUNCTION) (INTEGER 4 0 0 0 INTEGER ()) 44 0 (45) () 6 ()
() () 0 0)
7 'clean_' 'm_list' '' 1 ((PROCEDURE UNKNOWN-INTENT MODULE-PROC DECL
UNKNOWN 0 0 SUBROUTINE ALWAYS_EXPLICIT) (UNKNOWN 0 0 0 0 UNKNOWN ()) 46
0 (47 48) () 0 () () () 0 0)
8 'concatenate_' 'm_list' '' 1 ((PROCEDURE UNKNOWN-INTENT MODULE-PROC
DECL UNKNOWN 0 0 SUBROUTINE) (UNKNOWN 0 0 0 0 UNKNOWN ()) 49 0 (50 51 52)
() 0 () () () 0 0)
9 'exporttochar_' 'm_list' '' 1 ((PROCEDURE UNKNOWN-INTENT MODULE-PROC
DECL UNKNOWN 0 0 FUNCTION) (CHARACTER 1 0 0 0 CHARACTER ((FUNCTION (
INTEGER 4 0 0 0 INTEGER ()) 0 53 (('' (VARIABLE (CHARACTER 1 0 0 0
CHARACTER ((CONSTANT (INTEGER 4 0 0 0 INTEGER ()) 0 '1'))) 1 54 ((
COMPONENT 22 28 'bf') (ARRAY (FULL 1 2))))) ('' (CONSTANT (INTEGER 4 0 0
0 INTEGER ()) 0 '1')) ('' ())) '' 0 'size'))) 55 0 (54) () 9 () () () 0
0)
10 'exporttostring_' 'm_list' '' 1 ((PROCEDURE UNKNOWN-INTENT
MODULE-PROC DECL UNKNOWN 0 0 FUNCTION) (DERIVED 56 0 0 0 DERIVED ()) 57
0 (58) () 10 () () () 0 0)
11 'getrange_' 'm_list' '' 1 ((PROCEDURE UNKNOWN-INTENT MODULE-PROC DECL
UNKNOWN 0 0 SUBROUTINE) (UNKNOWN 0 0 0 0 UNKNOWN ()) 59 0 (60 61 62 63)
() 0 () () () 0 0)
12 'getall_' 'm_list' '' 1 ((PROCEDURE UNKNOWN-INTENT MODULE-PROC DECL
UNKNOWN 0 0 SUBROUTINE) (UNKNOWN 0 0 0 0 UNKNOWN ()) 64 0 (65 66) () 0 ()
() () 0 0)
13 'get_' 'm_list' '' 1 ((PROCEDURE UNKNOWN-INTENT MODULE-PROC DECL
UNKNOWN 0 0 SUBROUTINE) (UNKNOWN 0 0 0 0 UNKNOWN ()) 67 0 (68 69 70) ()
0 () () () 0 0)
14 'get_indices_' 'm_list' '' 1 ((PROCEDURE UNKNOWN-INTENT MODULE-PROC
DECL UNKNOWN 0 0 SUBROUTINE ALWAYS_EXPLICIT) (UNKNOWN 0 0 0 0 UNKNOWN ())
71 0 (72 73 74) () 0 () () () 0 0)
15 'getsharedlistindices_' 'm_list' '' 1 ((PROCEDURE UNKNOWN-INTENT
MODULE-PROC DECL UNKNOWN 0 0 SUBROUTINE ALWAYS_EXPLICIT) (UNKNOWN 0 0 0
0 UNKNOWN ()) 75 0 (76 77 78 79 80) () 0 () () () 0 0)
16 'identical_' 'm_list' '' 1 ((PROCEDURE UNKNOWN-INTENT MODULE-PROC
DECL UNKNOWN 0 0 FUNCTION) (LOGICAL 4 0 0 0 LOGICAL ()) 81 0 (82 83) ()
16 () () () 0 0)
17 'indexstr_' 'm_list' '' 1 ((PROCEDURE UNKNOWN-INTENT MODULE-PROC DECL
UNKNOWN 0 0 FUNCTION) (INTEGER 4 0 0 0 INTEGER ()) 84 0 (85 86) () 17 ()
() () 0 0)
18 'index_' 'm_list' '' 1 ((PROCEDURE UNKNOWN-INTENT MODULE-PROC DECL
UNKNOWN 0 0 FUNCTION IMPLICIT_PURE) (INTEGER 4 0 0 0 INTEGER ()) 87 0 (
88 89) () 18 () () () 0 0)
19 'initstr1_' 'm_list' '' 1 ((PROCEDURE UNKNOWN-INTENT MODULE-PROC DECL
UNKNOWN 0 0 SUBROUTINE ALWAYS_EXPLICIT) (UNKNOWN 0 0 0 0 UNKNOWN ()) 90
0 (91 92) () 0 () () () 0 0)
20 'initstr_' 'm_list' '' 1 ((PROCEDURE UNKNOWN-INTENT MODULE-PROC DECL
UNKNOWN 0 0 SUBROUTINE) (UNKNOWN 0 0 0 0 UNKNOWN ()) 93 0 (94 95) () 0 ()
() () 0 0)
21 'init_' 'm_list' '' 1 ((PROCEDURE UNKNOWN-INTENT MODULE-PROC DECL
UNKNOWN 0 0 SUBROUTINE) (UNKNOWN 0 0 0 0 UNKNOWN ()) 96 0 (97 98) () 0 ()
() () 0 0)
23 'nitem_' 'm_list' '' 1 ((PROCEDURE UNKNOWN-INTENT MODULE-PROC DECL
UNKNOWN 0 0 FUNCTION IMPLICIT_PURE) (INTEGER 4 0 0 0 INTEGER ()) 99 0 (
100) () 23 () () () 0 0)
24 'nullify_' 'm_list' '' 1 ((PROCEDURE UNKNOWN-INTENT MODULE-PROC DECL
UNKNOWN 0 0 SUBROUTINE IMPLICIT_PURE) (UNKNOWN 0 0 0 0 UNKNOWN ()) 101 0
(102) () 0 () () () 0 0)
25 'recv_' 'm_list' '' 1 ((PROCEDURE UNKNOWN-INTENT MODULE-PROC DECL
UNKNOWN 0 0 SUBROUTINE ALWAYS_EXPLICIT) (UNKNOWN 0 0 0 0 UNKNOWN ()) 103
0 (104 105 106 107 108) () 0 () () () 0 0)
26 'send_' 'm_list' '' 1 ((PROCEDURE UNKNOWN-INTENT MODULE-PROC DECL
UNKNOWN 0 0 SUBROUTINE ALWAYS_EXPLICIT) (UNKNOWN 0 0 0 0 UNKNOWN ()) 109
0 (110 111 112 113 114) () 0 () () () 0 0)
27 'test_indices_' 'm_list' '' 1 ((PROCEDURE UNKNOWN-INTENT MODULE-PROC
DECL UNKNOWN 0 0 SUBROUTINE ALWAYS_EXPLICIT) (UNKNOWN 0 0 0 0 UNKNOWN ())
115 0 (116 117 118) () 0 () () () 0 0)
32 'yl' '' '' 31 ((VARIABLE OUT UNKNOWN-PROC UNKNOWN UNKNOWN 0 0 DUMMY)
(DERIVED 22 0 0 0 DERIVED ()) 0 0 () () 0 () () () 0 0)
33 'xl' '' '' 31 ((VARIABLE IN UNKNOWN-PROC UNKNOWN UNKNOWN 0 0 DUMMY) (
DERIVED 22 0 0 0 DERIVED ()) 0 0 () () 0 () () () 0 0)
35 'inlist' '' '' 34 ((VARIABLE IN UNKNOWN-PROC UNKNOWN UNKNOWN 0 0
DUMMY) (DERIVED 22 0 0 0 DERIVED ()) 0 0 () () 0 () () () 0 0)
37 'ilist1' '' '' 36 ((VARIABLE INOUT UNKNOWN-PROC UNKNOWN UNKNOWN 0 0
DUMMY) (DERIVED 22 0 0 0 DERIVED ()) 0 0 () () 0 () () () 0 0)
38 'ilist2' '' '' 36 ((VARIABLE IN UNKNOWN-PROC UNKNOWN UNKNOWN 0 0
DUMMY) (DERIVED 22 0 0 0 DERIVED ()) 0 0 () () 0 () () () 0 0)
40 'iolist' '' '' 39 ((VARIABLE INOUT UNKNOWN-PROC UNKNOWN UNKNOWN 0 0
DUMMY) (DERIVED 22 0 0 0 DERIVED ()) 0 0 () () 0 () () () 0 0)
41 'root' '' '' 39 ((VARIABLE IN UNKNOWN-PROC UNKNOWN UNKNOWN 0 0 DUMMY)
(INTEGER 4 0 0 0 INTEGER ()) 0 0 () () 0 () () () 0 0)
42 'comm' '' '' 39 ((VARIABLE IN UNKNOWN-PROC UNKNOWN UNKNOWN 0 0 DUMMY)
(INTEGER 4 0 0 0 INTEGER ()) 0 0 () () 0 () () () 0 0)
43 'status' '' '' 39 ((VARIABLE OUT UNKNOWN-PROC UNKNOWN UNKNOWN 0 0
OPTIONAL DUMMY) (INTEGER 4 0 0 0 INTEGER ()) 0 0 () () 0 () () () 0 0)
45 'inlist' '' '' 44 ((VARIABLE IN UNKNOWN-PROC UNKNOWN UNKNOWN 0 0
DUMMY) (DERIVED 22 0 0 0 DERIVED ()) 0 0 () () 0 () () () 0 0)
47 'alist' '' '' 46 ((VARIABLE INOUT UNKNOWN-PROC UNKNOWN UNKNOWN 0 0
DUMMY) (DERIVED 22 0 0 0 DERIVED ()) 0 0 () () 0 () () () 0 0)
48 'stat' '' '' 46 ((VARIABLE OUT UNKNOWN-PROC UNKNOWN UNKNOWN 0 0
OPTIONAL DUMMY) (INTEGER 4 0 0 0 INTEGER ()) 0 0 () () 0 () () () 0 0)
50 'ilist1' '' '' 49 ((VARIABLE IN UNKNOWN-PROC UNKNOWN UNKNOWN 0 0
DUMMY) (DERIVED 22 0 0 0 DERIVED ()) 0 0 () () 0 () () () 0 0)
51 'ilist2' '' '' 49 ((VARIABLE IN UNKNOWN-PROC UNKNOWN UNKNOWN 0 0
DUMMY) (DERIVED 22 0 0 0 DERIVED ()) 0 0 () () 0 () () () 0 0)
52 'olist' '' '' 49 ((VARIABLE OUT UNKNOWN-PROC UNKNOWN UNKNOWN 0 0
DUMMY) (DERIVED 22 0 0 0 DERIVED ()) 0 0 () () 0 () () () 0 0)
53 'size' '(intrinsic)' '' 55 ((PROCEDURE UNKNOWN-INTENT UNKNOWN-PROC
UNKNOWN UNKNOWN 0 0 FUNCTION) (UNKNOWN 0 0 0 0 UNKNOWN ()) 0 0 () () 53
() () () 0 0)
54 'inlist' '' '' 55 ((VARIABLE IN UNKNOWN-PROC UNKNOWN UNKNOWN 0 0
DUMMY) (DERIVED 22 0 0 0 DERIVED ()) 0 0 () () 0 () () () 0 0)
56 'String' 'm_string' '' 57 ((DERIVED UNKNOWN-INTENT UNKNOWN-PROC
UNKNOWN UNKNOWN 0 0 POINTER_COMP) (UNKNOWN 0 0 0 0 UNKNOWN ()) 0 0 () ()
0 ((119 'c' (CHARACTER 1 0 0 0 CHARACTER ((CONSTANT (INTEGER 4 0 0 0
INTEGER ()) 0 '1'))) (1 0 DEFERRED () ()) (UNKNOWN-FL UNKNOWN-INTENT
UNKNOWN-PROC UNKNOWN UNKNOWN 0 0 DIMENSION POINTER) UNKNOWN-ACCESS ()))
PUBLIC (() () () ()) () 0 0 83166477)
58 'inlist' '' '' 57 ((VARIABLE IN UNKNOWN-PROC UNKNOWN UNKNOWN 0 0
DUMMY) (DERIVED 22 0 0 0 DERIVED ()) 0 0 () () 0 () () () 0 0)
60 'itemstr' '' '' 59 ((VARIABLE OUT UNKNOWN-PROC UNKNOWN UNKNOWN 0 0
DUMMY) (DERIVED 120 0 0 0 DERIVED ()) 0 0 () () 0 () () () 0 0)
61 'i1' '' '' 59 ((VARIABLE IN UNKNOWN-PROC UNKNOWN UNKNOWN 0 0 DUMMY) (
INTEGER 4 0 0 0 INTEGER ()) 0 0 () () 0 () () () 0 0)
62 'i2' '' '' 59 ((VARIABLE IN UNKNOWN-PROC UNKNOWN UNKNOWN 0 0 DUMMY) (
INTEGER 4 0 0 0 INTEGER ()) 0 0 () () 0 () () () 0 0)
63 'alist' '' '' 59 ((VARIABLE IN UNKNOWN-PROC UNKNOWN UNKNOWN 0 0 DUMMY)
(DERIVED 22 0 0 0 DERIVED ()) 0 0 () () 0 () () () 0 0)
65 'itemstr' '' '' 64 ((VARIABLE OUT UNKNOWN-PROC UNKNOWN UNKNOWN 0 0
DUMMY) (DERIVED 121 0 0 0 DERIVED ()) 0 0 () () 0 () () () 0 0)
66 'alist' '' '' 64 ((VARIABLE IN UNKNOWN-PROC UNKNOWN UNKNOWN 0 0 DUMMY)
(DERIVED 22 0 0 0 DERIVED ()) 0 0 () () 0 () () () 0 0)
68 'itemstr' '' '' 67 ((VARIABLE OUT UNKNOWN-PROC UNKNOWN UNKNOWN 0 0
DUMMY) (DERIVED 122 0 0 0 DERIVED ()) 0 0 () () 0 () () () 0 0)
69 'ith' '' '' 67 ((VARIABLE IN UNKNOWN-PROC UNKNOWN UNKNOWN 0 0 DUMMY)
(INTEGER 4 0 0 0 INTEGER ()) 0 0 () () 0 () () () 0 0)
70 'alist' '' '' 67 ((VARIABLE IN UNKNOWN-PROC UNKNOWN UNKNOWN 0 0 DUMMY)
(DERIVED 22 0 0 0 DERIVED ()) 0 0 () () 0 () () () 0 0)
72 'indices' '' '' 71 ((VARIABLE UNKNOWN-INTENT UNKNOWN-PROC UNKNOWN
UNKNOWN 0 0 DIMENSION POINTER DUMMY) (INTEGER 4 0 0 0 INTEGER ()) 0 0 ()
(1 0 DEFERRED () ()) 0 () () () 0 0)
73 'alist' '' '' 71 ((VARIABLE IN UNKNOWN-PROC UNKNOWN UNKNOWN 0 0 DUMMY)
(DERIVED 22 0 0 0 DERIVED ()) 0 0 () () 0 () () () 0 0)
74 'values' '' '' 71 ((VARIABLE IN UNKNOWN-PROC UNKNOWN UNKNOWN 0 0
DUMMY) (CHARACTER 1 0 0 0 CHARACTER (())) 0 0 () () 0 () () () 0 0)
76 'list1' '' '' 75 ((VARIABLE IN UNKNOWN-PROC UNKNOWN UNKNOWN 0 0 DUMMY)
(DERIVED 22 0 0 0 DERIVED ()) 0 0 () () 0 () () () 0 0)
77 'list2' '' '' 75 ((VARIABLE IN UNKNOWN-PROC UNKNOWN UNKNOWN 0 0 DUMMY)
(DERIVED 22 0 0 0 DERIVED ()) 0 0 () () 0 () () () 0 0)
78 'numshared' '' '' 75 ((VARIABLE OUT UNKNOWN-PROC UNKNOWN UNKNOWN 0 0
DUMMY) (INTEGER 4 0 0 0 INTEGER ()) 0 0 () () 0 () () () 0 0)
79 'indices1' '' '' 75 ((VARIABLE UNKNOWN-INTENT UNKNOWN-PROC UNKNOWN
UNKNOWN 0 0 DIMENSION POINTER DUMMY) (INTEGER 4 0 0 0 INTEGER ()) 0 0 ()
(1 0 DEFERRED () ()) 0 () () () 0 0)
80 'indices2' '' '' 75 ((VARIABLE UNKNOWN-INTENT UNKNOWN-PROC UNKNOWN
UNKNOWN 0 0 DIMENSION POINTER DUMMY) (INTEGER 4 0 0 0 INTEGER ()) 0 0 ()
(1 0 DEFERRED () ()) 0 () () () 0 0)
82 'yl' '' '' 81 ((VARIABLE IN UNKNOWN-PROC UNKNOWN UNKNOWN 0 0 DUMMY) (
DERIVED 22 0 0 0 DERIVED ()) 0 0 () () 0 () () () 0 0)
83 'xl' '' '' 81 ((VARIABLE IN UNKNOWN-PROC UNKNOWN UNKNOWN 0 0 DUMMY) (
DERIVED 22 0 0 0 DERIVED ()) 0 0 () () 0 () () () 0 0)
85 'alist' '' '' 84 ((VARIABLE IN UNKNOWN-PROC UNKNOWN UNKNOWN 0 0 DUMMY)
(DERIVED 22 0 0 0 DERIVED ()) 0 0 () () 0 () () () 0 0)
86 'itemstr' '' '' 84 ((VARIABLE IN UNKNOWN-PROC UNKNOWN UNKNOWN 0 0
DUMMY) (DERIVED 123 0 0 0 DERIVED ()) 0 0 () () 0 () () () 0 0)
88 'alist' '' '' 87 ((VARIABLE IN UNKNOWN-PROC UNKNOWN UNKNOWN 0 0 DUMMY)
(DERIVED 22 0 0 0 DERIVED ()) 0 0 () () 0 () () () 0 0)
89 'item' '' '' 87 ((VARIABLE IN UNKNOWN-PROC UNKNOWN UNKNOWN 0 0 DUMMY)
(CHARACTER 1 0 0 0 CHARACTER (())) 0 0 () () 0 () () () 0 0)
91 'alist' '' '' 90 ((VARIABLE OUT UNKNOWN-PROC UNKNOWN UNKNOWN 0 0
DUMMY) (DERIVED 22 0 0 0 DERIVED ()) 0 0 () () 0 () () () 0 0)
92 'strs' '' '' 90 ((VARIABLE IN UNKNOWN-PROC UNKNOWN UNKNOWN 0 0
DIMENSION DUMMY) (DERIVED 124 0 0 0 DERIVED ()) 0 0 () (1 0
ASSUMED_SHAPE (CONSTANT (INTEGER 4 0 0 0 INTEGER ()) 0 '1') ()) 0 () ()
() 0 0)
94 'alist' '' '' 93 ((VARIABLE OUT UNKNOWN-PROC UNKNOWN UNKNOWN 0 0
DUMMY) (DERIVED 22 0 0 0 DERIVED ()) 0 0 () () 0 () () () 0 0)
95 'pstr' '' '' 93 ((VARIABLE IN UNKNOWN-PROC UNKNOWN UNKNOWN 0 0 DUMMY)
(DERIVED 125 0 0 0 DERIVED ()) 0 0 () () 0 () () () 0 0)
97 'alist' '' '' 96 ((VARIABLE OUT UNKNOWN-PROC UNKNOWN UNKNOWN 0 0
DUMMY) (DERIVED 22 0 0 0 DERIVED ()) 0 0 () () 0 () () () 0 0)
98 'values' '' '' 96 ((VARIABLE IN UNKNOWN-PROC UNKNOWN UNKNOWN 0 0
DUMMY) (CHARACTER 1 0 0 0 CHARACTER (())) 0 0 () () 0 () () () 0 0)
100 'alist' '' '' 99 ((VARIABLE IN UNKNOWN-PROC UNKNOWN UNKNOWN 0 0
DUMMY) (DERIVED 22 0 0 0 DERIVED ()) 0 0 () () 0 () () () 0 0)
102 'alist' '' '' 101 ((VARIABLE INOUT UNKNOWN-PROC UNKNOWN UNKNOWN 0 0
DUMMY) (DERIVED 22 0 0 0 DERIVED ()) 0 0 () () 0 () () () 0 0)
104 'outlist' '' '' 103 ((VARIABLE OUT UNKNOWN-PROC UNKNOWN UNKNOWN 0 0
DUMMY) (DERIVED 22 0 0 0 DERIVED ()) 0 0 () () 0 () () () 0 0)
105 'source' '' '' 103 ((VARIABLE IN UNKNOWN-PROC UNKNOWN UNKNOWN 0 0
DUMMY) (INTEGER 4 0 0 0 INTEGER ()) 0 0 () () 0 () () () 0 0)
106 'tagbase' '' '' 103 ((VARIABLE IN UNKNOWN-PROC UNKNOWN UNKNOWN 0 0
DUMMY) (INTEGER 4 0 0 0 INTEGER ()) 0 0 () () 0 () () () 0 0)
107 'comm' '' '' 103 ((VARIABLE IN UNKNOWN-PROC UNKNOWN UNKNOWN 0 0
DUMMY) (INTEGER 4 0 0 0 INTEGER ()) 0 0 () () 0 () () () 0 0)
108 'status' '' '' 103 ((VARIABLE OUT UNKNOWN-PROC UNKNOWN UNKNOWN 0 0
OPTIONAL DUMMY) (INTEGER 4 0 0 0 INTEGER ()) 0 0 () () 0 () () () 0 0)
110 'inlist' '' '' 109 ((VARIABLE IN UNKNOWN-PROC UNKNOWN UNKNOWN 0 0
DUMMY) (DERIVED 22 0 0 0 DERIVED ()) 0 0 () () 0 () () () 0 0)
111 'dest' '' '' 109 ((VARIABLE IN UNKNOWN-PROC UNKNOWN UNKNOWN 0 0
DUMMY) (INTEGER 4 0 0 0 INTEGER ()) 0 0 () () 0 () () () 0 0)
112 'tagbase' '' '' 109 ((VARIABLE IN UNKNOWN-PROC UNKNOWN UNKNOWN 0 0
DUMMY) (INTEGER 4 0 0 0 INTEGER ()) 0 0 () () 0 () () () 0 0)
113 'comm' '' '' 109 ((VARIABLE IN UNKNOWN-PROC UNKNOWN UNKNOWN 0 0
DUMMY) (INTEGER 4 0 0 0 INTEGER ()) 0 0 () () 0 () () () 0 0)
114 'status' '' '' 109 ((VARIABLE OUT UNKNOWN-PROC UNKNOWN UNKNOWN 0 0
OPTIONAL DUMMY) (INTEGER 4 0 0 0 INTEGER ()) 0 0 () () 0 () () () 0 0)
116 'indices' '' '' 115 ((VARIABLE UNKNOWN-INTENT UNKNOWN-PROC UNKNOWN
UNKNOWN 0 0 DIMENSION POINTER DUMMY) (INTEGER 4 0 0 0 INTEGER ()) 0 0 ()
(1 0 DEFERRED () ()) 0 () () () 0 0)
117 'alist' '' '' 115 ((VARIABLE IN UNKNOWN-PROC UNKNOWN UNKNOWN 0 0
DUMMY) (DERIVED 22 0 0 0 DERIVED ()) 0 0 () () 0 () () () 0 0)
118 'values' '' '' 115 ((VARIABLE IN UNKNOWN-PROC UNKNOWN UNKNOWN 0 0
DUMMY) (CHARACTER 1 0 0 0 CHARACTER (())) 0 0 () () 0 () () () 0 0)
120 'String' 'm_string' '' 59 ((DERIVED UNKNOWN-INTENT UNKNOWN-PROC
UNKNOWN UNKNOWN 0 0 POINTER_COMP) (UNKNOWN 0 0 0 0 UNKNOWN ()) 0 0 () ()
0 ((126 'c' (CHARACTER 1 0 0 0 CHARACTER ((CONSTANT (INTEGER 4 0 0 0
INTEGER ()) 0 '1'))) (1 0 DEFERRED () ()) (UNKNOWN-FL UNKNOWN-INTENT
UNKNOWN-PROC UNKNOWN UNKNOWN 0 0 DIMENSION POINTER) UNKNOWN-ACCESS ()))
PUBLIC (() () () ()) () 0 0 83166477)
121 'String' 'm_string' '' 64 ((DERIVED UNKNOWN-INTENT UNKNOWN-PROC
UNKNOWN UNKNOWN 0 0 POINTER_COMP) (UNKNOWN 0 0 0 0 UNKNOWN ()) 0 0 () ()
0 ((127 'c' (CHARACTER 1 0 0 0 CHARACTER ((CONSTANT (INTEGER 4 0 0 0
INTEGER ()) 0 '1'))) (1 0 DEFERRED () ()) (UNKNOWN-FL UNKNOWN-INTENT
UNKNOWN-PROC UNKNOWN UNKNOWN 0 0 DIMENSION POINTER) UNKNOWN-ACCESS ()))
PUBLIC (() () () ()) () 0 0 83166477)
122 'String' 'm_string' '' 67 ((DERIVED UNKNOWN-INTENT UNKNOWN-PROC
UNKNOWN UNKNOWN 0 0 POINTER_COMP) (UNKNOWN 0 0 0 0 UNKNOWN ()) 0 0 () ()
0 ((128 'c' (CHARACTER 1 0 0 0 CHARACTER ((CONSTANT (INTEGER 4 0 0 0
INTEGER ()) 0 '1'))) (1 0 DEFERRED () ()) (UNKNOWN-FL UNKNOWN-INTENT
UNKNOWN-PROC UNKNOWN UNKNOWN 0 0 DIMENSION POINTER) UNKNOWN-ACCESS ()))
PUBLIC (() () () ()) () 0 0 83166477)
123 'String' 'm_string' '' 84 ((DERIVED UNKNOWN-INTENT UNKNOWN-PROC
UNKNOWN UNKNOWN 0 0 POINTER_COMP) (UNKNOWN 0 0 0 0 UNKNOWN ()) 0 0 () ()
0 ((129 'c' (CHARACTER 1 0 0 0 CHARACTER ((CONSTANT (INTEGER 4 0 0 0
INTEGER ()) 0 '1'))) (1 0 DEFERRED () ()) (UNKNOWN-FL UNKNOWN-INTENT
UNKNOWN-PROC UNKNOWN UNKNOWN 0 0 DIMENSION POINTER) UNKNOWN-ACCESS ()))
PUBLIC (() () () ()) () 0 0 83166477)
124 'String' 'm_string' '' 90 ((DERIVED UNKNOWN-INTENT UNKNOWN-PROC
UNKNOWN UNKNOWN 0 0 POINTER_COMP) (UNKNOWN 0 0 0 0 UNKNOWN ()) 0 0 () ()
0 ((130 'c' (CHARACTER 1 0 0 0 CHARACTER ((CONSTANT (INTEGER 4 0 0 0
INTEGER ()) 0 '1'))) (1 0 DEFERRED () ()) (UNKNOWN-FL UNKNOWN-INTENT
UNKNOWN-PROC UNKNOWN UNKNOWN 0 0 DIMENSION POINTER) UNKNOWN-ACCESS ()))
PUBLIC (() () () ()) () 0 0 83166477)
125 'String' 'm_string' '' 93 ((DERIVED UNKNOWN-INTENT UNKNOWN-PROC
UNKNOWN UNKNOWN 0 0 POINTER_COMP) (UNKNOWN 0 0 0 0 UNKNOWN ()) 0 0 () ()
0 ((131 'c' (CHARACTER 1 0 0 0 CHARACTER ((CONSTANT (INTEGER 4 0 0 0
INTEGER ()) 0 '1'))) (1 0 DEFERRED () ()) (UNKNOWN-FL UNKNOWN-INTENT
UNKNOWN-PROC UNKNOWN UNKNOWN 0 0 DIMENSION POINTER) UNKNOWN-ACCESS ()))
PUBLIC (() () () ()) () 0 0 83166477)
)

('List' 0 22 'list' 0 30)
