GFORTRAN module version '10' created from /Users/f9y/mygit/clm4_coupled/models/utils/mct/mpeu/m_mpout.F90
MD5:dd13cbbf80cbe325800e0975627d462d -- If you edit this, you'll get what you deserve.

(() () () () () () () () () () () () () () () () () () () () () () ()
() () () ())

()

(('mpout_close' 'm_mpout' 2) ('mpout_flush' 'm_mpout' 3) ('mpout_ison'
'm_mpout' 4) ('mpout_log' 'm_mpout' 5 6) ('mpout_open' 'm_mpout' 7) (
'mpout_sync' 'm_mpout' 8))

()

()

()

(9 'mpout' 'm_mpout' '' 1 ((VARIABLE UNKNOWN-INTENT UNKNOWN-PROC UNKNOWN
EXPLICIT-SAVE 0 0) (INTEGER 4 0 0 0 INTEGER ()) 0 0 () () 0 () () () 0 0)
2 'close_' 'm_mpout' '' 1 ((PROCEDURE UNKNOWN-INTENT MODULE-PROC DECL
UNKNOWN 0 0 SUBROUTINE) (UNKNOWN 0 0 0 0 UNKNOWN ()) 0 0 () () 0 () () ()
0 0)
3 'flush_' 'm_mpout' '' 1 ((PROCEDURE UNKNOWN-INTENT MODULE-PROC DECL
UNKNOWN 0 0 SUBROUTINE) (UNKNOWN 0 0 0 0 UNKNOWN ()) 0 0 () () 0 () () ()
0 0)
4 'ison_' 'm_mpout' '' 1 ((PROCEDURE UNKNOWN-INTENT MODULE-PROC DECL
UNKNOWN 0 0 FUNCTION IMPLICIT_PURE) (LOGICAL 4 0 0 0 LOGICAL ()) 0 0 ()
() 4 () () () 0 0)
5 'log2_' 'm_mpout' '' 1 ((PROCEDURE UNKNOWN-INTENT MODULE-PROC DECL
UNKNOWN 0 0 SUBROUTINE) (UNKNOWN 0 0 0 0 UNKNOWN ()) 10 0 (11 12) () 0 ()
() () 0 0)
6 'log1_' 'm_mpout' '' 1 ((PROCEDURE UNKNOWN-INTENT MODULE-PROC DECL
UNKNOWN 0 0 SUBROUTINE) (UNKNOWN 0 0 0 0 UNKNOWN ()) 13 0 (14) () 0 () ()
() 0 0)
7 'open_' 'm_mpout' '' 1 ((PROCEDURE UNKNOWN-INTENT MODULE-PROC DECL
UNKNOWN 0 0 SUBROUTINE ALWAYS_EXPLICIT) (UNKNOWN 0 0 0 0 UNKNOWN ()) 15
0 (16 17) () 0 () () () 0 0)
8 'sync_' 'm_mpout' '' 1 ((PROCEDURE UNKNOWN-INTENT MODULE-PROC DECL
UNKNOWN 0 0 SUBROUTINE) (UNKNOWN 0 0 0 0 UNKNOWN ()) 18 0 (19) () 0 () ()
() 0 0)
11 'where' '' '' 10 ((VARIABLE IN UNKNOWN-PROC UNKNOWN UNKNOWN 0 0 DUMMY)
(CHARACTER 1 0 0 0 CHARACTER (())) 0 0 () () 0 () () () 0 0)
12 'message' '' '' 10 ((VARIABLE IN UNKNOWN-PROC UNKNOWN UNKNOWN 0 0
DUMMY) (CHARACTER 1 0 0 0 CHARACTER (())) 0 0 () () 0 () () () 0 0)
14 'message' '' '' 13 ((VARIABLE IN UNKNOWN-PROC UNKNOWN UNKNOWN 0 0
DUMMY) (CHARACTER 1 0 0 0 CHARACTER (())) 0 0 () () 0 () () () 0 0)
16 'mask' '' '' 15 ((VARIABLE IN UNKNOWN-PROC UNKNOWN UNKNOWN 0 0
OPTIONAL DUMMY) (INTEGER 4 0 0 0 INTEGER ()) 0 0 () () 0 () () () 0 0)
17 'pfix' '' '' 15 ((VARIABLE IN UNKNOWN-PROC UNKNOWN UNKNOWN 0 0
OPTIONAL DUMMY) (CHARACTER 1 0 0 0 CHARACTER (())) 0 0 () () 0 () () ()
0 0)
19 'tag' '' '' 18 ((VARIABLE IN UNKNOWN-PROC UNKNOWN UNKNOWN 0 0 DUMMY)
(CHARACTER 1 0 0 0 CHARACTER (())) 0 0 () () 0 () () () 0 0)
)

('mpout' 0 9)
