GFORTRAN module version '10' created from /Users/f9y/mygit/clm4_coupled/models/utils/mct/mct/m_Navigator.F90
MD5:7e95421d6f8a172478a57ffa06838fe2 -- If you edit this, you'll get what you deserve.

(() () () () () () () () () () () () () () () () () () () () () () ()
() () () ())

()

(('clean' 'm_navigator' 2) ('get' 'm_navigator' 3) ('init' 'm_navigator'
4) ('msize' 'm_navigator' 5) ('navigator' 'm_navigator' 6) (
'navigator_init' 'm_navigator' 4) ('numsegments' 'm_navigator' 7) (
'ptr_counts' 'm_navigator' 8) ('ptr_displs' 'm_navigator' 9) ('resize'
'm_navigator' 10) ('vectorlength' 'm_navigator' 11))

()

()

()

(6 'Navigator' 'm_navigator' '' 1 ((DERIVED UNKNOWN-INTENT UNKNOWN-PROC
UNKNOWN UNKNOWN 0 0 POINTER_COMP) (UNKNOWN 0 0 0 0 UNKNOWN ()) 0 0 () ()
0 ((12 'numsegments' (INTEGER 4 0 0 0 INTEGER ()) () (UNKNOWN-FL
UNKNOWN-INTENT UNKNOWN-PROC UNKNOWN UNKNOWN 0 0) UNKNOWN-ACCESS ()) (13
'vectorlength' (INTEGER 4 0 0 0 INTEGER ()) () (UNKNOWN-FL
UNKNOWN-INTENT UNKNOWN-PROC UNKNOWN UNKNOWN 0 0) UNKNOWN-ACCESS ()) (14
'displs' (INTEGER 4 0 0 0 INTEGER ()) (1 0 DEFERRED () ()) (UNKNOWN-FL
UNKNOWN-INTENT UNKNOWN-PROC UNKNOWN UNKNOWN 0 0 DIMENSION POINTER)
UNKNOWN-ACCESS ()) (15 'counts' (INTEGER 4 0 0 0 INTEGER ()) (1 0
DEFERRED () ()) (UNKNOWN-FL UNKNOWN-INTENT UNKNOWN-PROC UNKNOWN UNKNOWN
0 0 DIMENSION POINTER) UNKNOWN-ACCESS ())) PUBLIC (() () () ()) () 0 0
43233341)
16 'navigator' 'm_navigator' '' 1 ((PROCEDURE UNKNOWN-INTENT
UNKNOWN-PROC DECL UNKNOWN 0 0 FUNCTION GENERIC) (UNKNOWN 0 0 0 0 UNKNOWN
()) 0 0 () () 0 () () () 0 0)
2 'clean_' 'm_navigator' '' 1 ((PROCEDURE UNKNOWN-INTENT MODULE-PROC
DECL UNKNOWN 0 0 SUBROUTINE ALWAYS_EXPLICIT) (UNKNOWN 0 0 0 0 UNKNOWN ())
17 0 (18 19) () 0 () () () 0 0)
3 'get_' 'm_navigator' '' 1 ((PROCEDURE UNKNOWN-INTENT MODULE-PROC DECL
UNKNOWN 0 0 SUBROUTINE ALWAYS_EXPLICIT) (UNKNOWN 0 0 0 0 UNKNOWN ()) 20
0 (21 22 23 24 25 26) () 0 () () () 0 0)
4 'init_' 'm_navigator' '' 1 ((PROCEDURE UNKNOWN-INTENT MODULE-PROC DECL
UNKNOWN 0 0 SUBROUTINE ALWAYS_EXPLICIT) (UNKNOWN 0 0 0 0 UNKNOWN ()) 27
0 (28 29 30 31) () 0 () () () 0 0)
5 'msize_' 'm_navigator' '' 1 ((PROCEDURE UNKNOWN-INTENT MODULE-PROC
DECL UNKNOWN 0 0 FUNCTION IMPLICIT_PURE) (INTEGER 4 0 0 0 INTEGER ()) 32
0 (33) () 5 () () () 0 0)
7 'numsegments_' 'm_navigator' '' 1 ((PROCEDURE UNKNOWN-INTENT
MODULE-PROC DECL UNKNOWN 0 0 FUNCTION IMPLICIT_PURE) (INTEGER 4 0 0 0
INTEGER ()) 34 0 (35) () 7 () () () 0 0)
8 'ptr_counts_' 'm_navigator' '' 1 ((PROCEDURE UNKNOWN-INTENT
MODULE-PROC DECL UNKNOWN 0 0 DIMENSION POINTER FUNCTION ALWAYS_EXPLICIT)
(INTEGER 4 0 0 0 INTEGER ()) 36 0 (37 38 39) (1 0 DEFERRED () ()) 8 () ()
() 0 0)
9 'ptr_displs_' 'm_navigator' '' 1 ((PROCEDURE UNKNOWN-INTENT
MODULE-PROC DECL UNKNOWN 0 0 DIMENSION POINTER FUNCTION ALWAYS_EXPLICIT)
(INTEGER 4 0 0 0 INTEGER ()) 40 0 (41 42 43) (1 0 DEFERRED () ()) 9 () ()
() 0 0)
10 'resize_' 'm_navigator' '' 1 ((PROCEDURE UNKNOWN-INTENT MODULE-PROC
DECL UNKNOWN 0 0 SUBROUTINE ALWAYS_EXPLICIT) (UNKNOWN 0 0 0 0 UNKNOWN ())
44 0 (45 46) () 0 () () () 0 0)
11 'vectorlength_' 'm_navigator' '' 1 ((PROCEDURE UNKNOWN-INTENT
MODULE-PROC DECL UNKNOWN 0 0 FUNCTION IMPLICIT_PURE) (INTEGER 4 0 0 0
INTEGER ()) 47 0 (48) () 11 () () () 0 0)
18 'nav' '' '' 17 ((VARIABLE INOUT UNKNOWN-PROC UNKNOWN UNKNOWN 0 0
DUMMY) (DERIVED 6 0 0 0 DERIVED ()) 0 0 () () 0 () () () 0 0)
19 'stat' '' '' 17 ((VARIABLE OUT UNKNOWN-PROC UNKNOWN UNKNOWN 0 0
OPTIONAL DUMMY) (INTEGER 4 0 0 0 INTEGER ()) 0 0 () () 0 () () () 0 0)
21 'nav' '' '' 20 ((VARIABLE IN UNKNOWN-PROC UNKNOWN UNKNOWN 0 0 DUMMY)
(DERIVED 6 0 0 0 DERIVED ()) 0 0 () () 0 () () () 0 0)
22 'iseg' '' '' 20 ((VARIABLE IN UNKNOWN-PROC UNKNOWN UNKNOWN 0 0 DUMMY)
(INTEGER 4 0 0 0 INTEGER ()) 0 0 () () 0 () () () 0 0)
23 'displ' '' '' 20 ((VARIABLE OUT UNKNOWN-PROC UNKNOWN UNKNOWN 0 0
OPTIONAL DUMMY) (INTEGER 4 0 0 0 INTEGER ()) 0 0 () () 0 () () () 0 0)
24 'count' '' '' 20 ((VARIABLE OUT UNKNOWN-PROC UNKNOWN UNKNOWN 0 0
OPTIONAL DUMMY) (INTEGER 4 0 0 0 INTEGER ()) 0 0 () () 0 () () () 0 0)
25 'lc' '' '' 20 ((VARIABLE OUT UNKNOWN-PROC UNKNOWN UNKNOWN 0 0
OPTIONAL DUMMY) (INTEGER 4 0 0 0 INTEGER ()) 0 0 () () 0 () () () 0 0)
26 'le' '' '' 20 ((VARIABLE OUT UNKNOWN-PROC UNKNOWN UNKNOWN 0 0
OPTIONAL DUMMY) (INTEGER 4 0 0 0 INTEGER ()) 0 0 () () 0 () () () 0 0)
28 'nav' '' '' 27 ((VARIABLE OUT UNKNOWN-PROC UNKNOWN UNKNOWN 0 0 DUMMY)
(DERIVED 6 0 0 0 DERIVED ()) 0 0 () () 0 () () () 0 0)
29 'numsegments' '' '' 27 ((VARIABLE IN UNKNOWN-PROC UNKNOWN UNKNOWN 0 0
DUMMY) (INTEGER 4 0 0 0 INTEGER ()) 0 0 () () 0 () () () 0 0)
30 'vectorlength' '' '' 27 ((VARIABLE IN UNKNOWN-PROC UNKNOWN UNKNOWN 0
0 OPTIONAL DUMMY) (INTEGER 4 0 0 0 INTEGER ()) 0 0 () () 0 () () () 0 0)
31 'stat' '' '' 27 ((VARIABLE OUT UNKNOWN-PROC UNKNOWN UNKNOWN 0 0
OPTIONAL DUMMY) (INTEGER 4 0 0 0 INTEGER ()) 0 0 () () 0 () () () 0 0)
33 'nav' '' '' 32 ((VARIABLE IN UNKNOWN-PROC UNKNOWN UNKNOWN 0 0 DUMMY)
(DERIVED 6 0 0 0 DERIVED ()) 0 0 () () 0 () () () 0 0)
35 'nav' '' '' 34 ((VARIABLE IN UNKNOWN-PROC UNKNOWN UNKNOWN 0 0 DUMMY)
(DERIVED 6 0 0 0 DERIVED ()) 0 0 () () 0 () () () 0 0)
37 'nav' '' '' 36 ((VARIABLE IN UNKNOWN-PROC UNKNOWN UNKNOWN 0 0 DUMMY)
(DERIVED 6 0 0 0 DERIVED ()) 0 0 () () 0 () () () 0 0)
38 'lbnd' '' '' 36 ((VARIABLE IN UNKNOWN-PROC UNKNOWN UNKNOWN 0 0
OPTIONAL DUMMY) (INTEGER 4 0 0 0 INTEGER ()) 0 0 () () 0 () () () 0 0)
39 'ubnd' '' '' 36 ((VARIABLE IN UNKNOWN-PROC UNKNOWN UNKNOWN 0 0
OPTIONAL DUMMY) (INTEGER 4 0 0 0 INTEGER ()) 0 0 () () 0 () () () 0 0)
41 'nav' '' '' 40 ((VARIABLE IN UNKNOWN-PROC UNKNOWN UNKNOWN 0 0 DUMMY)
(DERIVED 6 0 0 0 DERIVED ()) 0 0 () () 0 () () () 0 0)
42 'lbnd' '' '' 40 ((VARIABLE IN UNKNOWN-PROC UNKNOWN UNKNOWN 0 0
OPTIONAL DUMMY) (INTEGER 4 0 0 0 INTEGER ()) 0 0 () () 0 () () () 0 0)
43 'ubnd' '' '' 40 ((VARIABLE IN UNKNOWN-PROC UNKNOWN UNKNOWN 0 0
OPTIONAL DUMMY) (INTEGER 4 0 0 0 INTEGER ()) 0 0 () () 0 () () () 0 0)
45 'nav' '' '' 44 ((VARIABLE INOUT UNKNOWN-PROC UNKNOWN UNKNOWN 0 0
DUMMY) (DERIVED 6 0 0 0 DERIVED ()) 0 0 () () 0 () () () 0 0)
46 'numsegments' '' '' 44 ((VARIABLE IN UNKNOWN-PROC UNKNOWN UNKNOWN 0 0
OPTIONAL DUMMY) (INTEGER 4 0 0 0 INTEGER ()) 0 0 () () 0 () () () 0 0)
48 'nav' '' '' 47 ((VARIABLE IN UNKNOWN-PROC UNKNOWN UNKNOWN 0 0 DUMMY)
(DERIVED 6 0 0 0 DERIVED ()) 0 0 () () 0 () () () 0 0)
)

('Navigator' 0 6 'navigator' 0 16)
