GFORTRAN module version '10' created from /Users/f9y/mygit/clm4_coupled/models/utils/mct/mct/m_SparseMatrixToMaps.F90
MD5:441c314de9d00ad0840ed9ec83577fc7 -- If you edit this, you'll get what you deserve.

(() () () () () () () () () () () () () () () () () () () () () () ()
() () () ())

()

(('sparsematrixtoxglobalsegmap' 'm_sparsematrixtomaps' 2) (
'sparsematrixtoyglobalsegmap' 'm_sparsematrixtomaps' 3))

()

()

()

(2 'sparsematrixtoxglobalsegmap_' 'm_sparsematrixtomaps' '' 1 ((
PROCEDURE UNKNOWN-INTENT MODULE-PROC DECL UNKNOWN 0 0 SUBROUTINE) (
UNKNOWN 0 0 0 0 UNKNOWN ()) 4 0 (5 6 7 8 9) () 0 () () () 0 0)
3 'sparsematrixtoyglobalsegmap_' 'm_sparsematrixtomaps' '' 1 ((
PROCEDURE UNKNOWN-INTENT MODULE-PROC DECL UNKNOWN 0 0 SUBROUTINE) (
UNKNOWN 0 0 0 0 UNKNOWN ()) 10 0 (11 12 13 14 15) () 0 () () () 0 0)
5 'smat' '' '' 4 ((VARIABLE INOUT UNKNOWN-PROC UNKNOWN UNKNOWN 0 0 DUMMY)
(DERIVED 16 0 0 0 DERIVED ()) 0 0 () () 0 () () () 0 0)
6 'xgsmap' '' '' 4 ((VARIABLE OUT UNKNOWN-PROC UNKNOWN UNKNOWN 0 0 DUMMY)
(DERIVED 17 0 0 0 DERIVED ()) 0 0 () () 0 () () () 0 0)
7 'root' '' '' 4 ((VARIABLE IN UNKNOWN-PROC UNKNOWN UNKNOWN 0 0 DUMMY) (
INTEGER 4 0 0 0 INTEGER ()) 0 0 () () 0 () () () 0 0)
8 'comm' '' '' 4 ((VARIABLE IN UNKNOWN-PROC UNKNOWN UNKNOWN 0 0 DUMMY) (
INTEGER 4 0 0 0 INTEGER ()) 0 0 () () 0 () () () 0 0)
9 'comp_id' '' '' 4 ((VARIABLE IN UNKNOWN-PROC UNKNOWN UNKNOWN 0 0 DUMMY)
(INTEGER 4 0 0 0 INTEGER ()) 0 0 () () 0 () () () 0 0)
11 'smat' '' '' 10 ((VARIABLE INOUT UNKNOWN-PROC UNKNOWN UNKNOWN 0 0
DUMMY) (DERIVED 18 0 0 0 DERIVED ()) 0 0 () () 0 () () () 0 0)
12 'ygsmap' '' '' 10 ((VARIABLE OUT UNKNOWN-PROC UNKNOWN UNKNOWN 0 0
DUMMY) (DERIVED 19 0 0 0 DERIVED ()) 0 0 () () 0 () () () 0 0)
13 'root' '' '' 10 ((VARIABLE IN UNKNOWN-PROC UNKNOWN UNKNOWN 0 0 DUMMY)
(INTEGER 4 0 0 0 INTEGER ()) 0 0 () () 0 () () () 0 0)
14 'comm' '' '' 10 ((VARIABLE IN UNKNOWN-PROC UNKNOWN UNKNOWN 0 0 DUMMY)
(INTEGER 4 0 0 0 INTEGER ()) 0 0 () () 0 () () () 0 0)
15 'comp_id' '' '' 10 ((VARIABLE IN UNKNOWN-PROC UNKNOWN UNKNOWN 0 0
DUMMY) (INTEGER 4 0 0 0 INTEGER ()) 0 0 () () 0 () () () 0 0)
16 'Sparsematrix' 'm_sparsematrix' '' 4 ((DERIVED UNKNOWN-INTENT
UNKNOWN-PROC UNKNOWN UNKNOWN 0 0 POINTER_COMP) (UNKNOWN 0 0 0 0 UNKNOWN
()) 0 0 () () 0 ((20 'nrows' (INTEGER 4 0 0 0 INTEGER ()) () (
UNKNOWN-FL UNKNOWN-INTENT UNKNOWN-PROC UNKNOWN UNKNOWN 0 0)
UNKNOWN-ACCESS ()) (21 'ncols' (INTEGER 4 0 0 0 INTEGER ()) () (
UNKNOWN-FL UNKNOWN-INTENT UNKNOWN-PROC UNKNOWN UNKNOWN 0 0)
UNKNOWN-ACCESS ()) (22 'data' (DERIVED 23 0 0 0 DERIVED ()) () (
UNKNOWN-FL UNKNOWN-INTENT UNKNOWN-PROC UNKNOWN UNKNOWN 0 0)
UNKNOWN-ACCESS ()) (24 'vecinit' (LOGICAL 4 0 0 0 LOGICAL ()) () (
UNKNOWN-FL UNKNOWN-INTENT UNKNOWN-PROC UNKNOWN UNKNOWN 0 0)
UNKNOWN-ACCESS ()) (25 'row_s' (INTEGER 4 0 0 0 INTEGER ()) (1 0
DEFERRED () ()) (UNKNOWN-FL UNKNOWN-INTENT UNKNOWN-PROC UNKNOWN UNKNOWN
0 0 DIMENSION POINTER) UNKNOWN-ACCESS ()) (26 'row_e' (INTEGER 4 0 0 0
INTEGER ()) (1 0 DEFERRED () ()) (UNKNOWN-FL UNKNOWN-INTENT UNKNOWN-PROC
UNKNOWN UNKNOWN 0 0 DIMENSION POINTER) UNKNOWN-ACCESS ()) (27 'tcol' (
INTEGER 4 0 0 0 INTEGER ()) (2 0 DEFERRED () () () ()) (UNKNOWN-FL
UNKNOWN-INTENT UNKNOWN-PROC UNKNOWN UNKNOWN 0 0 DIMENSION POINTER)
UNKNOWN-ACCESS ()) (28 'twgt' (REAL 8 0 0 0 REAL ()) (2 0 DEFERRED () ()
() ()) (UNKNOWN-FL UNKNOWN-INTENT UNKNOWN-PROC UNKNOWN UNKNOWN 0 0
DIMENSION POINTER) UNKNOWN-ACCESS ()) (29 'row_max' (INTEGER 4 0 0 0
INTEGER ()) () (UNKNOWN-FL UNKNOWN-INTENT UNKNOWN-PROC UNKNOWN UNKNOWN 0
0) UNKNOWN-ACCESS ()) (30 'row_min' (INTEGER 4 0 0 0 INTEGER ()) () (
UNKNOWN-FL UNKNOWN-INTENT UNKNOWN-PROC UNKNOWN UNKNOWN 0 0)
UNKNOWN-ACCESS ()) (31 'tbl_end' (INTEGER 4 0 0 0 INTEGER ()) () (
UNKNOWN-FL UNKNOWN-INTENT UNKNOWN-PROC UNKNOWN UNKNOWN 0 0)
UNKNOWN-ACCESS ())) PUBLIC (() () () ()) () 0 0 81410829)
17 'Globalsegmap' 'm_globalsegmap' '' 4 ((DERIVED UNKNOWN-INTENT
UNKNOWN-PROC UNKNOWN UNKNOWN 0 0 POINTER_COMP) (UNKNOWN 0 0 0 0 UNKNOWN
()) 0 0 () () 0 ((32 'comp_id' (INTEGER 4 0 0 0 INTEGER ()) () (
UNKNOWN-FL UNKNOWN-INTENT UNKNOWN-PROC UNKNOWN UNKNOWN 0 0)
UNKNOWN-ACCESS ()) (33 'ngseg' (INTEGER 4 0 0 0 INTEGER ()) () (
UNKNOWN-FL UNKNOWN-INTENT UNKNOWN-PROC UNKNOWN UNKNOWN 0 0)
UNKNOWN-ACCESS ()) (34 'gsize' (INTEGER 4 0 0 0 INTEGER ()) () (
UNKNOWN-FL UNKNOWN-INTENT UNKNOWN-PROC UNKNOWN UNKNOWN 0 0)
UNKNOWN-ACCESS ()) (35 'start' (INTEGER 4 0 0 0 INTEGER ()) (1 0
DEFERRED () ()) (UNKNOWN-FL UNKNOWN-INTENT UNKNOWN-PROC UNKNOWN UNKNOWN
0 0 DIMENSION POINTER) UNKNOWN-ACCESS ()) (36 'length' (INTEGER 4 0 0 0
INTEGER ()) (1 0 DEFERRED () ()) (UNKNOWN-FL UNKNOWN-INTENT UNKNOWN-PROC
UNKNOWN UNKNOWN 0 0 DIMENSION POINTER) UNKNOWN-ACCESS ()) (37 'pe_loc' (
INTEGER 4 0 0 0 INTEGER ()) (1 0 DEFERRED () ()) (UNKNOWN-FL
UNKNOWN-INTENT UNKNOWN-PROC UNKNOWN UNKNOWN 0 0 DIMENSION POINTER)
UNKNOWN-ACCESS ())) PUBLIC (() () () ()) () 0 0 40927821)
18 'Sparsematrix' 'm_sparsematrix' '' 10 ((DERIVED UNKNOWN-INTENT
UNKNOWN-PROC UNKNOWN UNKNOWN 0 0 POINTER_COMP) (UNKNOWN 0 0 0 0 UNKNOWN
()) 0 0 () () 0 ((38 'nrows' (INTEGER 4 0 0 0 INTEGER ()) () (
UNKNOWN-FL UNKNOWN-INTENT UNKNOWN-PROC UNKNOWN UNKNOWN 0 0)
UNKNOWN-ACCESS ()) (39 'ncols' (INTEGER 4 0 0 0 INTEGER ()) () (
UNKNOWN-FL UNKNOWN-INTENT UNKNOWN-PROC UNKNOWN UNKNOWN 0 0)
UNKNOWN-ACCESS ()) (40 'data' (DERIVED 41 0 0 0 DERIVED ()) () (
UNKNOWN-FL UNKNOWN-INTENT UNKNOWN-PROC UNKNOWN UNKNOWN 0 0)
UNKNOWN-ACCESS ()) (42 'vecinit' (LOGICAL 4 0 0 0 LOGICAL ()) () (
UNKNOWN-FL UNKNOWN-INTENT UNKNOWN-PROC UNKNOWN UNKNOWN 0 0)
UNKNOWN-ACCESS ()) (43 'row_s' (INTEGER 4 0 0 0 INTEGER ()) (1 0
DEFERRED () ()) (UNKNOWN-FL UNKNOWN-INTENT UNKNOWN-PROC UNKNOWN UNKNOWN
0 0 DIMENSION POINTER) UNKNOWN-ACCESS ()) (44 'row_e' (INTEGER 4 0 0 0
INTEGER ()) (1 0 DEFERRED () ()) (UNKNOWN-FL UNKNOWN-INTENT UNKNOWN-PROC
UNKNOWN UNKNOWN 0 0 DIMENSION POINTER) UNKNOWN-ACCESS ()) (45 'tcol' (
INTEGER 4 0 0 0 INTEGER ()) (2 0 DEFERRED () () () ()) (UNKNOWN-FL
UNKNOWN-INTENT UNKNOWN-PROC UNKNOWN UNKNOWN 0 0 DIMENSION POINTER)
UNKNOWN-ACCESS ()) (46 'twgt' (REAL 8 0 0 0 REAL ()) (2 0 DEFERRED () ()
() ()) (UNKNOWN-FL UNKNOWN-INTENT UNKNOWN-PROC UNKNOWN UNKNOWN 0 0
DIMENSION POINTER) UNKNOWN-ACCESS ()) (47 'row_max' (INTEGER 4 0 0 0
INTEGER ()) () (UNKNOWN-FL UNKNOWN-INTENT UNKNOWN-PROC UNKNOWN UNKNOWN 0
0) UNKNOWN-ACCESS ()) (48 'row_min' (INTEGER 4 0 0 0 INTEGER ()) () (
UNKNOWN-FL UNKNOWN-INTENT UNKNOWN-PROC UNKNOWN UNKNOWN 0 0)
UNKNOWN-ACCESS ()) (49 'tbl_end' (INTEGER 4 0 0 0 INTEGER ()) () (
UNKNOWN-FL UNKNOWN-INTENT UNKNOWN-PROC UNKNOWN UNKNOWN 0 0)
UNKNOWN-ACCESS ())) PUBLIC (() () () ()) () 0 0 81410829)
19 'Globalsegmap' 'm_globalsegmap' '' 10 ((DERIVED UNKNOWN-INTENT
UNKNOWN-PROC UNKNOWN UNKNOWN 0 0 POINTER_COMP) (UNKNOWN 0 0 0 0 UNKNOWN
()) 0 0 () () 0 ((50 'comp_id' (INTEGER 4 0 0 0 INTEGER ()) () (
UNKNOWN-FL UNKNOWN-INTENT UNKNOWN-PROC UNKNOWN UNKNOWN 0 0)
UNKNOWN-ACCESS ()) (51 'ngseg' (INTEGER 4 0 0 0 INTEGER ()) () (
UNKNOWN-FL UNKNOWN-INTENT UNKNOWN-PROC UNKNOWN UNKNOWN 0 0)
UNKNOWN-ACCESS ()) (52 'gsize' (INTEGER 4 0 0 0 INTEGER ()) () (
UNKNOWN-FL UNKNOWN-INTENT UNKNOWN-PROC UNKNOWN UNKNOWN 0 0)
UNKNOWN-ACCESS ()) (53 'start' (INTEGER 4 0 0 0 INTEGER ()) (1 0
DEFERRED () ()) (UNKNOWN-FL UNKNOWN-INTENT UNKNOWN-PROC UNKNOWN UNKNOWN
0 0 DIMENSION POINTER) UNKNOWN-ACCESS ()) (54 'length' (INTEGER 4 0 0 0
INTEGER ()) (1 0 DEFERRED () ()) (UNKNOWN-FL UNKNOWN-INTENT UNKNOWN-PROC
UNKNOWN UNKNOWN 0 0 DIMENSION POINTER) UNKNOWN-ACCESS ()) (55 'pe_loc' (
INTEGER 4 0 0 0 INTEGER ()) (1 0 DEFERRED () ()) (UNKNOWN-FL
UNKNOWN-INTENT UNKNOWN-PROC UNKNOWN UNKNOWN 0 0 DIMENSION POINTER)
UNKNOWN-ACCESS ())) PUBLIC (() () () ()) () 0 0 40927821)
23 'Attrvect' 'm_attrvect' '' 4 ((DERIVED UNKNOWN-INTENT UNKNOWN-PROC
UNKNOWN UNKNOWN 0 0 POINTER_COMP) (UNKNOWN 0 0 0 0 UNKNOWN ()) 0 0 () ()
0 ((56 'ilist' (DERIVED 57 0 0 0 DERIVED ()) () (UNKNOWN-FL
UNKNOWN-INTENT UNKNOWN-PROC UNKNOWN UNKNOWN 0 0) UNKNOWN-ACCESS ()) (58
'rlist' (DERIVED 57 0 0 0 DERIVED ()) () (UNKNOWN-FL UNKNOWN-INTENT
UNKNOWN-PROC UNKNOWN UNKNOWN 0 0) UNKNOWN-ACCESS ()) (59 'iattr' (
INTEGER 4 0 0 0 INTEGER ()) (2 0 DEFERRED () () () ()) (UNKNOWN-FL
UNKNOWN-INTENT UNKNOWN-PROC UNKNOWN UNKNOWN 0 0 DIMENSION POINTER)
UNKNOWN-ACCESS ()) (60 'rattr' (REAL 8 0 0 0 REAL ()) (2 0 DEFERRED () ()
() ()) (UNKNOWN-FL UNKNOWN-INTENT UNKNOWN-PROC UNKNOWN UNKNOWN 0 0
DIMENSION POINTER) UNKNOWN-ACCESS ())) PUBLIC (() () () ()) () 0 0
32844045)
41 'Attrvect' 'm_attrvect' '' 10 ((DERIVED UNKNOWN-INTENT UNKNOWN-PROC
UNKNOWN UNKNOWN 0 0 POINTER_COMP) (UNKNOWN 0 0 0 0 UNKNOWN ()) 0 0 () ()
0 ((61 'ilist' (DERIVED 62 0 0 0 DERIVED ()) () (UNKNOWN-FL
UNKNOWN-INTENT UNKNOWN-PROC UNKNOWN UNKNOWN 0 0) UNKNOWN-ACCESS ()) (63
'rlist' (DERIVED 62 0 0 0 DERIVED ()) () (UNKNOWN-FL UNKNOWN-INTENT
UNKNOWN-PROC UNKNOWN UNKNOWN 0 0) UNKNOWN-ACCESS ()) (64 'iattr' (
INTEGER 4 0 0 0 INTEGER ()) (2 0 DEFERRED () () () ()) (UNKNOWN-FL
UNKNOWN-INTENT UNKNOWN-PROC UNKNOWN UNKNOWN 0 0 DIMENSION POINTER)
UNKNOWN-ACCESS ()) (65 'rattr' (REAL 8 0 0 0 REAL ()) (2 0 DEFERRED () ()
() ()) (UNKNOWN-FL UNKNOWN-INTENT UNKNOWN-PROC UNKNOWN UNKNOWN 0 0
DIMENSION POINTER) UNKNOWN-ACCESS ())) PUBLIC (() () () ()) () 0 0
32844045)
57 'List' 'm_list' '' 4 ((DERIVED UNKNOWN-INTENT UNKNOWN-PROC UNKNOWN
UNKNOWN 0 0 POINTER_COMP) (UNKNOWN 0 0 0 0 UNKNOWN ()) 0 0 () () 0 ((66
'bf' (CHARACTER 1 0 0 0 CHARACTER ((CONSTANT (INTEGER 4 0 0 0 INTEGER ())
0 '1'))) (1 0 DEFERRED () ()) (UNKNOWN-FL UNKNOWN-INTENT UNKNOWN-PROC
UNKNOWN UNKNOWN 0 0 DIMENSION POINTER) UNKNOWN-ACCESS ()) (67 'lc' (
INTEGER 4 0 0 0 INTEGER ()) (2 0 DEFERRED () () () ()) (UNKNOWN-FL
UNKNOWN-INTENT UNKNOWN-PROC UNKNOWN UNKNOWN 0 0 DIMENSION POINTER)
UNKNOWN-ACCESS ())) PUBLIC (() () () ()) () 0 0 20202829)
62 'List' 'm_list' '' 10 ((DERIVED UNKNOWN-INTENT UNKNOWN-PROC UNKNOWN
UNKNOWN 0 0 POINTER_COMP) (UNKNOWN 0 0 0 0 UNKNOWN ()) 0 0 () () 0 ((68
'bf' (CHARACTER 1 0 0 0 CHARACTER ((CONSTANT (INTEGER 4 0 0 0 INTEGER ())
0 '1'))) (1 0 DEFERRED () ()) (UNKNOWN-FL UNKNOWN-INTENT UNKNOWN-PROC
UNKNOWN UNKNOWN 0 0 DIMENSION POINTER) UNKNOWN-ACCESS ()) (69 'lc' (
INTEGER 4 0 0 0 INTEGER ()) (2 0 DEFERRED () () () ()) (UNKNOWN-FL
UNKNOWN-INTENT UNKNOWN-PROC UNKNOWN UNKNOWN 0 0 DIMENSION POINTER)
UNKNOWN-ACCESS ())) PUBLIC (() () () ()) () 0 0 20202829)
)

()
