GFORTRAN module version '10' created from /Users/f9y/mygit/clm4_coupled/models/utils/mct/mpeu/m_String.F90
MD5:9e071d3b51e5a0302d0dbe4497eec5a5 -- If you edit this, you'll get what you deserve.

(() () () () () () () () () () () () () () () () () () () () () () ()
() () () ())

()

(('bcast' 'm_string' 2) ('char' 'm_string' 3 4) ('clean' 'm_string' 5) (
'init' 'm_string' 6 7 8) ('len' '(intrinsic)' 9) ('ptr_chars' 'm_string'
10) ('string' 'm_string' 11) ('string_bcast' 'm_string' 2) (
'string_clean' 'm_string' 5) ('string_init' 'm_string' 6 7 8) (
'string_len' 'm_string' 9) ('string_mci' 'm_string' 12 13 14 15) (
'string_mco' 'm_string' 16 17 18 19) ('tochar' 'm_string' 3 4))

()

()

()

(11 'String' 'm_string' '' 1 ((DERIVED UNKNOWN-INTENT UNKNOWN-PROC
UNKNOWN UNKNOWN 0 0 POINTER_COMP) (UNKNOWN 0 0 0 0 UNKNOWN ()) 0 0 () ()
0 ((20 'c' (CHARACTER 1 0 0 0 CHARACTER ((CONSTANT (INTEGER 4 0 0 0
INTEGER ()) 0 '1'))) (1 0 DEFERRED () ()) (UNKNOWN-FL UNKNOWN-INTENT
UNKNOWN-PROC UNKNOWN UNKNOWN 0 0 DIMENSION POINTER) UNKNOWN-ACCESS ()))
PUBLIC (() () () ()) () 0 0 83166477)
21 'string' 'm_string' '' 1 ((PROCEDURE UNKNOWN-INTENT UNKNOWN-PROC DECL
UNKNOWN 0 0 FUNCTION GENERIC) (UNKNOWN 0 0 0 0 UNKNOWN ()) 0 0 () () 0 ()
() () 0 0)
2 'bcast_' 'm_string' '' 1 ((PROCEDURE UNKNOWN-INTENT MODULE-PROC DECL
UNKNOWN 0 0 SUBROUTINE ALWAYS_EXPLICIT) (UNKNOWN 0 0 0 0 UNKNOWN ()) 22
0 (23 24 25 26) () 0 () () () 0 0)
3 'ch12ch0_' 'm_string' '' 1 ((PROCEDURE UNKNOWN-INTENT MODULE-PROC DECL
UNKNOWN 0 0 FUNCTION IMPLICIT_PURE ALWAYS_EXPLICIT) (CHARACTER 1 0 0 0
CHARACTER ((FUNCTION (INTEGER 4 0 0 0 INTEGER ()) 0 27 (('' (VARIABLE (
CHARACTER 1 0 0 0 CHARACTER ((CONSTANT (INTEGER 4 0 0 0 INTEGER ()) 0 '1')))
1 28 ((ARRAY (FULL 1 2))))) ('' (CONSTANT (INTEGER 4 0 0 0 INTEGER ()) 0
'1')) ('' ())) '' 0 'size'))) 29 0 (28) () 3 () () () 0 0)
4 'str2ch0_' 'm_string' '' 1 ((PROCEDURE UNKNOWN-INTENT MODULE-PROC DECL
UNKNOWN 0 0 FUNCTION IMPLICIT_PURE) (CHARACTER 1 0 0 0 CHARACTER ((
FUNCTION (INTEGER 4 0 0 0 INTEGER ()) 0 30 (('' (VARIABLE (CHARACTER 1 0
0 0 CHARACTER ((CONSTANT (INTEGER 4 0 0 0 INTEGER ()) 0 '1'))) 1 31 ((
COMPONENT 11 20 'c') (ARRAY (FULL 1 2))))) ('' (CONSTANT (INTEGER 4 0 0
0 INTEGER ()) 0 '1')) ('' ())) '' 0 'size'))) 32 0 (31) () 4 () () () 0
0)
5 'clean_' 'm_string' '' 1 ((PROCEDURE UNKNOWN-INTENT MODULE-PROC DECL
UNKNOWN 0 0 SUBROUTINE) (UNKNOWN 0 0 0 0 UNKNOWN ()) 33 0 (34) () 0 () ()
() 0 0)
6 'inits_' 'm_string' '' 1 ((PROCEDURE UNKNOWN-INTENT MODULE-PROC DECL
UNKNOWN 0 0 SUBROUTINE) (UNKNOWN 0 0 0 0 UNKNOWN ()) 35 0 (36 37) () 0 ()
() () 0 0)
7 'initc1_' 'm_string' '' 1 ((PROCEDURE UNKNOWN-INTENT MODULE-PROC DECL
UNKNOWN 0 0 SUBROUTINE ALWAYS_EXPLICIT) (UNKNOWN 0 0 0 0 UNKNOWN ()) 38
0 (39 40) () 0 () () () 0 0)
8 'initc_' 'm_string' '' 1 ((PROCEDURE UNKNOWN-INTENT MODULE-PROC DECL
UNKNOWN 0 0 SUBROUTINE) (UNKNOWN 0 0 0 0 UNKNOWN ()) 41 0 (42 43) () 0 ()
() () 0 0)
9 'len_' 'm_string' '' 1 ((PROCEDURE UNKNOWN-INTENT MODULE-PROC DECL
UNKNOWN 0 0 FUNCTION IMPLICIT_PURE) (INTEGER 4 0 0 0 INTEGER ()) 44 0 (
45) () 9 () () () 0 0)
10 'ptr_chars_' 'm_string' '' 1 ((PROCEDURE UNKNOWN-INTENT MODULE-PROC
DECL UNKNOWN 0 0 DIMENSION POINTER FUNCTION ALWAYS_EXPLICIT) (CHARACTER
1 0 0 0 CHARACTER ((CONSTANT (INTEGER 4 0 0 0 INTEGER ()) 0 '1'))) 46 0
(47) (1 0 DEFERRED () ()) 10 () () () 0 0)
12 'mci3_' 'm_string' '' 1 ((PROCEDURE UNKNOWN-INTENT MODULE-PROC DECL
UNKNOWN 0 0 SUBROUTINE ALWAYS_EXPLICIT) (UNKNOWN 0 0 0 0 UNKNOWN ()) 48
0 (49 50) () 0 () () () 0 0)
13 'mci2_' 'm_string' '' 1 ((PROCEDURE UNKNOWN-INTENT MODULE-PROC DECL
UNKNOWN 0 0 SUBROUTINE ALWAYS_EXPLICIT) (UNKNOWN 0 0 0 0 UNKNOWN ()) 51
0 (52 53) () 0 () () () 0 0)
14 'mci1_' 'm_string' '' 1 ((PROCEDURE UNKNOWN-INTENT MODULE-PROC DECL
UNKNOWN 0 0 SUBROUTINE ALWAYS_EXPLICIT) (UNKNOWN 0 0 0 0 UNKNOWN ()) 54
0 (55 56) () 0 () () () 0 0)
15 'mci0_' 'm_string' '' 1 ((PROCEDURE UNKNOWN-INTENT MODULE-PROC DECL
UNKNOWN 0 0 SUBROUTINE) (UNKNOWN 0 0 0 0 UNKNOWN ()) 57 0 (58 59) () 0 ()
() () 0 0)
16 'mco3_' 'm_string' '' 1 ((PROCEDURE UNKNOWN-INTENT MODULE-PROC DECL
UNKNOWN 0 0 SUBROUTINE ALWAYS_EXPLICIT) (UNKNOWN 0 0 0 0 UNKNOWN ()) 60
0 (61 62) () 0 () () () 0 0)
17 'mco2_' 'm_string' '' 1 ((PROCEDURE UNKNOWN-INTENT MODULE-PROC DECL
UNKNOWN 0 0 SUBROUTINE ALWAYS_EXPLICIT) (UNKNOWN 0 0 0 0 UNKNOWN ()) 63
0 (64 65) () 0 () () () 0 0)
18 'mco1_' 'm_string' '' 1 ((PROCEDURE UNKNOWN-INTENT MODULE-PROC DECL
UNKNOWN 0 0 SUBROUTINE ALWAYS_EXPLICIT) (UNKNOWN 0 0 0 0 UNKNOWN ()) 66
0 (67 68) () 0 () () () 0 0)
19 'mco0_' 'm_string' '' 1 ((PROCEDURE UNKNOWN-INTENT MODULE-PROC DECL
UNKNOWN 0 0 SUBROUTINE) (UNKNOWN 0 0 0 0 UNKNOWN ()) 69 0 (70 71) () 0 ()
() () 0 0)
23 'str' '' '' 22 ((VARIABLE INOUT UNKNOWN-PROC UNKNOWN UNKNOWN 0 0
DUMMY) (DERIVED 11 0 0 0 DERIVED ()) 0 0 () () 0 () () () 0 0)
24 'root' '' '' 22 ((VARIABLE IN UNKNOWN-PROC UNKNOWN UNKNOWN 0 0 DUMMY)
(INTEGER 4 0 0 0 INTEGER ()) 0 0 () () 0 () () () 0 0)
25 'comm' '' '' 22 ((VARIABLE IN UNKNOWN-PROC UNKNOWN UNKNOWN 0 0 DUMMY)
(INTEGER 4 0 0 0 INTEGER ()) 0 0 () () 0 () () () 0 0)
26 'stat' '' '' 22 ((VARIABLE OUT UNKNOWN-PROC UNKNOWN UNKNOWN 0 0
OPTIONAL DUMMY) (INTEGER 4 0 0 0 INTEGER ()) 0 0 () () 0 () () () 0 0)
27 'size' '(intrinsic)' '' 29 ((PROCEDURE UNKNOWN-INTENT UNKNOWN-PROC
UNKNOWN UNKNOWN 0 0 FUNCTION) (UNKNOWN 0 0 0 0 UNKNOWN ()) 0 0 () () 27
() () () 0 0)
28 'ch1' '' '' 29 ((VARIABLE IN UNKNOWN-PROC UNKNOWN UNKNOWN 0 0
DIMENSION DUMMY) (CHARACTER 1 0 0 0 CHARACTER ((CONSTANT (INTEGER 4 0 0
0 INTEGER ()) 0 '1'))) 0 0 () (1 0 ASSUMED_SHAPE (CONSTANT (INTEGER 4 0
0 0 INTEGER ()) 0 '1') ()) 0 () () () 0 0)
30 'size' '(intrinsic)' '' 32 ((PROCEDURE UNKNOWN-INTENT UNKNOWN-PROC
UNKNOWN UNKNOWN 0 0 FUNCTION) (UNKNOWN 0 0 0 0 UNKNOWN ()) 0 0 () () 30
() () () 0 0)
31 'str' '' '' 32 ((VARIABLE IN UNKNOWN-PROC UNKNOWN UNKNOWN 0 0 DUMMY)
(DERIVED 11 0 0 0 DERIVED ()) 0 0 () () 0 () () () 0 0)
34 'str' '' '' 33 ((VARIABLE INOUT UNKNOWN-PROC UNKNOWN UNKNOWN 0 0
DUMMY) (DERIVED 11 0 0 0 DERIVED ()) 0 0 () () 0 () () () 0 0)
36 'ostr' '' '' 35 ((VARIABLE OUT UNKNOWN-PROC UNKNOWN UNKNOWN 0 0 DUMMY)
(DERIVED 11 0 0 0 DERIVED ()) 0 0 () () 0 () () () 0 0)
37 'istr' '' '' 35 ((VARIABLE IN UNKNOWN-PROC UNKNOWN UNKNOWN 0 0 DUMMY)
(DERIVED 11 0 0 0 DERIVED ()) 0 0 () () 0 () () () 0 0)
39 'str' '' '' 38 ((VARIABLE OUT UNKNOWN-PROC UNKNOWN UNKNOWN 0 0 DUMMY)
(DERIVED 11 0 0 0 DERIVED ()) 0 0 () () 0 () () () 0 0)
40 'chr' '' '' 38 ((VARIABLE IN UNKNOWN-PROC UNKNOWN UNKNOWN 0 0
DIMENSION DUMMY) (CHARACTER 1 0 0 0 CHARACTER ((CONSTANT (INTEGER 4 0 0
0 INTEGER ()) 0 '1'))) 0 0 () (1 0 ASSUMED_SHAPE (CONSTANT (INTEGER 4 0
0 0 INTEGER ()) 0 '1') ()) 0 () () () 0 0)
42 'str' '' '' 41 ((VARIABLE OUT UNKNOWN-PROC UNKNOWN UNKNOWN 0 0 DUMMY)
(DERIVED 11 0 0 0 DERIVED ()) 0 0 () () 0 () () () 0 0)
43 'chr' '' '' 41 ((VARIABLE IN UNKNOWN-PROC UNKNOWN UNKNOWN 0 0 DUMMY)
(CHARACTER 1 0 0 0 CHARACTER (())) 0 0 () () 0 () () () 0 0)
45 'str' '' '' 44 ((VARIABLE IN UNKNOWN-PROC UNKNOWN UNKNOWN 0 0 DUMMY)
(DERIVED 11 0 0 0 DERIVED ()) 0 0 () () 0 () () () 0 0)
47 'str' '' '' 46 ((VARIABLE IN UNKNOWN-PROC UNKNOWN UNKNOWN 0 0 DUMMY)
(DERIVED 11 0 0 0 DERIVED ()) 0 0 () () 0 () () () 0 0)
49 'marg' '' '' 48 ((VARIABLE IN UNKNOWN-PROC UNKNOWN UNKNOWN 0 0
DIMENSION DUMMY) (DERIVED 11 0 0 0 DERIVED ()) 0 0 () (3 0 ASSUMED_SHAPE
(CONSTANT (INTEGER 4 0 0 0 INTEGER ()) 0 '1') () (CONSTANT (INTEGER 4 0
0 0 INTEGER ()) 0 '1') () (CONSTANT (INTEGER 4 0 0 0 INTEGER ()) 0 '1')
()) 0 () () () 0 0)
50 'thread' '' '' 48 ((VARIABLE IN UNKNOWN-PROC UNKNOWN UNKNOWN 0 0
DUMMY) (CHARACTER 1 0 0 0 CHARACTER (())) 0 0 () () 0 () () () 0 0)
52 'marg' '' '' 51 ((VARIABLE IN UNKNOWN-PROC UNKNOWN UNKNOWN 0 0
DIMENSION DUMMY) (DERIVED 11 0 0 0 DERIVED ()) 0 0 () (2 0 ASSUMED_SHAPE
(CONSTANT (INTEGER 4 0 0 0 INTEGER ()) 0 '1') () (CONSTANT (INTEGER 4 0
0 0 INTEGER ()) 0 '1') ()) 0 () () () 0 0)
53 'thread' '' '' 51 ((VARIABLE IN UNKNOWN-PROC UNKNOWN UNKNOWN 0 0
DUMMY) (CHARACTER 1 0 0 0 CHARACTER (())) 0 0 () () 0 () () () 0 0)
55 'marg' '' '' 54 ((VARIABLE IN UNKNOWN-PROC UNKNOWN UNKNOWN 0 0
DIMENSION DUMMY) (DERIVED 11 0 0 0 DERIVED ()) 0 0 () (1 0 ASSUMED_SHAPE
(CONSTANT (INTEGER 4 0 0 0 INTEGER ()) 0 '1') ()) 0 () () () 0 0)
56 'thread' '' '' 54 ((VARIABLE IN UNKNOWN-PROC UNKNOWN UNKNOWN 0 0
DUMMY) (CHARACTER 1 0 0 0 CHARACTER (())) 0 0 () () 0 () () () 0 0)
58 'marg' '' '' 57 ((VARIABLE IN UNKNOWN-PROC UNKNOWN UNKNOWN 0 0 DUMMY)
(DERIVED 11 0 0 0 DERIVED ()) 0 0 () () 0 () () () 0 0)
59 'thread' '' '' 57 ((VARIABLE IN UNKNOWN-PROC UNKNOWN UNKNOWN 0 0
DUMMY) (CHARACTER 1 0 0 0 CHARACTER (())) 0 0 () () 0 () () () 0 0)
61 'marg' '' '' 60 ((VARIABLE IN UNKNOWN-PROC UNKNOWN UNKNOWN 0 0
DIMENSION DUMMY) (DERIVED 11 0 0 0 DERIVED ()) 0 0 () (3 0 ASSUMED_SHAPE
(CONSTANT (INTEGER 4 0 0 0 INTEGER ()) 0 '1') () (CONSTANT (INTEGER 4 0
0 0 INTEGER ()) 0 '1') () (CONSTANT (INTEGER 4 0 0 0 INTEGER ()) 0 '1')
()) 0 () () () 0 0)
62 'thread' '' '' 60 ((VARIABLE IN UNKNOWN-PROC UNKNOWN UNKNOWN 0 0
DUMMY) (CHARACTER 1 0 0 0 CHARACTER (())) 0 0 () () 0 () () () 0 0)
64 'marg' '' '' 63 ((VARIABLE IN UNKNOWN-PROC UNKNOWN UNKNOWN 0 0
DIMENSION DUMMY) (DERIVED 11 0 0 0 DERIVED ()) 0 0 () (2 0 ASSUMED_SHAPE
(CONSTANT (INTEGER 4 0 0 0 INTEGER ()) 0 '1') () (CONSTANT (INTEGER 4 0
0 0 INTEGER ()) 0 '1') ()) 0 () () () 0 0)
65 'thread' '' '' 63 ((VARIABLE IN UNKNOWN-PROC UNKNOWN UNKNOWN 0 0
DUMMY) (CHARACTER 1 0 0 0 CHARACTER (())) 0 0 () () 0 () () () 0 0)
67 'marg' '' '' 66 ((VARIABLE IN UNKNOWN-PROC UNKNOWN UNKNOWN 0 0
DIMENSION DUMMY) (DERIVED 11 0 0 0 DERIVED ()) 0 0 () (1 0 ASSUMED_SHAPE
(CONSTANT (INTEGER 4 0 0 0 INTEGER ()) 0 '1') ()) 0 () () () 0 0)
68 'thread' '' '' 66 ((VARIABLE IN UNKNOWN-PROC UNKNOWN UNKNOWN 0 0
DUMMY) (CHARACTER 1 0 0 0 CHARACTER (())) 0 0 () () 0 () () () 0 0)
70 'marg' '' '' 69 ((VARIABLE IN UNKNOWN-PROC UNKNOWN UNKNOWN 0 0 DUMMY)
(DERIVED 11 0 0 0 DERIVED ()) 0 0 () () 0 () () () 0 0)
71 'thread' '' '' 69 ((VARIABLE IN UNKNOWN-PROC UNKNOWN UNKNOWN 0 0
DUMMY) (CHARACTER 1 0 0 0 CHARACTER (())) 0 0 () () 0 () () () 0 0)
)

('String' 0 11 'string' 0 21)
