GFORTRAN module version '10' created from /Users/f9y/mygit/clm4_coupled/models/utils/timing/perf_mod.F90
MD5:abac5ba7e0193474ed1f5b1b7c0f186d -- If you edit this, you'll get what you deserve.

(() () () () () () () () () () () () () () () () () () () () () () ()
() () () ())

()

()

()

()

()

(2 't_adj_detailf' 'perf_mod' '' 1 ((PROCEDURE UNKNOWN-INTENT
MODULE-PROC DECL UNKNOWN 0 0 SUBROUTINE) (UNKNOWN 0 0 0 0 UNKNOWN ()) 3
0 (4) () 0 () () () 0 0)
5 't_barrier_onf' 'perf_mod' '' 1 ((PROCEDURE UNKNOWN-INTENT MODULE-PROC
DECL UNKNOWN 0 0 FUNCTION IMPLICIT_PURE) (LOGICAL 4 0 0 0 LOGICAL ()) 0
0 () () 5 () () () 0 0)
6 't_barrierf' 'perf_mod' '' 1 ((PROCEDURE UNKNOWN-INTENT MODULE-PROC
DECL UNKNOWN 0 0 SUBROUTINE ALWAYS_EXPLICIT) (UNKNOWN 0 0 0 0 UNKNOWN ())
7 0 (8 9) () 0 () () () 0 0)
10 't_disablef' 'perf_mod' '' 1 ((PROCEDURE UNKNOWN-INTENT MODULE-PROC
DECL UNKNOWN 0 0 SUBROUTINE) (UNKNOWN 0 0 0 0 UNKNOWN ()) 0 0 () () 0 ()
() () 0 0)
11 't_enablef' 'perf_mod' '' 1 ((PROCEDURE UNKNOWN-INTENT MODULE-PROC
DECL UNKNOWN 0 0 SUBROUTINE) (UNKNOWN 0 0 0 0 UNKNOWN ()) 0 0 () () 0 ()
() () 0 0)
12 't_finalizef' 'perf_mod' '' 1 ((PROCEDURE UNKNOWN-INTENT MODULE-PROC
DECL UNKNOWN 0 0 SUBROUTINE) (UNKNOWN 0 0 0 0 UNKNOWN ()) 0 0 () () 0 ()
() () 0 0)
13 't_getlogunit' 'perf_mod' '' 1 ((PROCEDURE UNKNOWN-INTENT MODULE-PROC
DECL UNKNOWN 0 0 SUBROUTINE IMPLICIT_PURE) (UNKNOWN 0 0 0 0 UNKNOWN ())
14 0 (15) () 0 () () () 0 0)
16 't_initf' 'perf_mod' '' 1 ((PROCEDURE UNKNOWN-INTENT MODULE-PROC DECL
UNKNOWN 0 0 SUBROUTINE ALWAYS_EXPLICIT) (UNKNOWN 0 0 0 0 UNKNOWN ()) 17
0 (18 19 20 21 22) () 0 () () () 0 0)
23 't_prf' 'perf_mod' '' 1 ((PROCEDURE UNKNOWN-INTENT MODULE-PROC DECL
UNKNOWN 0 0 SUBROUTINE ALWAYS_EXPLICIT) (UNKNOWN 0 0 0 0 UNKNOWN ()) 24
0 (25 26 27 28 29 30) () 0 () () () 0 0)
31 't_profile_onf' 'perf_mod' '' 1 ((PROCEDURE UNKNOWN-INTENT
MODULE-PROC DECL UNKNOWN 0 0 FUNCTION IMPLICIT_PURE) (LOGICAL 4 0 0 0
LOGICAL ()) 0 0 () () 31 () () () 0 0)
32 't_setlogunit' 'perf_mod' '' 1 ((PROCEDURE UNKNOWN-INTENT MODULE-PROC
DECL UNKNOWN 0 0 SUBROUTINE) (UNKNOWN 0 0 0 0 UNKNOWN ()) 33 0 (34) () 0
() () () 0 0)
35 't_single_filef' 'perf_mod' '' 1 ((PROCEDURE UNKNOWN-INTENT
MODULE-PROC DECL UNKNOWN 0 0 FUNCTION IMPLICIT_PURE) (LOGICAL 4 0 0 0
LOGICAL ()) 0 0 () () 35 () () () 0 0)
36 't_stampf' 'perf_mod' '' 1 ((PROCEDURE UNKNOWN-INTENT MODULE-PROC
DECL UNKNOWN 0 0 SUBROUTINE) (UNKNOWN 0 0 0 0 UNKNOWN ()) 37 0 (38 39 40)
() 0 () () () 0 0)
41 't_startf' 'perf_mod' '' 1 ((PROCEDURE UNKNOWN-INTENT MODULE-PROC
DECL UNKNOWN 0 0 SUBROUTINE) (UNKNOWN 0 0 0 0 UNKNOWN ()) 42 0 (43) () 0
() () () 0 0)
44 't_stopf' 'perf_mod' '' 1 ((PROCEDURE UNKNOWN-INTENT MODULE-PROC DECL
UNKNOWN 0 0 SUBROUTINE) (UNKNOWN 0 0 0 0 UNKNOWN ()) 45 0 (46) () 0 () ()
() 0 0)
4 'detail_adjustment' '' '' 3 ((VARIABLE IN UNKNOWN-PROC UNKNOWN UNKNOWN
0 0 DUMMY) (INTEGER 4 0 0 0 INTEGER ()) 0 0 () () 0 () () () 0 0)
8 'event' '' '' 7 ((VARIABLE IN UNKNOWN-PROC UNKNOWN UNKNOWN 0 0
OPTIONAL DUMMY) (CHARACTER 1 0 0 0 CHARACTER (())) 0 0 () () 0 () () ()
0 0)
9 'mpicom' '' '' 7 ((VARIABLE IN UNKNOWN-PROC UNKNOWN UNKNOWN 0 0
OPTIONAL DUMMY) (INTEGER 4 0 0 0 INTEGER ()) 0 0 () () 0 () () () 0 0)
15 'logunit' '' '' 14 ((VARIABLE OUT UNKNOWN-PROC UNKNOWN UNKNOWN 0 0
DUMMY) (INTEGER 4 0 0 0 INTEGER ()) 0 0 () () 0 () () () 0 0)
18 'nlfilename' '' '' 17 ((VARIABLE IN UNKNOWN-PROC UNKNOWN UNKNOWN 0 0
DUMMY) (CHARACTER 1 0 0 0 CHARACTER (())) 0 0 () () 0 () () () 0 0)
19 'logprint' '' '' 17 ((VARIABLE IN UNKNOWN-PROC UNKNOWN UNKNOWN 0 0
OPTIONAL DUMMY) (LOGICAL 4 0 0 0 LOGICAL ()) 0 0 () () 0 () () () 0 0)
20 'logunit' '' '' 17 ((VARIABLE IN UNKNOWN-PROC UNKNOWN UNKNOWN 0 0
OPTIONAL DUMMY) (INTEGER 4 0 0 0 INTEGER ()) 0 0 () () 0 () () () 0 0)
21 'mpicom' '' '' 17 ((VARIABLE IN UNKNOWN-PROC UNKNOWN UNKNOWN 0 0
OPTIONAL DUMMY) (INTEGER 4 0 0 0 INTEGER ()) 0 0 () () 0 () () () 0 0)
22 'mastertask' '' '' 17 ((VARIABLE IN UNKNOWN-PROC UNKNOWN UNKNOWN 0 0
OPTIONAL DUMMY) (LOGICAL 4 0 0 0 LOGICAL ()) 0 0 () () 0 () () () 0 0)
25 'filename' '' '' 24 ((VARIABLE IN UNKNOWN-PROC UNKNOWN UNKNOWN 0 0
OPTIONAL DUMMY) (CHARACTER 1 0 0 0 CHARACTER (())) 0 0 () () 0 () () ()
0 0)
26 'mpicom' '' '' 24 ((VARIABLE IN UNKNOWN-PROC UNKNOWN UNKNOWN 0 0
OPTIONAL DUMMY) (INTEGER 4 0 0 0 INTEGER ()) 0 0 () () 0 () () () 0 0)
27 'num_outpe' '' '' 24 ((VARIABLE IN UNKNOWN-PROC UNKNOWN UNKNOWN 0 0
OPTIONAL DUMMY) (INTEGER 4 0 0 0 INTEGER ()) 0 0 () () 0 () () () 0 0)
28 'stride_outpe' '' '' 24 ((VARIABLE IN UNKNOWN-PROC UNKNOWN UNKNOWN 0
0 OPTIONAL DUMMY) (INTEGER 4 0 0 0 INTEGER ()) 0 0 () () 0 () () () 0 0)
29 'single_file' '' '' 24 ((VARIABLE IN UNKNOWN-PROC UNKNOWN UNKNOWN 0 0
OPTIONAL DUMMY) (LOGICAL 4 0 0 0 LOGICAL ()) 0 0 () () 0 () () () 0 0)
30 'global_stats' '' '' 24 ((VARIABLE IN UNKNOWN-PROC UNKNOWN UNKNOWN 0
0 OPTIONAL DUMMY) (LOGICAL 4 0 0 0 LOGICAL ()) 0 0 () () 0 () () () 0 0)
34 'logunit' '' '' 33 ((VARIABLE IN UNKNOWN-PROC UNKNOWN UNKNOWN 0 0
DUMMY) (INTEGER 4 0 0 0 INTEGER ()) 0 0 () () 0 () () () 0 0)
38 'wall' '' '' 37 ((VARIABLE OUT UNKNOWN-PROC UNKNOWN UNKNOWN 0 0 DUMMY)
(REAL 8 0 0 0 REAL ()) 0 0 () () 0 () () () 0 0)
39 'usr' '' '' 37 ((VARIABLE OUT UNKNOWN-PROC UNKNOWN UNKNOWN 0 0 DUMMY)
(REAL 8 0 0 0 REAL ()) 0 0 () () 0 () () () 0 0)
40 'sys' '' '' 37 ((VARIABLE OUT UNKNOWN-PROC UNKNOWN UNKNOWN 0 0 DUMMY)
(REAL 8 0 0 0 REAL ()) 0 0 () () 0 () () () 0 0)
43 'event' '' '' 42 ((VARIABLE IN UNKNOWN-PROC UNKNOWN UNKNOWN 0 0 DUMMY)
(CHARACTER 1 0 0 0 CHARACTER (())) 0 0 () () 0 () () () 0 0)
46 'event' '' '' 45 ((VARIABLE IN UNKNOWN-PROC UNKNOWN UNKNOWN 0 0 DUMMY)
(CHARACTER 1 0 0 0 CHARACTER (())) 0 0 () () 0 () () () 0 0)
)

('t_adj_detailf' 0 2 't_barrier_onf' 0 5 't_barrierf' 0 6 't_disablef' 0
10 't_enablef' 0 11 't_finalizef' 0 12 't_getlogunit' 0 13 't_initf' 0
16 't_prf' 0 23 't_profile_onf' 0 31 't_setlogunit' 0 32 't_single_filef'
0 35 't_stampf' 0 36 't_startf' 0 41 't_stopf' 0 44)
