GFORTRAN module version '10' created from /Users/f9y/mygit/clm4_coupled/models/drv/shr/seq_drydep_mod.F90
MD5:9b91d1ff522c48113cc59eb418abe781 -- If you edit this, you'll get what you deserve.

(() () () () () () () () () () () () () () () () () () () () () () ()
() () () ())

()

(('seq_drydep_sethcoeff' 'seq_drydep_mod' 2 3))

()

()

()

(4 'ch4_ndx' 'seq_drydep_mod' '' 1 ((VARIABLE UNKNOWN-INTENT
UNKNOWN-PROC UNKNOWN EXPLICIT-SAVE 0 0) (INTEGER 4 0 0 0 INTEGER ()) 0 0
() () 0 () () () 0 0)
5 'co_ndx' 'seq_drydep_mod' '' 1 ((VARIABLE UNKNOWN-INTENT UNKNOWN-PROC
UNKNOWN EXPLICIT-SAVE 0 0) (INTEGER 4 0 0 0 INTEGER ()) 0 0 () () 0 () ()
() 0 0)
6 'dd_tabl' 'seq_drydep_mod' '' 1 ((PARAMETER UNKNOWN-INTENT
UNKNOWN-PROC UNKNOWN IMPLICIT-SAVE 0 0) (CHARACTER 1 0 0 0 CHARACTER ((
CONSTANT (INTEGER 4 0 0 0 INTEGER ()) 0 '16'))) 0 0 () (CONSTANT (
CHARACTER 1 0 0 0 CHARACTER (())) 0 16 'table           ') () 0 () () ()
0 0)
7 'dd_xatm' 'seq_drydep_mod' '' 1 ((PARAMETER UNKNOWN-INTENT
UNKNOWN-PROC UNKNOWN IMPLICIT-SAVE 0 0) (CHARACTER 1 0 0 0 CHARACTER ((
CONSTANT (INTEGER 4 0 0 0 INTEGER ()) 0 '16'))) 0 0 () (CONSTANT (
CHARACTER 1 0 0 0 CHARACTER (())) 0 16 'xactive_atm     ') () 0 () () ()
0 0)
8 'dd_xlnd' 'seq_drydep_mod' '' 1 ((PARAMETER UNKNOWN-INTENT
UNKNOWN-PROC UNKNOWN IMPLICIT-SAVE 0 0) (CHARACTER 1 0 0 0 CHARACTER ((
CONSTANT (INTEGER 4 0 0 0 INTEGER ()) 0 '16'))) 0 0 () (CONSTANT (
CHARACTER 1 0 0 0 CHARACTER (())) 0 16 'xactive_lnd     ') () 0 () () ()
0 0)
9 'dfoxd' 'seq_drydep_mod' '' 1 ((PARAMETER UNKNOWN-INTENT UNKNOWN-PROC
UNKNOWN IMPLICIT-SAVE 0 0 DIMENSION) (REAL 8 0 0 0 REAL ()) 0 0 () (
ARRAY (REAL 8 0 0 0 REAL ()) 1 (((CONSTANT (REAL 8 0 0 0 REAL ()) 0
'0.10000000000000@1') ()) ((CONSTANT (REAL 8 0 0 0 REAL ()) 0
'0.10000000000000@1') ()) ((CONSTANT (REAL 8 0 0 0 REAL ()) 0
'0.10000000000000@1') ()) ((CONSTANT (REAL 8 0 0 0 REAL ()) 0
'0.1999999999999a@0') ()) ((CONSTANT (REAL 8 0 0 0 REAL ()) 0
'0.154484932d2e72@-29') ()) ((CONSTANT (REAL 8 0 0 0 REAL ()) 0
'0.154484932d2e72@-29') ()) ((CONSTANT (REAL 8 0 0 0 REAL ()) 0
'0.10000000000000@1') ()) ((CONSTANT (REAL 8 0 0 0 REAL ()) 0
'0.1999999999999a@0') ()) ((CONSTANT (REAL 8 0 0 0 REAL ()) 0
'0.154484932d2e72@-29') ()) ((CONSTANT (REAL 8 0 0 0 REAL ()) 0
'0.00000000000000@0') ()) ((CONSTANT (REAL 8 0 0 0 REAL ()) 0
'0.00000000000000@0') ()) ((CONSTANT (REAL 8 0 0 0 REAL ()) 0
'0.1999999999999a@0') ()) ((CONSTANT (REAL 8 0 0 0 REAL ()) 0
'0.154484932d2e72@-29') ()) ((CONSTANT (REAL 8 0 0 0 REAL ()) 0
'0.154484932d2e72@-29') ()) ((CONSTANT (REAL 8 0 0 0 REAL ()) 0
'0.154484932d2e72@-29') ()) ((CONSTANT (REAL 8 0 0 0 REAL ()) 0
'0.1999999999999a@0') ()) ((CONSTANT (REAL 8 0 0 0 REAL ()) 0
'0.10000000000000@1') ()) ((CONSTANT (REAL 8 0 0 0 REAL ()) 0
'0.154484932d2e72@-29') ()) ((CONSTANT (REAL 8 0 0 0 REAL ()) 0
'0.1999999999999a@0') ()) ((CONSTANT (REAL 8 0 0 0 REAL ()) 0
'0.10000000000000@1') ()) ((CONSTANT (REAL 8 0 0 0 REAL ()) 0
'0.154484932d2e72@-29') ()) ((CONSTANT (REAL 8 0 0 0 REAL ()) 0
'0.1999999999999a@0') ()) ((CONSTANT (REAL 8 0 0 0 REAL ()) 0
'0.1999999999999a@0') ()) ((CONSTANT (REAL 8 0 0 0 REAL ()) 0
'0.1999999999999a@0') ()) ((CONSTANT (REAL 8 0 0 0 REAL ()) 0
'0.1999999999999a@0') ()) ((CONSTANT (REAL 8 0 0 0 REAL ()) 0
'0.154484932d2e72@-29') ()) ((CONSTANT (REAL 8 0 0 0 REAL ()) 0
'0.154484932d2e72@-29') ()) ((CONSTANT (REAL 8 0 0 0 REAL ()) 0
'0.1999999999999a@0') ()) ((CONSTANT (REAL 8 0 0 0 REAL ()) 0
'0.154484932d2e72@-29') ()) ((CONSTANT (REAL 8 0 0 0 REAL ()) 0
'0.1999999999999a@0') ()) ((CONSTANT (REAL 8 0 0 0 REAL ()) 0
'0.154484932d2e72@-29') ()) ((CONSTANT (REAL 8 0 0 0 REAL ()) 0
'0.1999999999999a@0') ()) ((CONSTANT (REAL 8 0 0 0 REAL ()) 0
'0.1999999999999a@0') ()) ((CONSTANT (REAL 8 0 0 0 REAL ()) 0
'0.154484932d2e72@-29') ()) ((CONSTANT (REAL 8 0 0 0 REAL ()) 0
'0.154484932d2e72@-29') ()) ((CONSTANT (REAL 8 0 0 0 REAL ()) 0
'0.154484932d2e72@-29') ()) ((CONSTANT (REAL 8 0 0 0 REAL ()) 0
'0.154484932d2e72@-29') ()) ((CONSTANT (REAL 8 0 0 0 REAL ()) 0
'0.1999999999999a@0') ()) ((CONSTANT (REAL 8 0 0 0 REAL ()) 0
'0.154484932d2e72@-29') ()) ((CONSTANT (REAL 8 0 0 0 REAL ()) 0
'0.1999999999999a@0') ()) ((CONSTANT (REAL 8 0 0 0 REAL ()) 0
'0.154484932d2e72@-29') ()) ((CONSTANT (REAL 8 0 0 0 REAL ()) 0
'0.1999999999999a@0') ()) ((CONSTANT (REAL 8 0 0 0 REAL ()) 0
'0.1999999999999a@0') ()) ((CONSTANT (REAL 8 0 0 0 REAL ()) 0
'0.1999999999999a@0') ()) ((CONSTANT (REAL 8 0 0 0 REAL ()) 0
'0.154484932d2e72@-29') ()) ((CONSTANT (REAL 8 0 0 0 REAL ()) 0
'0.154484932d2e72@-29') ()) ((CONSTANT (REAL 8 0 0 0 REAL ()) 0
'0.154484932d2e72@-29') ()) ((CONSTANT (REAL 8 0 0 0 REAL ()) 0
'0.154484932d2e72@-29') ()) ((CONSTANT (REAL 8 0 0 0 REAL ()) 0
'0.154484932d2e72@-29') ()) ((CONSTANT (REAL 8 0 0 0 REAL ()) 0
'0.1999999999999a@0') ()) ((CONSTANT (REAL 8 0 0 0 REAL ()) 0
'0.1999999999999a@0') ()) ((CONSTANT (REAL 8 0 0 0 REAL ()) 0
'0.1999999999999a@0') ()) ((CONSTANT (REAL 8 0 0 0 REAL ()) 0
'0.154484932d2e72@-29') ()) ((CONSTANT (REAL 8 0 0 0 REAL ()) 0
'0.154484932d2e72@-29') ()) ((CONSTANT (REAL 8 0 0 0 REAL ()) 0
'0.154484932d2e72@-29') ())) ('55')) (1 0 EXPLICIT (CONSTANT (INTEGER 4
0 0 0 INTEGER ()) 0 '1') (CONSTANT (INTEGER 4 0 0 0 INTEGER ()) 0 '55'))
0 () () () 0 0)
10 'dheff' 'seq_drydep_mod' '' 1 ((PARAMETER UNKNOWN-INTENT UNKNOWN-PROC
UNKNOWN IMPLICIT-SAVE 0 0 DIMENSION) (REAL 8 0 0 0 REAL ()) 0 0 () (
ARRAY (REAL 8 0 0 0 REAL ()) 1 (((CONSTANT (REAL 8 0 0 0 REAL ()) 0
'0.2f1a9fbe76c8b4@-1') ()) ((CONSTANT (REAL 8 0 0 0 REAL ()) 0
'0.a0000000000000@3') ()) ((CONSTANT (REAL 8 0 0 0 REAL ()) 0
'0.00000000000000@0') ()) ((CONSTANT (REAL 8 0 0 0 REAL ()) 0
'0.00000000000000@0') ()) ((CONSTANT (REAL 8 0 0 0 REAL ()) 0
'0.00000000000000@0') ()) ((CONSTANT (REAL 8 0 0 0 REAL ()) 0
'0.00000000000000@0') ()) ((CONSTANT (REAL 8 0 0 0 REAL ()) 0
'0.14564000000000@5') ()) ((CONSTANT (REAL 8 0 0 0 REAL ()) 0
'0.1cd30000000000@4') ()) ((CONSTANT (REAL 8 0 0 0 REAL ()) 0
'0.26b3eb4f6502f2@-9') ()) ((CONSTANT (REAL 8 0 0 0 REAL ()) 0
'-0.e9200000000000@3') ()) ((CONSTANT (REAL 8 0 0 0 REAL ()) 0
'0.00000000000000@0') ()) ((CONSTANT (REAL 8 0 0 0 REAL ()) 0
'0.00000000000000@0') ()) ((CONSTANT (REAL 8 0 0 0 REAL ()) 0
'0.1e000000000000@2') ()) ((CONSTANT (REAL 8 0 0 0 REAL ()) 0
'0.00000000000000@0') ()) ((CONSTANT (REAL 8 0 0 0 REAL ()) 0
'0.00000000000000@0') ()) ((CONSTANT (REAL 8 0 0 0 REAL ()) 0
'0.00000000000000@0') ()) ((CONSTANT (REAL 8 0 0 0 REAL ()) 0
'0.00000000000000@0') ()) ((CONSTANT (REAL 8 0 0 0 REAL ()) 0
'0.00000000000000@0') ()) ((CONSTANT (REAL 8 0 0 0 REAL ()) 0
'0.7d000000000000@3') ()) ((CONSTANT (REAL 8 0 0 0 REAL ()) 0
'0.19c80000000000@4') ()) ((CONSTANT (REAL 8 0 0 0 REAL ()) 0
'0.24b33daf8df7a4@-3') ()) ((CONSTANT (REAL 8 0 0 0 REAL ()) 0
'0.00000000000000@0') ()) ((CONSTANT (REAL 8 0 0 0 REAL ()) 0
'0.00000000000000@0') ()) ((CONSTANT (REAL 8 0 0 0 REAL ()) 0
'0.00000000000000@0') ()) ((CONSTANT (REAL 8 0 0 0 REAL ()) 0
'0.4189374bc6a7f0@-2') ()) ((CONSTANT (REAL 8 0 0 0 REAL ()) 0
'0.00000000000000@0') ()) ((CONSTANT (REAL 8 0 0 0 REAL ()) 0
'0.00000000000000@0') ()) ((CONSTANT (REAL 8 0 0 0 REAL ()) 0
'0.00000000000000@0') ()) ((CONSTANT (REAL 8 0 0 0 REAL ()) 0
'0.00000000000000@0') ()) ((CONSTANT (REAL 8 0 0 0 REAL ()) 0
'0.00000000000000@0') ()) ((CONSTANT (REAL 8 0 0 0 REAL ()) 0
'0.6f694467381d7c@-2') ()) ((CONSTANT (REAL 8 0 0 0 REAL ()) 0
'0.00000000000000@0') ()) ((CONSTANT (REAL 8 0 0 0 REAL ()) 0
'0.00000000000000@0') ()) ((CONSTANT (REAL 8 0 0 0 REAL ()) 0
'0.00000000000000@0') ()) ((CONSTANT (REAL 8 0 0 0 REAL ()) 0
'0.00000000000000@0') ()) ((CONSTANT (REAL 8 0 0 0 REAL ()) 0
'0.00000000000000@0') ()) ((CONSTANT (REAL 8 0 0 0 REAL ()) 0
'0.77851eb851eb84@1') ()) ((CONSTANT (REAL 8 0 0 0 REAL ()) 0
'0.14790000000000@4') ()) ((CONSTANT (REAL 8 0 0 0 REAL ()) 0
'0.00000000000000@0') ()) ((CONSTANT (REAL 8 0 0 0 REAL ()) 0
'0.00000000000000@0') ()) ((CONSTANT (REAL 8 0 0 0 REAL ()) 0
'0.00000000000000@0') ()) ((CONSTANT (REAL 8 0 0 0 REAL ()) 0
'0.00000000000000@0') ()) ((CONSTANT (REAL 8 0 0 0 REAL ()) 0
'0.13700000000000@3') ()) ((CONSTANT (REAL 8 0 0 0 REAL ()) 0
'0.14790000000000@4') ()) ((CONSTANT (REAL 8 0 0 0 REAL ()) 0
'0.00000000000000@0') ()) ((CONSTANT (REAL 8 0 0 0 REAL ()) 0
'0.00000000000000@0') ()) ((CONSTANT (REAL 8 0 0 0 REAL ()) 0
'0.00000000000000@0') ()) ((CONSTANT (REAL 8 0 0 0 REAL ()) 0
'0.00000000000000@0') ()) ((CONSTANT (REAL 8 0 0 0 REAL ()) 0
'0.189c0000000000@4') ()) ((CONSTANT (REAL 8 0 0 0 REAL ()) 0
'0.19190000000000@4') ()) ((CONSTANT (REAL 8 0 0 0 REAL ()) 0
'0.00000000000000@0') ()) ((CONSTANT (REAL 8 0 0 0 REAL ()) 0
'0.00000000000000@0') ()) ((CONSTANT (REAL 8 0 0 0 REAL ()) 0
'0.00000000000000@0') ()) ((CONSTANT (REAL 8 0 0 0 REAL ()) 0
'0.00000000000000@0') ()) ((CONSTANT (REAL 8 0 0 0 REAL ()) 0
'0.159a0000000000@4') ()) ((CONSTANT (REAL 8 0 0 0 REAL ()) 0
'0.16440000000000@4') ()) ((CONSTANT (REAL 8 0 0 0 REAL ()) 0
'0.bcbe61cffeb078@-3') ()) ((CONSTANT (REAL 8 0 0 0 REAL ()) 0
'-0.5e600000000000@3') ()) ((CONSTANT (REAL 8 0 0 0 REAL ()) 0
'0.00000000000000@0') ()) ((CONSTANT (REAL 8 0 0 0 REAL ()) 0
'0.00000000000000@0') ()) ((CONSTANT (REAL 8 0 0 0 REAL ()) 0
'0.7c84b5dcc63f14@-2') ()) ((CONSTANT (REAL 8 0 0 0 REAL ()) 0
'0.5c800000000000@3') ()) ((CONSTANT (REAL 8 0 0 0 REAL ()) 0
'0.00000000000000@0') ()) ((CONSTANT (REAL 8 0 0 0 REAL ()) 0
'0.00000000000000@0') ()) ((CONSTANT (REAL 8 0 0 0 REAL ()) 0
'0.00000000000000@0') ()) ((CONSTANT (REAL 8 0 0 0 REAL ()) 0
'0.00000000000000@0') ()) ((CONSTANT (REAL 8 0 0 0 REAL ()) 0
'0.1a36e2eb1c432d@-1') ()) ((CONSTANT (REAL 8 0 0 0 REAL ()) 0
'0.9c400000000000@3') ()) ((CONSTANT (REAL 8 0 0 0 REAL ()) 0
'0.00000000000000@0') ()) ((CONSTANT (REAL 8 0 0 0 REAL ()) 0
'0.00000000000000@0') ()) ((CONSTANT (REAL 8 0 0 0 REAL ()) 0
'0.00000000000000@0') ()) ((CONSTANT (REAL 8 0 0 0 REAL ()) 0
'0.00000000000000@0') ()) ((CONSTANT (REAL 8 0 0 0 REAL ()) 0
'0.00000000000000@0') ()) ((CONSTANT (REAL 8 0 0 0 REAL ()) 0
'0.00000000000000@0') ()) ((CONSTANT (REAL 8 0 0 0 REAL ()) 0
'0.27ac4000000000@6') ()) ((CONSTANT (REAL 8 0 0 0 REAL ()) 0
'0.21fc0000000000@4') ()) ((CONSTANT (REAL 8 0 0 0 REAL ()) 0
'0.00000000000000@0') ()) ((CONSTANT (REAL 8 0 0 0 REAL ()) 0
'0.00000000000000@0') ()) ((CONSTANT (REAL 8 0 0 0 REAL ()) 0
'0.8b4395810624e0@-1') ()) ((CONSTANT (REAL 8 0 0 0 REAL ()) 0
'0.97400000000000@3') ()) ((CONSTANT (REAL 8 0 0 0 REAL ()) 0
'0.78cbc3b85114c4@-5') ()) ((CONSTANT (REAL 8 0 0 0 REAL ()) 0
'-0.3e800000000000@3') ()) ((CONSTANT (REAL 8 0 0 0 REAL ()) 0
'0.27951962a74ea6@-8') ()) ((CONSTANT (REAL 8 0 0 0 REAL ()) 0
'-0.6e000000000000@3') ()) ((CONSTANT (REAL 8 0 0 0 REAL ()) 0
'0.4a000000000000@2') ()) ((CONSTANT (REAL 8 0 0 0 REAL ()) 0
'0.d4800000000000@3') ()) ((CONSTANT (REAL 8 0 0 0 REAL ()) 0
'0.11d3671ac14c66@-3') ()) ((CONSTANT (REAL 8 0 0 0 REAL ()) 0
'-0.1c200000000000@3') ()) ((CONSTANT (REAL 8 0 0 0 REAL ()) 0
'0.2d09370d425736@-11') ()) ((CONSTANT (REAL 8 0 0 0 REAL ()) 0
'-0.1a3c0000000000@4') ()) ((CONSTANT (REAL 8 0 0 0 REAL ()) 0
'0.223d70a3d70a3e@1') ()) ((CONSTANT (REAL 8 0 0 0 REAL ()) 0
'0.d2200000000000@3') ()) ((CONSTANT (REAL 8 0 0 0 REAL ()) 0
'0.00000000000000@0') ()) ((CONSTANT (REAL 8 0 0 0 REAL ()) 0
'0.00000000000000@0') ()) ((CONSTANT (REAL 8 0 0 0 REAL ()) 0
'0.00000000000000@0') ()) ((CONSTANT (REAL 8 0 0 0 REAL ()) 0
'0.00000000000000@0') ()) ((CONSTANT (REAL 8 0 0 0 REAL ()) 0
'0.a6666666666668@0') ()) ((CONSTANT (REAL 8 0 0 0 REAL ()) 0
'0.00000000000000@0') ()) ((CONSTANT (REAL 8 0 0 0 REAL ()) 0
'0.00000000000000@0') ()) ((CONSTANT (REAL 8 0 0 0 REAL ()) 0
'0.00000000000000@0') ()) ((CONSTANT (REAL 8 0 0 0 REAL ()) 0
'0.00000000000000@0') ()) ((CONSTANT (REAL 8 0 0 0 REAL ()) 0
'0.00000000000000@0') ()) ((CONSTANT (REAL 8 0 0 0 REAL ()) 0
'0.dc000000000000@2') ()) ((CONSTANT (REAL 8 0 0 0 REAL ()) 0
'0.13460000000000@4') ()) ((CONSTANT (REAL 8 0 0 0 REAL ()) 0
'0.00000000000000@0') ()) ((CONSTANT (REAL 8 0 0 0 REAL ()) 0
'0.00000000000000@0') ()) ((CONSTANT (REAL 8 0 0 0 REAL ()) 0
'0.00000000000000@0') ()) ((CONSTANT (REAL 8 0 0 0 REAL ()) 0
'0.00000000000000@0') ()) ((CONSTANT (REAL 8 0 0 0 REAL ()) 0
'0.00000000000000@0') ()) ((CONSTANT (REAL 8 0 0 0 REAL ()) 0
'0.00000000000000@0') ()) ((CONSTANT (REAL 8 0 0 0 REAL ()) 0
'0.20000000000000@2') ()) ((CONSTANT (REAL 8 0 0 0 REAL ()) 0
'0.00000000000000@0') ()) ((CONSTANT (REAL 8 0 0 0 REAL ()) 0
'0.00000000000000@0') ()) ((CONSTANT (REAL 8 0 0 0 REAL ()) 0
'0.00000000000000@0') ()) ((CONSTANT (REAL 8 0 0 0 REAL ()) 0
'0.734aca5f6226f0@-13') ()) ((CONSTANT (REAL 8 0 0 0 REAL ()) 0
'0.00000000000000@0') ()) ((CONSTANT (REAL 8 0 0 0 REAL ()) 0
'0.00000000000000@0') ()) ((CONSTANT (REAL 8 0 0 0 REAL ()) 0
'0.00000000000000@0') ()) ((CONSTANT (REAL 8 0 0 0 REAL ()) 0
'0.00000000000000@0') ()) ((CONSTANT (REAL 8 0 0 0 REAL ()) 0
'0.00000000000000@0') ()) ((CONSTANT (REAL 8 0 0 0 REAL ()) 0
'0.6f694467381d7c@-2') ()) ((CONSTANT (REAL 8 0 0 0 REAL ()) 0
'0.00000000000000@0') ()) ((CONSTANT (REAL 8 0 0 0 REAL ()) 0
'0.00000000000000@0') ()) ((CONSTANT (REAL 8 0 0 0 REAL ()) 0
'0.00000000000000@0') ()) ((CONSTANT (REAL 8 0 0 0 REAL ()) 0
'0.00000000000000@0') ()) ((CONSTANT (REAL 8 0 0 0 REAL ()) 0
'0.00000000000000@0') ()) ((CONSTANT (REAL 8 0 0 0 REAL ()) 0
'0.77851eb851eb84@1') ()) ((CONSTANT (REAL 8 0 0 0 REAL ()) 0
'0.14790000000000@4') ()) ((CONSTANT (REAL 8 0 0 0 REAL ()) 0
'0.00000000000000@0') ()) ((CONSTANT (REAL 8 0 0 0 REAL ()) 0
'0.00000000000000@0') ()) ((CONSTANT (REAL 8 0 0 0 REAL ()) 0
'0.00000000000000@0') ()) ((CONSTANT (REAL 8 0 0 0 REAL ()) 0
'0.00000000000000@0') ()) ((CONSTANT (REAL 8 0 0 0 REAL ()) 0
'0.77851eb851eb84@1') ()) ((CONSTANT (REAL 8 0 0 0 REAL ()) 0
'0.14790000000000@4') ()) ((CONSTANT (REAL 8 0 0 0 REAL ()) 0
'0.00000000000000@0') ()) ((CONSTANT (REAL 8 0 0 0 REAL ()) 0
'0.00000000000000@0') ()) ((CONSTANT (REAL 8 0 0 0 REAL ()) 0
'0.00000000000000@0') ()) ((CONSTANT (REAL 8 0 0 0 REAL ()) 0
'0.00000000000000@0') ()) ((CONSTANT (REAL 8 0 0 0 REAL ()) 0
'0.77851eb851eb84@1') ()) ((CONSTANT (REAL 8 0 0 0 REAL ()) 0
'0.14790000000000@4') ()) ((CONSTANT (REAL 8 0 0 0 REAL ()) 0
'0.00000000000000@0') ()) ((CONSTANT (REAL 8 0 0 0 REAL ()) 0
'0.00000000000000@0') ()) ((CONSTANT (REAL 8 0 0 0 REAL ()) 0
'0.00000000000000@0') ()) ((CONSTANT (REAL 8 0 0 0 REAL ()) 0
'0.00000000000000@0') ()) ((CONSTANT (REAL 8 0 0 0 REAL ()) 0
'0.77851eb851eb84@1') ()) ((CONSTANT (REAL 8 0 0 0 REAL ()) 0
'0.14790000000000@4') ()) ((CONSTANT (REAL 8 0 0 0 REAL ()) 0
'0.00000000000000@0') ()) ((CONSTANT (REAL 8 0 0 0 REAL ()) 0
'0.00000000000000@0') ()) ((CONSTANT (REAL 8 0 0 0 REAL ()) 0
'0.00000000000000@0') ()) ((CONSTANT (REAL 8 0 0 0 REAL ()) 0
'0.00000000000000@0') ()) ((CONSTANT (REAL 8 0 0 0 REAL ()) 0
'0.6f694467381d7c@-2') ()) ((CONSTANT (REAL 8 0 0 0 REAL ()) 0
'0.00000000000000@0') ()) ((CONSTANT (REAL 8 0 0 0 REAL ()) 0
'0.00000000000000@0') ()) ((CONSTANT (REAL 8 0 0 0 REAL ()) 0
'0.00000000000000@0') ()) ((CONSTANT (REAL 8 0 0 0 REAL ()) 0
'0.00000000000000@0') ()) ((CONSTANT (REAL 8 0 0 0 REAL ()) 0
'0.00000000000000@0') ()) ((CONSTANT (REAL 8 0 0 0 REAL ()) 0
'0.b6666666666668@1') ()) ((CONSTANT (REAL 8 0 0 0 REAL ()) 0
'0.187b0000000000@4') ()) ((CONSTANT (REAL 8 0 0 0 REAL ()) 0
'0.00000000000000@0') ()) ((CONSTANT (REAL 8 0 0 0 REAL ()) 0
'0.00000000000000@0') ()) ((CONSTANT (REAL 8 0 0 0 REAL ()) 0
'0.00000000000000@0') ()) ((CONSTANT (REAL 8 0 0 0 REAL ()) 0
'0.00000000000000@0') ()) ((CONSTANT (REAL 8 0 0 0 REAL ()) 0
'0.15000000000000@3') ()) ((CONSTANT (REAL 8 0 0 0 REAL ()) 0
'0.176b0000000000@4') ()) ((CONSTANT (REAL 8 0 0 0 REAL ()) 0
'0.00000000000000@0') ()) ((CONSTANT (REAL 8 0 0 0 REAL ()) 0
'0.00000000000000@0') ()) ((CONSTANT (REAL 8 0 0 0 REAL ()) 0
'0.00000000000000@0') ()) ((CONSTANT (REAL 8 0 0 0 REAL ()) 0
'0.00000000000000@0') ()) ((CONSTANT (REAL 8 0 0 0 REAL ()) 0
'0.6f694467381d7c@-2') ()) ((CONSTANT (REAL 8 0 0 0 REAL ()) 0
'0.00000000000000@0') ()) ((CONSTANT (REAL 8 0 0 0 REAL ()) 0
'0.00000000000000@0') ()) ((CONSTANT (REAL 8 0 0 0 REAL ()) 0
'0.00000000000000@0') ()) ((CONSTANT (REAL 8 0 0 0 REAL ()) 0
'0.00000000000000@0') ()) ((CONSTANT (REAL 8 0 0 0 REAL ()) 0
'0.00000000000000@0') ()) ((CONSTANT (REAL 8 0 0 0 REAL ()) 0
'0.dc000000000000@2') ()) ((CONSTANT (REAL 8 0 0 0 REAL ()) 0
'0.16150000000000@4') ()) ((CONSTANT (REAL 8 0 0 0 REAL ()) 0
'0.00000000000000@0') ()) ((CONSTANT (REAL 8 0 0 0 REAL ()) 0
'0.00000000000000@0') ()) ((CONSTANT (REAL 8 0 0 0 REAL ()) 0
'0.00000000000000@0') ()) ((CONSTANT (REAL 8 0 0 0 REAL ()) 0
'0.00000000000000@0') ()) ((CONSTANT (REAL 8 0 0 0 REAL ()) 0
'0.6f694467381d7c@-2') ()) ((CONSTANT (REAL 8 0 0 0 REAL ()) 0
'0.00000000000000@0') ()) ((CONSTANT (REAL 8 0 0 0 REAL ()) 0
'0.00000000000000@0') ()) ((CONSTANT (REAL 8 0 0 0 REAL ()) 0
'0.00000000000000@0') ()) ((CONSTANT (REAL 8 0 0 0 REAL ()) 0
'0.00000000000000@0') ()) ((CONSTANT (REAL 8 0 0 0 REAL ()) 0
'0.00000000000000@0') ()) ((CONSTANT (REAL 8 0 0 0 REAL ()) 0
'0.50000000000000@1') ()) ((CONSTANT (REAL 8 0 0 0 REAL ()) 0
'0.00000000000000@0') ()) ((CONSTANT (REAL 8 0 0 0 REAL ()) 0
'0.00000000000000@0') ()) ((CONSTANT (REAL 8 0 0 0 REAL ()) 0
'0.00000000000000@0') ()) ((CONSTANT (REAL 8 0 0 0 REAL ()) 0
'0.00000000000000@0') ()) ((CONSTANT (REAL 8 0 0 0 REAL ()) 0
'0.00000000000000@0') ()) ((CONSTANT (REAL 8 0 0 0 REAL ()) 0
'0.34500000000000@3') ()) ((CONSTANT (REAL 8 0 0 0 REAL ()) 0
'0.14bc0000000000@4') ()) ((CONSTANT (REAL 8 0 0 0 REAL ()) 0
'0.bcbe61cffeb078@-3') ()) ((CONSTANT (REAL 8 0 0 0 REAL ()) 0
'-0.5e600000000000@3') ()) ((CONSTANT (REAL 8 0 0 0 REAL ()) 0
'0.00000000000000@0') ()) ((CONSTANT (REAL 8 0 0 0 REAL ()) 0
'0.00000000000000@0') ()) ((CONSTANT (REAL 8 0 0 0 REAL ()) 0
'0.6f694467381d7c@-2') ()) ((CONSTANT (REAL 8 0 0 0 REAL ()) 0
'0.00000000000000@0') ()) ((CONSTANT (REAL 8 0 0 0 REAL ()) 0
'0.00000000000000@0') ()) ((CONSTANT (REAL 8 0 0 0 REAL ()) 0
'0.00000000000000@0') ()) ((CONSTANT (REAL 8 0 0 0 REAL ()) 0
'0.00000000000000@0') ()) ((CONSTANT (REAL 8 0 0 0 REAL ()) 0
'0.00000000000000@0') ()) ((CONSTANT (REAL 8 0 0 0 REAL ()) 0
'0.493e0000000000@5') ()) ((CONSTANT (REAL 8 0 0 0 REAL ()) 0
'0.00000000000000@0') ()) ((CONSTANT (REAL 8 0 0 0 REAL ()) 0
'0.00000000000000@0') ()) ((CONSTANT (REAL 8 0 0 0 REAL ()) 0
'0.00000000000000@0') ()) ((CONSTANT (REAL 8 0 0 0 REAL ()) 0
'0.00000000000000@0') ()) ((CONSTANT (REAL 8 0 0 0 REAL ()) 0
'0.00000000000000@0') ()) ((CONSTANT (REAL 8 0 0 0 REAL ()) 0
'0.e7e00000000000@3') ()) ((CONSTANT (REAL 8 0 0 0 REAL ()) 0
'0.1d750000000000@4') ()) ((CONSTANT (REAL 8 0 0 0 REAL ()) 0
'0.00000000000000@0') ()) ((CONSTANT (REAL 8 0 0 0 REAL ()) 0
'0.00000000000000@0') ()) ((CONSTANT (REAL 8 0 0 0 REAL ()) 0
'0.00000000000000@0') ()) ((CONSTANT (REAL 8 0 0 0 REAL ()) 0
'0.00000000000000@0') ()) ((CONSTANT (REAL 8 0 0 0 REAL ()) 0
'0.a1b80000000000@4') ()) ((CONSTANT (REAL 8 0 0 0 REAL ()) 0
'0.12160000000000@4') ()) ((CONSTANT (REAL 8 0 0 0 REAL ()) 0
'0.00000000000000@0') ()) ((CONSTANT (REAL 8 0 0 0 REAL ()) 0
'0.00000000000000@0') ()) ((CONSTANT (REAL 8 0 0 0 REAL ()) 0
'0.00000000000000@0') ()) ((CONSTANT (REAL 8 0 0 0 REAL ()) 0
'0.00000000000000@0') ()) ((CONSTANT (REAL 8 0 0 0 REAL ()) 0
'0.77851eb851eb84@1') ()) ((CONSTANT (REAL 8 0 0 0 REAL ()) 0
'0.14790000000000@4') ()) ((CONSTANT (REAL 8 0 0 0 REAL ()) 0
'0.00000000000000@0') ()) ((CONSTANT (REAL 8 0 0 0 REAL ()) 0
'0.00000000000000@0') ()) ((CONSTANT (REAL 8 0 0 0 REAL ()) 0
'0.00000000000000@0') ()) ((CONSTANT (REAL 8 0 0 0 REAL ()) 0
'0.00000000000000@0') ()) ((CONSTANT (REAL 8 0 0 0 REAL ()) 0
'0.5f06f694467380@-2') ()) ((CONSTANT (REAL 8 0 0 0 REAL ()) 0
'0.a8c00000000000@3') ()) ((CONSTANT (REAL 8 0 0 0 REAL ()) 0
'0.00000000000000@0') ()) ((CONSTANT (REAL 8 0 0 0 REAL ()) 0
'0.00000000000000@0') ()) ((CONSTANT (REAL 8 0 0 0 REAL ()) 0
'0.00000000000000@0') ()) ((CONSTANT (REAL 8 0 0 0 REAL ()) 0
'0.00000000000000@0') ()) ((CONSTANT (REAL 8 0 0 0 REAL ()) 0
'0.2dc6c000000000@6') ()) ((CONSTANT (REAL 8 0 0 0 REAL ()) 0
'0.00000000000000@0') ()) ((CONSTANT (REAL 8 0 0 0 REAL ()) 0
'0.00000000000000@0') ()) ((CONSTANT (REAL 8 0 0 0 REAL ()) 0
'0.00000000000000@0') ()) ((CONSTANT (REAL 8 0 0 0 REAL ()) 0
'0.00000000000000@0') ()) ((CONSTANT (REAL 8 0 0 0 REAL ()) 0
'0.00000000000000@0') ()) ((CONSTANT (REAL 8 0 0 0 REAL ()) 0
'0.1b000000000000@2') ()) ((CONSTANT (REAL 8 0 0 0 REAL ()) 0
'0.14b40000000000@4') ()) ((CONSTANT (REAL 8 0 0 0 REAL ()) 0
'0.00000000000000@0') ()) ((CONSTANT (REAL 8 0 0 0 REAL ()) 0
'0.00000000000000@0') ()) ((CONSTANT (REAL 8 0 0 0 REAL ()) 0
'0.00000000000000@0') ()) ((CONSTANT (REAL 8 0 0 0 REAL ()) 0
'0.00000000000000@0') ()) ((CONSTANT (REAL 8 0 0 0 REAL ()) 0
'0.15000000000000@3') ()) ((CONSTANT (REAL 8 0 0 0 REAL ()) 0
'0.176b0000000000@4') ()) ((CONSTANT (REAL 8 0 0 0 REAL ()) 0
'0.00000000000000@0') ()) ((CONSTANT (REAL 8 0 0 0 REAL ()) 0
'0.00000000000000@0') ()) ((CONSTANT (REAL 8 0 0 0 REAL ()) 0
'0.00000000000000@0') ()) ((CONSTANT (REAL 8 0 0 0 REAL ()) 0
'0.00000000000000@0') ()) ((CONSTANT (REAL 8 0 0 0 REAL ()) 0
'0.77851eb851eb84@1') ()) ((CONSTANT (REAL 8 0 0 0 REAL ()) 0
'0.14790000000000@4') ()) ((CONSTANT (REAL 8 0 0 0 REAL ()) 0
'0.00000000000000@0') ()) ((CONSTANT (REAL 8 0 0 0 REAL ()) 0
'0.00000000000000@0') ()) ((CONSTANT (REAL 8 0 0 0 REAL ()) 0
'0.00000000000000@0') ()) ((CONSTANT (REAL 8 0 0 0 REAL ()) 0
'0.00000000000000@0') ()) ((CONSTANT (REAL 8 0 0 0 REAL ()) 0
'0.15000000000000@3') ()) ((CONSTANT (REAL 8 0 0 0 REAL ()) 0
'0.176b0000000000@4') ()) ((CONSTANT (REAL 8 0 0 0 REAL ()) 0
'0.00000000000000@0') ()) ((CONSTANT (REAL 8 0 0 0 REAL ()) 0
'0.00000000000000@0') ()) ((CONSTANT (REAL 8 0 0 0 REAL ()) 0
'0.00000000000000@0') ()) ((CONSTANT (REAL 8 0 0 0 REAL ()) 0
'0.00000000000000@0') ()) ((CONSTANT (REAL 8 0 0 0 REAL ()) 0
'0.00000000000000@0') ()) ((CONSTANT (REAL 8 0 0 0 REAL ()) 0
'0.00000000000000@0') ()) ((CONSTANT (REAL 8 0 0 0 REAL ()) 0
'0.00000000000000@0') ()) ((CONSTANT (REAL 8 0 0 0 REAL ()) 0
'0.00000000000000@0') ()) ((CONSTANT (REAL 8 0 0 0 REAL ()) 0
'0.00000000000000@0') ()) ((CONSTANT (REAL 8 0 0 0 REAL ()) 0
'0.00000000000000@0') ()) ((CONSTANT (REAL 8 0 0 0 REAL ()) 0
'0.6f694467381d7c@-2') ()) ((CONSTANT (REAL 8 0 0 0 REAL ()) 0
'0.00000000000000@0') ()) ((CONSTANT (REAL 8 0 0 0 REAL ()) 0
'0.00000000000000@0') ()) ((CONSTANT (REAL 8 0 0 0 REAL ()) 0
'0.00000000000000@0') ()) ((CONSTANT (REAL 8 0 0 0 REAL ()) 0
'0.00000000000000@0') ()) ((CONSTANT (REAL 8 0 0 0 REAL ()) 0
'0.00000000000000@0') ()) ((CONSTANT (REAL 8 0 0 0 REAL ()) 0
'0.6f694467381d7c@-2') ()) ((CONSTANT (REAL 8 0 0 0 REAL ()) 0
'0.00000000000000@0') ()) ((CONSTANT (REAL 8 0 0 0 REAL ()) 0
'0.00000000000000@0') ()) ((CONSTANT (REAL 8 0 0 0 REAL ()) 0
'0.00000000000000@0') ()) ((CONSTANT (REAL 8 0 0 0 REAL ()) 0
'0.00000000000000@0') ()) ((CONSTANT (REAL 8 0 0 0 REAL ()) 0
'0.00000000000000@0') ()) ((CONSTANT (REAL 8 0 0 0 REAL ()) 0
'0.6f694467381d7c@-2') ()) ((CONSTANT (REAL 8 0 0 0 REAL ()) 0
'0.00000000000000@0') ()) ((CONSTANT (REAL 8 0 0 0 REAL ()) 0
'0.00000000000000@0') ()) ((CONSTANT (REAL 8 0 0 0 REAL ()) 0
'0.00000000000000@0') ()) ((CONSTANT (REAL 8 0 0 0 REAL ()) 0
'0.00000000000000@0') ()) ((CONSTANT (REAL 8 0 0 0 REAL ()) 0
'0.00000000000000@0') ()) ((CONSTANT (REAL 8 0 0 0 REAL ()) 0
'0.c8000000000000@2') ()) ((CONSTANT (REAL 8 0 0 0 REAL ()) 0
'0.19640000000000@4') ()) ((CONSTANT (REAL 8 0 0 0 REAL ()) 0
'0.00000000000000@0') ()) ((CONSTANT (REAL 8 0 0 0 REAL ()) 0
'0.00000000000000@0') ()) ((CONSTANT (REAL 8 0 0 0 REAL ()) 0
'0.00000000000000@0') ()) ((CONSTANT (REAL 8 0 0 0 REAL ()) 0
'0.00000000000000@0') ()) ((CONSTANT (REAL 8 0 0 0 REAL ()) 0
'0.1d560000000000@4') ()) ((CONSTANT (REAL 8 0 0 0 REAL ()) 0
'0.19550000000000@4') ()) ((CONSTANT (REAL 8 0 0 0 REAL ()) 0
'0.00000000000000@0') ()) ((CONSTANT (REAL 8 0 0 0 REAL ()) 0
'0.00000000000000@0') ()) ((CONSTANT (REAL 8 0 0 0 REAL ()) 0
'0.00000000000000@0') ()) ((CONSTANT (REAL 8 0 0 0 REAL ()) 0
'0.00000000000000@0') ()) ((CONSTANT (REAL 8 0 0 0 REAL ()) 0
'0.3e800000000000@3') ()) ((CONSTANT (REAL 8 0 0 0 REAL ()) 0
'0.17700000000000@4') ()) ((CONSTANT (REAL 8 0 0 0 REAL ()) 0
'0.00000000000000@0') ()) ((CONSTANT (REAL 8 0 0 0 REAL ()) 0
'0.00000000000000@0') ()) ((CONSTANT (REAL 8 0 0 0 REAL ()) 0
'0.00000000000000@0') ()) ((CONSTANT (REAL 8 0 0 0 REAL ()) 0
'0.00000000000000@0') ()) ((CONSTANT (REAL 8 0 0 0 REAL ()) 0
'0.a0000000000000@1') ()) ((CONSTANT (REAL 8 0 0 0 REAL ()) 0
'0.00000000000000@0') ()) ((CONSTANT (REAL 8 0 0 0 REAL ()) 0
'0.00000000000000@0') ()) ((CONSTANT (REAL 8 0 0 0 REAL ()) 0
'0.00000000000000@0') ()) ((CONSTANT (REAL 8 0 0 0 REAL ()) 0
'0.00000000000000@0') ()) ((CONSTANT (REAL 8 0 0 0 REAL ()) 0
'0.00000000000000@0') ()) ((CONSTANT (REAL 8 0 0 0 REAL ()) 0
'0.46000000000000@2') ()) ((CONSTANT (REAL 8 0 0 0 REAL ()) 0
'0.17700000000000@4') ()) ((CONSTANT (REAL 8 0 0 0 REAL ()) 0
'0.00000000000000@0') ()) ((CONSTANT (REAL 8 0 0 0 REAL ()) 0
'0.00000000000000@0') ()) ((CONSTANT (REAL 8 0 0 0 REAL ()) 0
'0.00000000000000@0') ()) ((CONSTANT (REAL 8 0 0 0 REAL ()) 0
'0.00000000000000@0') ()) ((CONSTANT (REAL 8 0 0 0 REAL ()) 0
'0.c0000000000000@1') ()) ((CONSTANT (REAL 8 0 0 0 REAL ()) 0
'0.13880000000000@4') ()) ((CONSTANT (REAL 8 0 0 0 REAL ()) 0
'0.00000000000000@0') ()) ((CONSTANT (REAL 8 0 0 0 REAL ()) 0
'0.00000000000000@0') ()) ((CONSTANT (REAL 8 0 0 0 REAL ()) 0
'0.00000000000000@0') ()) ((CONSTANT (REAL 8 0 0 0 REAL ()) 0
'0.00000000000000@0') ()) ((CONSTANT (REAL 8 0 0 0 REAL ()) 0
'0.32000000000000@2') ()) ((CONSTANT (REAL 8 0 0 0 REAL ()) 0
'0.fa000000000000@3') ()) ((CONSTANT (REAL 8 0 0 0 REAL ()) 0
'0.00000000000000@0') ()) ((CONSTANT (REAL 8 0 0 0 REAL ()) 0
'0.00000000000000@0') ()) ((CONSTANT (REAL 8 0 0 0 REAL ()) 0
'0.00000000000000@0') ()) ((CONSTANT (REAL 8 0 0 0 REAL ()) 0
'0.00000000000000@0') ())) ('330')) (1 0 EXPLICIT (CONSTANT (INTEGER 4 0
0 0 INTEGER ()) 0 '1') (CONSTANT (INTEGER 4 0 0 0 INTEGER ()) 0 '330'))
0 () () () 0 0)
11 'drat' 'seq_drydep_mod' '' 1 ((VARIABLE UNKNOWN-INTENT UNKNOWN-PROC
UNKNOWN EXPLICIT-SAVE 0 0 ALLOCATABLE DIMENSION) (REAL 8 0 0 0 REAL ())
0 0 () (1 0 DEFERRED () ()) 0 () () () 0 0)
12 'drydep_fields_token' 'seq_drydep_mod' '' 1 ((VARIABLE UNKNOWN-INTENT
UNKNOWN-PROC UNKNOWN EXPLICIT-SAVE 0 0) (CHARACTER 1 0 0 0 CHARACTER ((
CONSTANT (INTEGER 4 0 0 0 INTEGER ()) 0 '80'))) 0 0 () () 0 () () () 0 0)
13 'drydep_list' 'seq_drydep_mod' '' 1 ((VARIABLE UNKNOWN-INTENT
UNKNOWN-PROC UNKNOWN EXPLICIT-SAVE 0 0 DIMENSION IN_NAMELIST) (
CHARACTER 1 0 0 0 CHARACTER ((CONSTANT (INTEGER 4 0 0 0 INTEGER ()) 0 '32')))
0 0 () (1 0 EXPLICIT (CONSTANT (INTEGER 4 0 0 0 INTEGER ()) 0 '1') (
CONSTANT (INTEGER 4 0 0 0 INTEGER ()) 0 '100')) 0 () () () 0 0)
14 'drydep_method' 'seq_drydep_mod' '' 1 ((VARIABLE UNKNOWN-INTENT
UNKNOWN-PROC UNKNOWN EXPLICIT-SAVE 0 0 IN_NAMELIST) (CHARACTER 1 0 0 0
CHARACTER ((CONSTANT (INTEGER 4 0 0 0 INTEGER ()) 0 '16'))) 0 0 () () 0
() () () 0 0)
15 'foxd' 'seq_drydep_mod' '' 1 ((VARIABLE UNKNOWN-INTENT UNKNOWN-PROC
UNKNOWN EXPLICIT-SAVE 0 0 ALLOCATABLE DIMENSION) (REAL 8 0 0 0 REAL ())
0 0 () (1 0 DEFERRED () ()) 0 () () () 0 0)
16 'h2_a' 'seq_drydep_mod' '' 1 ((PARAMETER UNKNOWN-INTENT UNKNOWN-PROC
UNKNOWN IMPLICIT-SAVE 0 0 DIMENSION) (REAL 8 0 0 0 REAL ()) 0 0 () (
ARRAY (REAL 8 0 0 0 REAL ()) 1 (((CONSTANT (REAL 8 0 0 0 REAL ()) 0
'0.00000000000000@0') ()) ((CONSTANT (REAL 8 0 0 0 REAL ()) 0
'0.00000000000000@0') ()) ((CONSTANT (REAL 8 0 0 0 REAL ()) 0
'0.451eb851eb8520@0') ()) ((CONSTANT (REAL 8 0 0 0 REAL ()) 0
'0.00000000000000@0') ()) ((CONSTANT (REAL 8 0 0 0 REAL ()) 0
'0.00000000000000@0') ()) ((CONSTANT (REAL 8 0 0 0 REAL ()) 0
'0.00000000000000@0') ()) ((CONSTANT (REAL 8 0 0 0 REAL ()) 0
'0.00000000000000@0') ()) ((CONSTANT (REAL 8 0 0 0 REAL ()) 0
'0.00000000000000@0') ()) ((CONSTANT (REAL 8 0 0 0 REAL ()) 0
'0.00000000000000@0') ()) ((CONSTANT (REAL 8 0 0 0 REAL ()) 0
'0.00000000000000@0') ()) ((CONSTANT (REAL 8 0 0 0 REAL ()) 0
'0.00000000000000@0') ())) ('11')) (1 0 EXPLICIT (CONSTANT (INTEGER 4 0
0 0 INTEGER ()) 0 '1') (CONSTANT (INTEGER 4 0 0 0 INTEGER ()) 0 '11')) 0
() () () 0 0)
17 'h2_b' 'seq_drydep_mod' '' 1 ((PARAMETER UNKNOWN-INTENT UNKNOWN-PROC
UNKNOWN IMPLICIT-SAVE 0 0 DIMENSION) (REAL 8 0 0 0 REAL ()) 0 0 () (
ARRAY (REAL 8 0 0 0 REAL ()) 1 (((CONSTANT (REAL 8 0 0 0 REAL ()) 0
'0.00000000000000@0') ()) ((CONSTANT (REAL 8 0 0 0 REAL ()) 0
'-0.2963d70a3d70a4@2') ()) ((CONSTANT (REAL 8 0 0 0 REAL ()) 0
'-0.78d4fdf3b645a0@0') ()) ((CONSTANT (REAL 8 0 0 0 REAL ()) 0
'-0.29e66666666666@2') ()) ((CONSTANT (REAL 8 0 0 0 REAL ()) 0
'-0.29e66666666666@2') ()) ((CONSTANT (REAL 8 0 0 0 REAL ()) 0
'-0.29e66666666666@2') ()) ((CONSTANT (REAL 8 0 0 0 REAL ()) 0
'0.00000000000000@0') ()) ((CONSTANT (REAL 8 0 0 0 REAL ()) 0
'0.00000000000000@0') ()) ((CONSTANT (REAL 8 0 0 0 REAL ()) 0
'0.00000000000000@0') ()) ((CONSTANT (REAL 8 0 0 0 REAL ()) 0
'-0.2963d70a3d70a4@2') ()) ((CONSTANT (REAL 8 0 0 0 REAL ()) 0
'0.00000000000000@0') ())) ('11')) (1 0 EXPLICIT (CONSTANT (INTEGER 4 0
0 0 INTEGER ()) 0 '1') (CONSTANT (INTEGER 4 0 0 0 INTEGER ()) 0 '11')) 0
() () () 0 0)
18 'h2_c' 'seq_drydep_mod' '' 1 ((PARAMETER UNKNOWN-INTENT UNKNOWN-PROC
UNKNOWN IMPLICIT-SAVE 0 0 DIMENSION) (REAL 8 0 0 0 REAL ()) 0 0 () (
ARRAY (REAL 8 0 0 0 REAL ()) 1 (((CONSTANT (REAL 8 0 0 0 REAL ()) 0
'0.00000000000000@0') ()) ((CONSTANT (REAL 8 0 0 0 REAL ()) 0
'0.10d9999999999a@2') ()) ((CONSTANT (REAL 8 0 0 0 REAL ()) 0
'0.13c28f5c28f5c3@1') ()) ((CONSTANT (REAL 8 0 0 0 REAL ()) 0
'0.13b33333333333@2') ()) ((CONSTANT (REAL 8 0 0 0 REAL ()) 0
'0.13b33333333333@2') ()) ((CONSTANT (REAL 8 0 0 0 REAL ()) 0
'0.13b33333333333@2') ()) ((CONSTANT (REAL 8 0 0 0 REAL ()) 0
'0.00000000000000@0') ()) ((CONSTANT (REAL 8 0 0 0 REAL ()) 0
'0.00000000000000@0') ()) ((CONSTANT (REAL 8 0 0 0 REAL ()) 0
'0.00000000000000@0') ()) ((CONSTANT (REAL 8 0 0 0 REAL ()) 0
'0.11b33333333333@2') ()) ((CONSTANT (REAL 8 0 0 0 REAL ()) 0
'0.10000000000000@1') ())) ('11')) (1 0 EXPLICIT (CONSTANT (INTEGER 4 0
0 0 INTEGER ()) 0 '1') (CONSTANT (INTEGER 4 0 0 0 INTEGER ()) 0 '11')) 0
() () () 0 0)
19 'h2_ndx' 'seq_drydep_mod' '' 1 ((VARIABLE UNKNOWN-INTENT UNKNOWN-PROC
UNKNOWN EXPLICIT-SAVE 0 0) (INTEGER 4 0 0 0 INTEGER ()) 0 0 () () 0 () ()
() 0 0)
20 'lnd_drydep' 'seq_drydep_mod' '' 1 ((VARIABLE UNKNOWN-INTENT
UNKNOWN-PROC UNKNOWN EXPLICIT-SAVE 0 0) (LOGICAL 4 0 0 0 LOGICAL ()) 0 0
() () 0 () () () 0 0)
21 'mapping' 'seq_drydep_mod' '' 1 ((VARIABLE UNKNOWN-INTENT
UNKNOWN-PROC UNKNOWN EXPLICIT-SAVE 0 0 ALLOCATABLE DIMENSION) (INTEGER 4
0 0 0 INTEGER ()) 0 0 () (1 0 DEFERRED () ()) 0 () () () 0 0)
22 'mpan_ndx' 'seq_drydep_mod' '' 1 ((VARIABLE UNKNOWN-INTENT
UNKNOWN-PROC UNKNOWN EXPLICIT-SAVE 0 0) (INTEGER 4 0 0 0 INTEGER ()) 0 0
() () 0 () () () 0 0)
23 'n_drydep' 'seq_drydep_mod' '' 1 ((VARIABLE UNKNOWN-INTENT
UNKNOWN-PROC UNKNOWN EXPLICIT-SAVE 0 0) (INTEGER 4 0 0 0 INTEGER ()) 0 0
() () 0 () () () 0 0)
24 'n_species_table' 'seq_drydep_mod' '' 1 ((PARAMETER UNKNOWN-INTENT
UNKNOWN-PROC UNKNOWN IMPLICIT-SAVE 0 0) (INTEGER 4 0 0 0 INTEGER ()) 0 0
() (CONSTANT (INTEGER 4 0 0 0 INTEGER ()) 0 '55') () 0 () () () 0 0)
25 'o3_ndx' 'seq_drydep_mod' '' 1 ((VARIABLE UNKNOWN-INTENT UNKNOWN-PROC
UNKNOWN EXPLICIT-SAVE 0 0) (INTEGER 4 0 0 0 INTEGER ()) 0 0 () () 0 () ()
() 0 0)
26 'o3a_ndx' 'seq_drydep_mod' '' 1 ((VARIABLE UNKNOWN-INTENT
UNKNOWN-PROC UNKNOWN EXPLICIT-SAVE 0 0) (INTEGER 4 0 0 0 INTEGER ()) 0 0
() () 0 () () () 0 0)
27 'pan_ndx' 'seq_drydep_mod' '' 1 ((VARIABLE UNKNOWN-INTENT
UNKNOWN-PROC UNKNOWN EXPLICIT-SAVE 0 0) (INTEGER 4 0 0 0 INTEGER ()) 0 0
() () 0 () () () 0 0)
28 'ph' 'seq_drydep_mod' '' 1 ((PARAMETER UNKNOWN-INTENT UNKNOWN-PROC
UNKNOWN IMPLICIT-SAVE 0 0) (REAL 8 0 0 0 REAL ()) 0 0 () (CONSTANT (
REAL 8 0 0 0 REAL ()) 0 '0.a7c5ac471b4788@-4') () 0 () () () 0 0)
29 'rac' 'seq_drydep_mod' '' 1 ((VARIABLE UNKNOWN-INTENT UNKNOWN-PROC
UNKNOWN EXPLICIT-SAVE 0 0 DIMENSION DATA) (REAL 8 0 0 0 REAL ()) 0 0 ()
(2 0 EXPLICIT (CONSTANT (INTEGER 4 0 0 0 INTEGER ()) 0 '1') (CONSTANT (
INTEGER 4 0 0 0 INTEGER ()) 0 '5') (CONSTANT (INTEGER 4 0 0 0 INTEGER ())
0 '1') (CONSTANT (INTEGER 4 0 0 0 INTEGER ()) 0 '11')) 0 () () () 0 0)
30 'rclo' 'seq_drydep_mod' '' 1 ((VARIABLE UNKNOWN-INTENT UNKNOWN-PROC
UNKNOWN EXPLICIT-SAVE 0 0 DIMENSION DATA) (REAL 8 0 0 0 REAL ()) 0 0 ()
(2 0 EXPLICIT (CONSTANT (INTEGER 4 0 0 0 INTEGER ()) 0 '1') (CONSTANT (
INTEGER 4 0 0 0 INTEGER ()) 0 '5') (CONSTANT (INTEGER 4 0 0 0 INTEGER ())
0 '1') (CONSTANT (INTEGER 4 0 0 0 INTEGER ()) 0 '11')) 0 () () () 0 0)
31 'rcls' 'seq_drydep_mod' '' 1 ((VARIABLE UNKNOWN-INTENT UNKNOWN-PROC
UNKNOWN EXPLICIT-SAVE 0 0 DIMENSION DATA) (REAL 8 0 0 0 REAL ()) 0 0 ()
(2 0 EXPLICIT (CONSTANT (INTEGER 4 0 0 0 INTEGER ()) 0 '1') (CONSTANT (
INTEGER 4 0 0 0 INTEGER ()) 0 '5') (CONSTANT (INTEGER 4 0 0 0 INTEGER ())
0 '1') (CONSTANT (INTEGER 4 0 0 0 INTEGER ()) 0 '11')) 0 () () () 0 0)
32 'rgso' 'seq_drydep_mod' '' 1 ((VARIABLE UNKNOWN-INTENT UNKNOWN-PROC
UNKNOWN EXPLICIT-SAVE 0 0 DIMENSION DATA) (REAL 8 0 0 0 REAL ()) 0 0 ()
(2 0 EXPLICIT (CONSTANT (INTEGER 4 0 0 0 INTEGER ()) 0 '1') (CONSTANT (
INTEGER 4 0 0 0 INTEGER ()) 0 '5') (CONSTANT (INTEGER 4 0 0 0 INTEGER ())
0 '1') (CONSTANT (INTEGER 4 0 0 0 INTEGER ()) 0 '11')) 0 () () () 0 0)
33 'rgss' 'seq_drydep_mod' '' 1 ((VARIABLE UNKNOWN-INTENT UNKNOWN-PROC
UNKNOWN EXPLICIT-SAVE 0 0 DIMENSION DATA) (REAL 8 0 0 0 REAL ()) 0 0 ()
(2 0 EXPLICIT (CONSTANT (INTEGER 4 0 0 0 INTEGER ()) 0 '1') (CONSTANT (
INTEGER 4 0 0 0 INTEGER ()) 0 '5') (CONSTANT (INTEGER 4 0 0 0 INTEGER ())
0 '1') (CONSTANT (INTEGER 4 0 0 0 INTEGER ()) 0 '11')) 0 () () () 0 0)
34 'ri' 'seq_drydep_mod' '' 1 ((VARIABLE UNKNOWN-INTENT UNKNOWN-PROC
UNKNOWN EXPLICIT-SAVE 0 0 DIMENSION DATA) (REAL 8 0 0 0 REAL ()) 0 0 ()
(2 0 EXPLICIT (CONSTANT (INTEGER 4 0 0 0 INTEGER ()) 0 '1') (CONSTANT (
INTEGER 4 0 0 0 INTEGER ()) 0 '5') (CONSTANT (INTEGER 4 0 0 0 INTEGER ())
0 '1') (CONSTANT (INTEGER 4 0 0 0 INTEGER ()) 0 '11')) 0 () () () 0 0)
35 'rlu' 'seq_drydep_mod' '' 1 ((VARIABLE UNKNOWN-INTENT UNKNOWN-PROC
UNKNOWN EXPLICIT-SAVE 0 0 DIMENSION DATA) (REAL 8 0 0 0 REAL ()) 0 0 ()
(2 0 EXPLICIT (CONSTANT (INTEGER 4 0 0 0 INTEGER ()) 0 '1') (CONSTANT (
INTEGER 4 0 0 0 INTEGER ()) 0 '5') (CONSTANT (INTEGER 4 0 0 0 INTEGER ())
0 '1') (CONSTANT (INTEGER 4 0 0 0 INTEGER ()) 0 '11')) 0 () () () 0 0)
36 'seq_drydep_init' 'seq_drydep_mod' '' 1 ((PROCEDURE UNKNOWN-INTENT
MODULE-PROC DECL UNKNOWN 0 0 SUBROUTINE) (UNKNOWN 0 0 0 0 UNKNOWN ()) 0
0 () () 0 () () () 0 0)
37 'seq_drydep_read' 'seq_drydep_mod' '' 1 ((PROCEDURE UNKNOWN-INTENT
MODULE-PROC DECL UNKNOWN 0 0 SUBROUTINE) (UNKNOWN 0 0 0 0 UNKNOWN ()) 38
0 (39 40) () 0 () () () 0 0)
41 'so2_ndx' 'seq_drydep_mod' '' 1 ((VARIABLE UNKNOWN-INTENT
UNKNOWN-PROC UNKNOWN EXPLICIT-SAVE 0 0) (INTEGER 4 0 0 0 INTEGER ()) 0 0
() () 0 () () () 0 0)
42 'species_name_table' 'seq_drydep_mod' '' 1 ((PARAMETER UNKNOWN-INTENT
UNKNOWN-PROC UNKNOWN IMPLICIT-SAVE 0 0 DIMENSION) (CHARACTER 1 0 0 0
CHARACTER ((CONSTANT (INTEGER 4 0 0 0 INTEGER ()) 0 '20'))) 0 0 () (
ARRAY (CHARACTER 1 0 0 0 CHARACTER ((CONSTANT (INTEGER 4 0 0 0 INTEGER ())
0 '20'))) 1 (((CONSTANT (CHARACTER 1 0 0 0 CHARACTER ((CONSTANT (
INTEGER 4 0 0 0 INTEGER ()) 0 '8'))) 0 20 'OX                  ') ()) (
(CONSTANT (CHARACTER 1 0 0 0 CHARACTER (())) 0 20 'H2O2                ')
()) ((CONSTANT (CHARACTER 1 0 0 0 CHARACTER (())) 0 20
'OH                  ') ()) ((CONSTANT (CHARACTER 1 0 0 0 CHARACTER (()))
0 20 'HO2                 ') ()) ((CONSTANT (CHARACTER 1 0 0 0 CHARACTER
(())) 0 20 'CO                  ') ()) ((CONSTANT (CHARACTER 1 0 0 0
CHARACTER (())) 0 20 'CH4                 ') ()) ((CONSTANT (CHARACTER 1
0 0 0 CHARACTER (())) 0 20 'CH3O2               ') ()) ((CONSTANT (
CHARACTER 1 0 0 0 CHARACTER (())) 0 20 'CH3OOH              ') ()) ((
CONSTANT (CHARACTER 1 0 0 0 CHARACTER (())) 0 20 'CH2O                ')
()) ((CONSTANT (CHARACTER 1 0 0 0 CHARACTER (())) 0 20
'CHOOH               ') ()) ((CONSTANT (CHARACTER 1 0 0 0 CHARACTER (()))
0 20 'NO                  ') ()) ((CONSTANT (CHARACTER 1 0 0 0 CHARACTER
(())) 0 20 'NO2                 ') ()) ((CONSTANT (CHARACTER 1 0 0 0
CHARACTER (())) 0 20 'HNO3                ') ()) ((CONSTANT (CHARACTER 1
0 0 0 CHARACTER (())) 0 20 'CO2                 ') ()) ((CONSTANT (
CHARACTER 1 0 0 0 CHARACTER (())) 0 20 'NH3                 ') ()) ((
CONSTANT (CHARACTER 1 0 0 0 CHARACTER (())) 0 20 'N2O5                ')
()) ((CONSTANT (CHARACTER 1 0 0 0 CHARACTER (())) 0 20
'NO3                 ') ()) ((CONSTANT (CHARACTER 1 0 0 0 CHARACTER (()))
0 20 'CH3OH               ') ()) ((CONSTANT (CHARACTER 1 0 0 0 CHARACTER
(())) 0 20 'HO2NO2              ') ()) ((CONSTANT (CHARACTER 1 0 0 0
CHARACTER (())) 0 20 'O1D                 ') ()) ((CONSTANT (CHARACTER 1
0 0 0 CHARACTER (())) 0 20 'C2H6                ') ()) ((CONSTANT (
CHARACTER 1 0 0 0 CHARACTER (())) 0 20 'C2H5O2              ') ()) ((
CONSTANT (CHARACTER 1 0 0 0 CHARACTER (())) 0 20 'PO2                 ')
()) ((CONSTANT (CHARACTER 1 0 0 0 CHARACTER (())) 0 20
'MACRO2              ') ()) ((CONSTANT (CHARACTER 1 0 0 0 CHARACTER (()))
0 20 'ISOPO2              ') ()) ((CONSTANT (CHARACTER 1 0 0 0 CHARACTER
(())) 0 20 'C4H10               ') ()) ((CONSTANT (CHARACTER 1 0 0 0
CHARACTER (())) 0 20 'CH3CHO              ') ()) ((CONSTANT (CHARACTER 1
0 0 0 CHARACTER (())) 0 20 'C2H5OOH             ') ()) ((CONSTANT (
CHARACTER 1 0 0 0 CHARACTER (())) 0 20 'C3H6                ') ()) ((
CONSTANT (CHARACTER 1 0 0 0 CHARACTER (())) 0 20 'POOH                ')
()) ((CONSTANT (CHARACTER 1 0 0 0 CHARACTER (())) 0 20
'C2H4                ') ()) ((CONSTANT (CHARACTER 1 0 0 0 CHARACTER (()))
0 20 'PAN                 ') ()) ((CONSTANT (CHARACTER 1 0 0 0 CHARACTER
(())) 0 20 'CH3COOOH            ') ()) ((CONSTANT (CHARACTER 1 0 0 0
CHARACTER (())) 0 20 'C10H16              ') ()) ((CONSTANT (CHARACTER 1
0 0 0 CHARACTER (())) 0 20 'CHOCHO              ') ()) ((CONSTANT (
CHARACTER 1 0 0 0 CHARACTER (())) 0 20 'CH3COCHO            ') ()) ((
CONSTANT (CHARACTER 1 0 0 0 CHARACTER (())) 0 20 'GLYALD              ')
()) ((CONSTANT (CHARACTER 1 0 0 0 CHARACTER (())) 0 20
'CH3CO3              ') ()) ((CONSTANT (CHARACTER 1 0 0 0 CHARACTER (()))
0 20 'C3H8                ') ()) ((CONSTANT (CHARACTER 1 0 0 0 CHARACTER
(())) 0 20 'C3H7O2              ') ()) ((CONSTANT (CHARACTER 1 0 0 0
CHARACTER (())) 0 20 'CH3COCH3            ') ()) ((CONSTANT (CHARACTER 1
0 0 0 CHARACTER (())) 0 20 'C3H7OOH             ') ()) ((CONSTANT (
CHARACTER 1 0 0 0 CHARACTER (())) 0 20 'RO2                 ') ()) ((
CONSTANT (CHARACTER 1 0 0 0 CHARACTER (())) 0 20 'ROOH                ')
()) ((CONSTANT (CHARACTER 1 0 0 0 CHARACTER (())) 0 20
'Rn                  ') ()) ((CONSTANT (CHARACTER 1 0 0 0 CHARACTER (()))
0 20 'ISOP                ') ()) ((CONSTANT (CHARACTER 1 0 0 0 CHARACTER
(())) 0 20 'MVK                 ') ()) ((CONSTANT (CHARACTER 1 0 0 0
CHARACTER (())) 0 20 'MACR                ') ()) ((CONSTANT (CHARACTER 1
0 0 0 CHARACTER (())) 0 20 'C2H5OH              ') ()) ((CONSTANT (
CHARACTER 1 0 0 0 CHARACTER (())) 0 20 'ONITR               ') ()) ((
CONSTANT (CHARACTER 1 0 0 0 CHARACTER (())) 0 20 'ONIT                ')
()) ((CONSTANT (CHARACTER 1 0 0 0 CHARACTER (())) 0 20
'ISOPNO3             ') ()) ((CONSTANT (CHARACTER 1 0 0 0 CHARACTER (()))
0 20 'HYDRALD             ') ()) ((CONSTANT (CHARACTER 1 0 0 0 CHARACTER
(())) 0 20 'HCN                 ') ()) ((CONSTANT (CHARACTER 1 0 0 0
CHARACTER (())) 0 20 'CH3CN               ') ())) ('55')) (1 0 EXPLICIT
(CONSTANT (INTEGER 4 0 0 0 INTEGER ()) 0 '1') (CONSTANT (INTEGER 4 0 0 0
INTEGER ()) 0 '55')) 0 () () () 0 0)
43 'z0' 'seq_drydep_mod' '' 1 ((VARIABLE UNKNOWN-INTENT UNKNOWN-PROC
UNKNOWN EXPLICIT-SAVE 0 0 DIMENSION DATA) (REAL 8 0 0 0 REAL ()) 0 0 ()
(2 0 EXPLICIT (CONSTANT (INTEGER 4 0 0 0 INTEGER ()) 0 '1') (CONSTANT (
INTEGER 4 0 0 0 INTEGER ()) 0 '5') (CONSTANT (INTEGER 4 0 0 0 INTEGER ())
0 '1') (CONSTANT (INTEGER 4 0 0 0 INTEGER ()) 0 '11')) 0 () () () 0 0)
2 'set_hcoeff_vector' 'seq_drydep_mod' '' 1 ((PROCEDURE UNKNOWN-INTENT
MODULE-PROC DECL UNKNOWN 0 0 SUBROUTINE) (UNKNOWN 0 0 0 0 UNKNOWN ()) 44
0 (45 46 47) () 0 () () () 0 0)
3 'set_hcoeff_scalar' 'seq_drydep_mod' '' 1 ((PROCEDURE UNKNOWN-INTENT
MODULE-PROC DECL UNKNOWN 0 0 SUBROUTINE) (UNKNOWN 0 0 0 0 UNKNOWN ()) 48
0 (49 50) () 0 () () () 0 0)
39 'nlfilename' '' '' 38 ((VARIABLE IN UNKNOWN-PROC UNKNOWN UNKNOWN 0 0
DUMMY) (CHARACTER 1 0 0 0 CHARACTER (())) 0 0 () () 0 () () () 0 0)
40 'seq_drydep_fields' '' '' 38 ((VARIABLE OUT UNKNOWN-PROC UNKNOWN
UNKNOWN 0 0 DUMMY) (CHARACTER 1 0 0 0 CHARACTER (())) 0 0 () () 0 () ()
() 0 0)
45 'ncol' '' '' 44 ((VARIABLE IN UNKNOWN-PROC UNKNOWN UNKNOWN 0 0 DUMMY)
(INTEGER 4 0 0 0 INTEGER ()) 0 0 () () 0 () () () 0 0)
46 'sfc_temp' '' '' 44 ((VARIABLE IN UNKNOWN-PROC UNKNOWN UNKNOWN 0 0
DIMENSION DUMMY) (REAL 8 0 0 0 REAL ()) 0 0 () (1 0 EXPLICIT (CONSTANT (
INTEGER 4 0 0 0 INTEGER ()) 0 '1') (VARIABLE (INTEGER 4 0 0 0 INTEGER ())
0 45 ())) 0 () () () 0 0)
47 'heff' '' '' 44 ((VARIABLE OUT UNKNOWN-PROC UNKNOWN UNKNOWN 0 0
DIMENSION DUMMY) (REAL 8 0 0 0 REAL ()) 0 0 () (2 0 EXPLICIT (CONSTANT (
INTEGER 4 0 0 0 INTEGER ()) 0 '1') (VARIABLE (INTEGER 4 0 0 0 INTEGER ())
0 45 ()) (CONSTANT (INTEGER 4 0 0 0 INTEGER ()) 0 '1') (VARIABLE (
INTEGER 4 0 0 0 INTEGER ()) 0 23 ())) 0 () () () 0 0)
49 'sfc_temp' '' '' 48 ((VARIABLE IN UNKNOWN-PROC UNKNOWN UNKNOWN 0 0
DUMMY) (REAL 8 0 0 0 REAL ()) 0 0 () () 0 () () () 0 0)
50 'heff' '' '' 48 ((VARIABLE OUT UNKNOWN-PROC UNKNOWN UNKNOWN 0 0
DIMENSION DUMMY) (REAL 8 0 0 0 REAL ()) 0 0 () (1 0 EXPLICIT (CONSTANT (
INTEGER 4 0 0 0 INTEGER ()) 0 '1') (VARIABLE (INTEGER 4 0 0 0 INTEGER ())
0 23 ())) 0 () () () 0 0)
)

('ch4_ndx' 0 4 'co_ndx' 0 5 'dd_tabl' 0 6 'dd_xatm' 0 7 'dd_xlnd' 0 8
'dfoxd' 0 9 'dheff' 0 10 'drat' 0 11 'drydep_fields_token' 0 12
'drydep_list' 0 13 'drydep_method' 0 14 'foxd' 0 15 'h2_a' 0 16 'h2_b' 0
17 'h2_c' 0 18 'h2_ndx' 0 19 'lnd_drydep' 0 20 'mapping' 0 21 'mpan_ndx'
0 22 'n_drydep' 0 23 'n_species_table' 0 24 'o3_ndx' 0 25 'o3a_ndx' 0 26
'pan_ndx' 0 27 'ph' 0 28 'rac' 0 29 'rclo' 0 30 'rcls' 0 31 'rgso' 0 32
'rgss' 0 33 'ri' 0 34 'rlu' 0 35 'seq_drydep_init' 0 36 'seq_drydep_read'
0 37 'so2_ndx' 0 41 'species_name_table' 0 42 'z0' 0 43)
