GFORTRAN module version '10' created from /Users/f9y/mygit/clm4_coupled/models/csm_share/shr/shr_flux_mod.F90
MD5:787aa85479c036a8e177a55288af5f01 -- If you edit this, you'll get what you deserve.

(() () () () () () () () () () () () () () () () () () () () () () ()
() () () ())

()

()

()

()

()

(2 'shr_flux_atmice' 'shr_flux_mod' '' 1 ((PROCEDURE UNKNOWN-INTENT
MODULE-PROC DECL UNKNOWN 0 0 SUBROUTINE IMPLICIT_PURE ALWAYS_EXPLICIT) (
UNKNOWN 0 0 0 0 UNKNOWN ()) 3 0 (4 5 6 7 8 9 10 11 12 13 14 15 16 17 18
19 20) () 0 () () () 0 0)
21 'shr_flux_atmocn' 'shr_flux_mod' '' 1 ((PROCEDURE UNKNOWN-INTENT
MODULE-PROC DECL UNKNOWN 0 0 SUBROUTINE ALWAYS_EXPLICIT) (UNKNOWN 0 0 0
0 UNKNOWN ()) 22 0 (23 24 25 26 27 28 29 30 31 32 33 34 35 36 37 38 39
40 41 42 43 44 45 46 47) () 0 () () () 0 0)
48 'shr_flux_mofunctions' 'shr_flux_mod' '' 1 ((PARAMETER UNKNOWN-INTENT
UNKNOWN-PROC UNKNOWN IMPLICIT-SAVE 0 0) (INTEGER 4 0 0 0 INTEGER ()) 0 0
() (CONSTANT (INTEGER 4 0 0 0 INTEGER ()) 0 '2') () 0 () () () 0 0)
49 'shr_flux_mogammam' 'shr_flux_mod' '' 1 ((PARAMETER UNKNOWN-INTENT
UNKNOWN-PROC UNKNOWN IMPLICIT-SAVE 0 0) (REAL 8 0 0 0 REAL ()) 0 0 () (
CONSTANT (REAL 8 0 0 0 REAL ()) 0 '0.3970a3d70a3d70@1') () 0 () () () 0
0)
50 'shr_flux_mogammas' 'shr_flux_mod' '' 1 ((PARAMETER UNKNOWN-INTENT
UNKNOWN-PROC UNKNOWN IMPLICIT-SAVE 0 0) (REAL 8 0 0 0 REAL ()) 0 0 () (
CONSTANT (REAL 8 0 0 0 REAL ()) 0 '0.7dc28f5c28f5c4@1') () 0 () () () 0
0)
51 'shr_flux_mostability' 'shr_flux_mod' '' 1 ((PROCEDURE UNKNOWN-INTENT
MODULE-PROC DECL UNKNOWN 0 0 SUBROUTINE ALWAYS_EXPLICIT) (UNKNOWN 0 0 0
0 UNKNOWN ()) 52 0 (53 54 55 56 57 58) () 0 () () () 0 0)
59 'shr_flux_mowscales' 'shr_flux_mod' '' 1 ((PARAMETER UNKNOWN-INTENT
UNKNOWN-PROC UNKNOWN IMPLICIT-SAVE 0 0) (INTEGER 4 0 0 0 INTEGER ()) 0 0
() (CONSTANT (INTEGER 4 0 0 0 INTEGER ()) 0 '1') () 0 () () () 0 0)
4 'mask' '' '' 3 ((VARIABLE IN UNKNOWN-PROC UNKNOWN UNKNOWN 0 0
DIMENSION DUMMY) (INTEGER 4 0 0 0 INTEGER ()) 0 0 () (1 0 ASSUMED_SHAPE
(CONSTANT (INTEGER 4 0 0 0 INTEGER ()) 0 '1') ()) 0 () () () 0 0)
5 'zbot' '' '' 3 ((VARIABLE IN UNKNOWN-PROC UNKNOWN UNKNOWN 0 0
DIMENSION DUMMY) (REAL 8 0 0 0 REAL ()) 0 0 () (1 0 ASSUMED_SHAPE (
CONSTANT (INTEGER 4 0 0 0 INTEGER ()) 0 '1') ()) 0 () () () 0 0)
6 'ubot' '' '' 3 ((VARIABLE IN UNKNOWN-PROC UNKNOWN UNKNOWN 0 0
DIMENSION DUMMY) (REAL 8 0 0 0 REAL ()) 0 0 () (1 0 ASSUMED_SHAPE (
CONSTANT (INTEGER 4 0 0 0 INTEGER ()) 0 '1') ()) 0 () () () 0 0)
7 'vbot' '' '' 3 ((VARIABLE IN UNKNOWN-PROC UNKNOWN UNKNOWN 0 0
DIMENSION DUMMY) (REAL 8 0 0 0 REAL ()) 0 0 () (1 0 ASSUMED_SHAPE (
CONSTANT (INTEGER 4 0 0 0 INTEGER ()) 0 '1') ()) 0 () () () 0 0)
8 'thbot' '' '' 3 ((VARIABLE IN UNKNOWN-PROC UNKNOWN UNKNOWN 0 0
DIMENSION DUMMY) (REAL 8 0 0 0 REAL ()) 0 0 () (1 0 ASSUMED_SHAPE (
CONSTANT (INTEGER 4 0 0 0 INTEGER ()) 0 '1') ()) 0 () () () 0 0)
9 'qbot' '' '' 3 ((VARIABLE IN UNKNOWN-PROC UNKNOWN UNKNOWN 0 0
DIMENSION DUMMY) (REAL 8 0 0 0 REAL ()) 0 0 () (1 0 ASSUMED_SHAPE (
CONSTANT (INTEGER 4 0 0 0 INTEGER ()) 0 '1') ()) 0 () () () 0 0)
10 'rbot' '' '' 3 ((VARIABLE IN UNKNOWN-PROC UNKNOWN UNKNOWN 0 0
DIMENSION DUMMY) (REAL 8 0 0 0 REAL ()) 0 0 () (1 0 ASSUMED_SHAPE (
CONSTANT (INTEGER 4 0 0 0 INTEGER ()) 0 '1') ()) 0 () () () 0 0)
11 'tbot' '' '' 3 ((VARIABLE IN UNKNOWN-PROC UNKNOWN UNKNOWN 0 0
DIMENSION DUMMY) (REAL 8 0 0 0 REAL ()) 0 0 () (1 0 ASSUMED_SHAPE (
CONSTANT (INTEGER 4 0 0 0 INTEGER ()) 0 '1') ()) 0 () () () 0 0)
12 'ts' '' '' 3 ((VARIABLE IN UNKNOWN-PROC UNKNOWN UNKNOWN 0 0 DIMENSION
DUMMY) (REAL 8 0 0 0 REAL ()) 0 0 () (1 0 ASSUMED_SHAPE (CONSTANT (
INTEGER 4 0 0 0 INTEGER ()) 0 '1') ()) 0 () () () 0 0)
13 'sen' '' '' 3 ((VARIABLE OUT UNKNOWN-PROC UNKNOWN UNKNOWN 0 0
DIMENSION DUMMY) (REAL 8 0 0 0 REAL ()) 0 0 () (1 0 ASSUMED_SHAPE (
CONSTANT (INTEGER 4 0 0 0 INTEGER ()) 0 '1') ()) 0 () () () 0 0)
14 'lat' '' '' 3 ((VARIABLE OUT UNKNOWN-PROC UNKNOWN UNKNOWN 0 0
DIMENSION DUMMY) (REAL 8 0 0 0 REAL ()) 0 0 () (1 0 ASSUMED_SHAPE (
CONSTANT (INTEGER 4 0 0 0 INTEGER ()) 0 '1') ()) 0 () () () 0 0)
15 'lwup' '' '' 3 ((VARIABLE OUT UNKNOWN-PROC UNKNOWN UNKNOWN 0 0
DIMENSION DUMMY) (REAL 8 0 0 0 REAL ()) 0 0 () (1 0 ASSUMED_SHAPE (
CONSTANT (INTEGER 4 0 0 0 INTEGER ()) 0 '1') ()) 0 () () () 0 0)
16 'evap' '' '' 3 ((VARIABLE OUT UNKNOWN-PROC UNKNOWN UNKNOWN 0 0
DIMENSION DUMMY) (REAL 8 0 0 0 REAL ()) 0 0 () (1 0 ASSUMED_SHAPE (
CONSTANT (INTEGER 4 0 0 0 INTEGER ()) 0 '1') ()) 0 () () () 0 0)
17 'taux' '' '' 3 ((VARIABLE OUT UNKNOWN-PROC UNKNOWN UNKNOWN 0 0
DIMENSION DUMMY) (REAL 8 0 0 0 REAL ()) 0 0 () (1 0 ASSUMED_SHAPE (
CONSTANT (INTEGER 4 0 0 0 INTEGER ()) 0 '1') ()) 0 () () () 0 0)
18 'tauy' '' '' 3 ((VARIABLE OUT UNKNOWN-PROC UNKNOWN UNKNOWN 0 0
DIMENSION DUMMY) (REAL 8 0 0 0 REAL ()) 0 0 () (1 0 ASSUMED_SHAPE (
CONSTANT (INTEGER 4 0 0 0 INTEGER ()) 0 '1') ()) 0 () () () 0 0)
19 'tref' '' '' 3 ((VARIABLE OUT UNKNOWN-PROC UNKNOWN UNKNOWN 0 0
DIMENSION DUMMY) (REAL 8 0 0 0 REAL ()) 0 0 () (1 0 ASSUMED_SHAPE (
CONSTANT (INTEGER 4 0 0 0 INTEGER ()) 0 '1') ()) 0 () () () 0 0)
20 'qref' '' '' 3 ((VARIABLE OUT UNKNOWN-PROC UNKNOWN UNKNOWN 0 0
DIMENSION DUMMY) (REAL 8 0 0 0 REAL ()) 0 0 () (1 0 ASSUMED_SHAPE (
CONSTANT (INTEGER 4 0 0 0 INTEGER ()) 0 '1') ()) 0 () () () 0 0)
23 'nmax' '' '' 22 ((VARIABLE IN UNKNOWN-PROC UNKNOWN UNKNOWN 0 0 DUMMY)
(INTEGER 4 0 0 0 INTEGER ()) 0 0 () () 0 () () () 0 0)
24 'zbot' '' '' 22 ((VARIABLE IN UNKNOWN-PROC UNKNOWN UNKNOWN 0 0
DIMENSION DUMMY) (REAL 8 0 0 0 REAL ()) 0 0 () (1 0 EXPLICIT (CONSTANT (
INTEGER 4 0 0 0 INTEGER ()) 0 '1') (VARIABLE (INTEGER 4 0 0 0 INTEGER ())
0 23 ())) 0 () () () 0 0)
25 'ubot' '' '' 22 ((VARIABLE IN UNKNOWN-PROC UNKNOWN UNKNOWN 0 0
DIMENSION DUMMY) (REAL 8 0 0 0 REAL ()) 0 0 () (1 0 EXPLICIT (CONSTANT (
INTEGER 4 0 0 0 INTEGER ()) 0 '1') (VARIABLE (INTEGER 4 0 0 0 INTEGER ())
0 23 ())) 0 () () () 0 0)
26 'vbot' '' '' 22 ((VARIABLE IN UNKNOWN-PROC UNKNOWN UNKNOWN 0 0
DIMENSION DUMMY) (REAL 8 0 0 0 REAL ()) 0 0 () (1 0 EXPLICIT (CONSTANT (
INTEGER 4 0 0 0 INTEGER ()) 0 '1') (VARIABLE (INTEGER 4 0 0 0 INTEGER ())
0 23 ())) 0 () () () 0 0)
27 'thbot' '' '' 22 ((VARIABLE IN UNKNOWN-PROC UNKNOWN UNKNOWN 0 0
DIMENSION DUMMY) (REAL 8 0 0 0 REAL ()) 0 0 () (1 0 EXPLICIT (CONSTANT (
INTEGER 4 0 0 0 INTEGER ()) 0 '1') (VARIABLE (INTEGER 4 0 0 0 INTEGER ())
0 23 ())) 0 () () () 0 0)
28 'qbot' '' '' 22 ((VARIABLE IN UNKNOWN-PROC UNKNOWN UNKNOWN 0 0
DIMENSION DUMMY) (REAL 8 0 0 0 REAL ()) 0 0 () (1 0 EXPLICIT (CONSTANT (
INTEGER 4 0 0 0 INTEGER ()) 0 '1') (VARIABLE (INTEGER 4 0 0 0 INTEGER ())
0 23 ())) 0 () () () 0 0)
29 'rbot' '' '' 22 ((VARIABLE IN UNKNOWN-PROC UNKNOWN UNKNOWN 0 0
DIMENSION DUMMY) (REAL 8 0 0 0 REAL ()) 0 0 () (1 0 EXPLICIT (CONSTANT (
INTEGER 4 0 0 0 INTEGER ()) 0 '1') (VARIABLE (INTEGER 4 0 0 0 INTEGER ())
0 23 ())) 0 () () () 0 0)
30 'tbot' '' '' 22 ((VARIABLE IN UNKNOWN-PROC UNKNOWN UNKNOWN 0 0
DIMENSION DUMMY) (REAL 8 0 0 0 REAL ()) 0 0 () (1 0 EXPLICIT (CONSTANT (
INTEGER 4 0 0 0 INTEGER ()) 0 '1') (VARIABLE (INTEGER 4 0 0 0 INTEGER ())
0 23 ())) 0 () () () 0 0)
31 'us' '' '' 22 ((VARIABLE IN UNKNOWN-PROC UNKNOWN UNKNOWN 0 0
DIMENSION DUMMY) (REAL 8 0 0 0 REAL ()) 0 0 () (1 0 EXPLICIT (CONSTANT (
INTEGER 4 0 0 0 INTEGER ()) 0 '1') (VARIABLE (INTEGER 4 0 0 0 INTEGER ())
0 23 ())) 0 () () () 0 0)
32 'vs' '' '' 22 ((VARIABLE IN UNKNOWN-PROC UNKNOWN UNKNOWN 0 0
DIMENSION DUMMY) (REAL 8 0 0 0 REAL ()) 0 0 () (1 0 EXPLICIT (CONSTANT (
INTEGER 4 0 0 0 INTEGER ()) 0 '1') (VARIABLE (INTEGER 4 0 0 0 INTEGER ())
0 23 ())) 0 () () () 0 0)
33 'ts' '' '' 22 ((VARIABLE IN UNKNOWN-PROC UNKNOWN UNKNOWN 0 0
DIMENSION DUMMY) (REAL 8 0 0 0 REAL ()) 0 0 () (1 0 EXPLICIT (CONSTANT (
INTEGER 4 0 0 0 INTEGER ()) 0 '1') (VARIABLE (INTEGER 4 0 0 0 INTEGER ())
0 23 ())) 0 () () () 0 0)
34 'mask' '' '' 22 ((VARIABLE IN UNKNOWN-PROC UNKNOWN UNKNOWN 0 0
DIMENSION DUMMY) (INTEGER 4 0 0 0 INTEGER ()) 0 0 () (1 0 EXPLICIT (
CONSTANT (INTEGER 4 0 0 0 INTEGER ()) 0 '1') (VARIABLE (INTEGER 4 0 0 0
INTEGER ()) 0 23 ())) 0 () () () 0 0)
35 'sen' '' '' 22 ((VARIABLE OUT UNKNOWN-PROC UNKNOWN UNKNOWN 0 0
DIMENSION DUMMY) (REAL 8 0 0 0 REAL ()) 0 0 () (1 0 EXPLICIT (CONSTANT (
INTEGER 4 0 0 0 INTEGER ()) 0 '1') (VARIABLE (INTEGER 4 0 0 0 INTEGER ())
0 23 ())) 0 () () () 0 0)
36 'lat' '' '' 22 ((VARIABLE OUT UNKNOWN-PROC UNKNOWN UNKNOWN 0 0
DIMENSION DUMMY) (REAL 8 0 0 0 REAL ()) 0 0 () (1 0 EXPLICIT (CONSTANT (
INTEGER 4 0 0 0 INTEGER ()) 0 '1') (VARIABLE (INTEGER 4 0 0 0 INTEGER ())
0 23 ())) 0 () () () 0 0)
37 'lwup' '' '' 22 ((VARIABLE OUT UNKNOWN-PROC UNKNOWN UNKNOWN 0 0
DIMENSION DUMMY) (REAL 8 0 0 0 REAL ()) 0 0 () (1 0 EXPLICIT (CONSTANT (
INTEGER 4 0 0 0 INTEGER ()) 0 '1') (VARIABLE (INTEGER 4 0 0 0 INTEGER ())
0 23 ())) 0 () () () 0 0)
38 'evap' '' '' 22 ((VARIABLE OUT UNKNOWN-PROC UNKNOWN UNKNOWN 0 0
DIMENSION DUMMY) (REAL 8 0 0 0 REAL ()) 0 0 () (1 0 EXPLICIT (CONSTANT (
INTEGER 4 0 0 0 INTEGER ()) 0 '1') (VARIABLE (INTEGER 4 0 0 0 INTEGER ())
0 23 ())) 0 () () () 0 0)
39 'taux' '' '' 22 ((VARIABLE OUT UNKNOWN-PROC UNKNOWN UNKNOWN 0 0
DIMENSION DUMMY) (REAL 8 0 0 0 REAL ()) 0 0 () (1 0 EXPLICIT (CONSTANT (
INTEGER 4 0 0 0 INTEGER ()) 0 '1') (VARIABLE (INTEGER 4 0 0 0 INTEGER ())
0 23 ())) 0 () () () 0 0)
40 'tauy' '' '' 22 ((VARIABLE OUT UNKNOWN-PROC UNKNOWN UNKNOWN 0 0
DIMENSION DUMMY) (REAL 8 0 0 0 REAL ()) 0 0 () (1 0 EXPLICIT (CONSTANT (
INTEGER 4 0 0 0 INTEGER ()) 0 '1') (VARIABLE (INTEGER 4 0 0 0 INTEGER ())
0 23 ())) 0 () () () 0 0)
41 'tref' '' '' 22 ((VARIABLE OUT UNKNOWN-PROC UNKNOWN UNKNOWN 0 0
DIMENSION DUMMY) (REAL 8 0 0 0 REAL ()) 0 0 () (1 0 EXPLICIT (CONSTANT (
INTEGER 4 0 0 0 INTEGER ()) 0 '1') (VARIABLE (INTEGER 4 0 0 0 INTEGER ())
0 23 ())) 0 () () () 0 0)
42 'qref' '' '' 22 ((VARIABLE OUT UNKNOWN-PROC UNKNOWN UNKNOWN 0 0
DIMENSION DUMMY) (REAL 8 0 0 0 REAL ()) 0 0 () (1 0 EXPLICIT (CONSTANT (
INTEGER 4 0 0 0 INTEGER ()) 0 '1') (VARIABLE (INTEGER 4 0 0 0 INTEGER ())
0 23 ())) 0 () () () 0 0)
43 'duu10n' '' '' 22 ((VARIABLE OUT UNKNOWN-PROC UNKNOWN UNKNOWN 0 0
DIMENSION DUMMY) (REAL 8 0 0 0 REAL ()) 0 0 () (1 0 EXPLICIT (CONSTANT (
INTEGER 4 0 0 0 INTEGER ()) 0 '1') (VARIABLE (INTEGER 4 0 0 0 INTEGER ())
0 23 ())) 0 () () () 0 0)
44 'ustar_sv' '' '' 22 ((VARIABLE OUT UNKNOWN-PROC UNKNOWN UNKNOWN 0 0
DIMENSION OPTIONAL DUMMY) (REAL 8 0 0 0 REAL ()) 0 0 () (1 0 EXPLICIT (
CONSTANT (INTEGER 4 0 0 0 INTEGER ()) 0 '1') (VARIABLE (INTEGER 4 0 0 0
INTEGER ()) 0 23 ())) 0 () () () 0 0)
45 're_sv' '' '' 22 ((VARIABLE OUT UNKNOWN-PROC UNKNOWN UNKNOWN 0 0
DIMENSION OPTIONAL DUMMY) (REAL 8 0 0 0 REAL ()) 0 0 () (1 0 EXPLICIT (
CONSTANT (INTEGER 4 0 0 0 INTEGER ()) 0 '1') (VARIABLE (INTEGER 4 0 0 0
INTEGER ()) 0 23 ())) 0 () () () 0 0)
46 'ssq_sv' '' '' 22 ((VARIABLE OUT UNKNOWN-PROC UNKNOWN UNKNOWN 0 0
DIMENSION OPTIONAL DUMMY) (REAL 8 0 0 0 REAL ()) 0 0 () (1 0 EXPLICIT (
CONSTANT (INTEGER 4 0 0 0 INTEGER ()) 0 '1') (VARIABLE (INTEGER 4 0 0 0
INTEGER ()) 0 23 ())) 0 () () () 0 0)
47 'missval' '' '' 22 ((VARIABLE IN UNKNOWN-PROC UNKNOWN UNKNOWN 0 0
OPTIONAL DUMMY) (REAL 8 0 0 0 REAL ()) 0 0 () () 0 () () () 0 0)
53 'option' '' '' 52 ((VARIABLE IN UNKNOWN-PROC UNKNOWN UNKNOWN 0 0
DUMMY) (INTEGER 4 0 0 0 INTEGER ()) 0 0 () () 0 () () () 0 0)
54 'arg1' '' '' 52 ((VARIABLE IN UNKNOWN-PROC UNKNOWN UNKNOWN 0 0 DUMMY)
(REAL 8 0 0 0 REAL ()) 0 0 () () 0 () () () 0 0)
55 'arg2' '' '' 52 ((VARIABLE INOUT UNKNOWN-PROC UNKNOWN UNKNOWN 0 0
DUMMY) (REAL 8 0 0 0 REAL ()) 0 0 () () 0 () () () 0 0)
56 'arg3' '' '' 52 ((VARIABLE OUT UNKNOWN-PROC UNKNOWN UNKNOWN 0 0 DUMMY)
(REAL 8 0 0 0 REAL ()) 0 0 () () 0 () () () 0 0)
57 'arg4' '' '' 52 ((VARIABLE OUT UNKNOWN-PROC UNKNOWN UNKNOWN 0 0 DUMMY)
(REAL 8 0 0 0 REAL ()) 0 0 () () 0 () () () 0 0)
58 'arg5' '' '' 52 ((VARIABLE OUT UNKNOWN-PROC UNKNOWN UNKNOWN 0 0
OPTIONAL DUMMY) (REAL 8 0 0 0 REAL ()) 0 0 () () 0 () () () 0 0)
)

('shr_flux_atmice' 0 2 'shr_flux_atmocn' 0 21 'shr_flux_mofunctions' 0
48 'shr_flux_mogammam' 0 49 'shr_flux_mogammas' 0 50
'shr_flux_mostability' 0 51 'shr_flux_mowscales' 0 59)
