GFORTRAN module version '10' created from /Users/f9y/mygit/clm4_coupled/models/utils/esmf_wrf_timemgr/ESMF_BaseTimeMod.F90
MD5:13cff657d241a0380c09689b3c59fffd -- If you edit this, you'll get what you deserve.

(() () (2) (3) () (4 5) () () () () () () () () () () () () (6 7 8 9
10 11) (12 13 14 15 16 17) (18) (19) (20) (21) () () ())

()

(('esmf_basetime' 'esmf_basetimemod' 22))

()

()

()

(22 'Esmf_basetime' 'esmf_basetimemod' '' 1 ((DERIVED UNKNOWN-INTENT
UNKNOWN-PROC UNKNOWN UNKNOWN 0 0) (UNKNOWN 0 0 0 0 UNKNOWN ()) 0 0 () ()
0 ((23 's' (INTEGER 8 0 0 0 INTEGER ()) () (UNKNOWN-FL UNKNOWN-INTENT
UNKNOWN-PROC UNKNOWN UNKNOWN 0 0) UNKNOWN-ACCESS ()) (24 'sn' (INTEGER 8
0 0 0 INTEGER ()) () (UNKNOWN-FL UNKNOWN-INTENT UNKNOWN-PROC UNKNOWN
UNKNOWN 0 0) UNKNOWN-ACCESS ()) (25 'sd' (INTEGER 8 0 0 0 INTEGER ()) ()
(UNKNOWN-FL UNKNOWN-INTENT UNKNOWN-PROC UNKNOWN UNKNOWN 0 0)
UNKNOWN-ACCESS ())) PUBLIC (() () () ()) () 0 0 28065891)
26 'esmf_basetime' 'esmf_basetimemod' '' 1 ((PROCEDURE UNKNOWN-INTENT
UNKNOWN-PROC DECL UNKNOWN 0 0 FUNCTION GENERIC) (UNKNOWN 0 0 0 0 UNKNOWN
()) 0 0 () () 0 () () () 0 0)
2 'esmf_basetimesum' 'esmf_basetimemod' '' 1 ((PROCEDURE UNKNOWN-INTENT
MODULE-PROC DECL UNKNOWN 0 0 FUNCTION) (DERIVED 22 0 0 0 DERIVED ()) 27
0 (28 29) () 2 () () () 0 0)
3 'esmf_basetimedifference' 'esmf_basetimemod' '' 1 ((PROCEDURE
UNKNOWN-INTENT MODULE-PROC DECL UNKNOWN 0 0 FUNCTION) (DERIVED 22 0 0 0
DERIVED ()) 30 0 (31 32) () 3 () () () 0 0)
4 'esmf_basetimequoti8' 'esmf_basetimemod' '' 1 ((PROCEDURE
UNKNOWN-INTENT MODULE-PROC DECL UNKNOWN 0 0 FUNCTION) (DERIVED 22 0 0 0
DERIVED ()) 33 0 (34 35) () 4 () () () 0 0)
5 'esmf_basetimequoti' 'esmf_basetimemod' '' 1 ((PROCEDURE
UNKNOWN-INTENT MODULE-PROC DECL UNKNOWN 0 0 FUNCTION) (DERIVED 22 0 0 0
DERIVED ()) 36 0 (37 38) () 5 () () () 0 0)
6 'esmf_basetimeeq' 'esmf_basetimemod' '' 1 ((PROCEDURE UNKNOWN-INTENT
MODULE-PROC DECL UNKNOWN 0 0 FUNCTION) (LOGICAL 4 0 0 0 LOGICAL ()) 39 0
(40 41) () 6 () () () 0 0)
7 'esmf_aieq' 'esmf_basemod' '' 1 ((PROCEDURE UNKNOWN-INTENT MODULE-PROC
DECL UNKNOWN 0 0 FUNCTION IMPLICIT_PURE) (LOGICAL 4 0 0 0 LOGICAL ()) 42
0 (43 44) () 7 () () () 0 0)
8 'esmf_tfeq' 'esmf_basemod' '' 1 ((PROCEDURE UNKNOWN-INTENT MODULE-PROC
DECL UNKNOWN 0 0 FUNCTION IMPLICIT_PURE) (LOGICAL 4 0 0 0 LOGICAL ()) 45
0 (46 47) () 8 () () () 0 0)
9 'esmf_pteq' 'esmf_basemod' '' 1 ((PROCEDURE UNKNOWN-INTENT MODULE-PROC
DECL UNKNOWN 0 0 FUNCTION IMPLICIT_PURE) (LOGICAL 4 0 0 0 LOGICAL ()) 48
0 (49 50) () 9 () () () 0 0)
10 'esmf_dteq' 'esmf_basemod' '' 1 ((PROCEDURE UNKNOWN-INTENT
MODULE-PROC DECL UNKNOWN 0 0 FUNCTION IMPLICIT_PURE) (LOGICAL 4 0 0 0
LOGICAL ()) 51 0 (52 53) () 10 () () () 0 0)
11 'esmf_sfeq' 'esmf_basemod' '' 1 ((PROCEDURE UNKNOWN-INTENT
MODULE-PROC DECL UNKNOWN 0 0 FUNCTION IMPLICIT_PURE) (LOGICAL 4 0 0 0
LOGICAL ()) 54 0 (55 56) () 11 () () () 0 0)
12 'esmf_basetimene' 'esmf_basetimemod' '' 1 ((PROCEDURE UNKNOWN-INTENT
MODULE-PROC DECL UNKNOWN 0 0 FUNCTION) (LOGICAL 4 0 0 0 LOGICAL ()) 57 0
(58 59) () 12 () () () 0 0)
13 'esmf_aine' 'esmf_basemod' '' 1 ((PROCEDURE UNKNOWN-INTENT
MODULE-PROC DECL UNKNOWN 0 0 FUNCTION IMPLICIT_PURE) (LOGICAL 4 0 0 0
LOGICAL ()) 60 0 (61 62) () 13 () () () 0 0)
14 'esmf_tfne' 'esmf_basemod' '' 1 ((PROCEDURE UNKNOWN-INTENT
MODULE-PROC DECL UNKNOWN 0 0 FUNCTION IMPLICIT_PURE) (LOGICAL 4 0 0 0
LOGICAL ()) 63 0 (64 65) () 14 () () () 0 0)
15 'esmf_ptne' 'esmf_basemod' '' 1 ((PROCEDURE UNKNOWN-INTENT
MODULE-PROC DECL UNKNOWN 0 0 FUNCTION IMPLICIT_PURE) (LOGICAL 4 0 0 0
LOGICAL ()) 66 0 (67 68) () 15 () () () 0 0)
16 'esmf_dtne' 'esmf_basemod' '' 1 ((PROCEDURE UNKNOWN-INTENT
MODULE-PROC DECL UNKNOWN 0 0 FUNCTION IMPLICIT_PURE) (LOGICAL 4 0 0 0
LOGICAL ()) 69 0 (70 71) () 16 () () () 0 0)
17 'esmf_sfne' 'esmf_basemod' '' 1 ((PROCEDURE UNKNOWN-INTENT
MODULE-PROC DECL UNKNOWN 0 0 FUNCTION IMPLICIT_PURE) (LOGICAL 4 0 0 0
LOGICAL ()) 72 0 (73 74) () 17 () () () 0 0)
18 'esmf_basetimegt' 'esmf_basetimemod' '' 1 ((PROCEDURE UNKNOWN-INTENT
MODULE-PROC DECL UNKNOWN 0 0 FUNCTION) (LOGICAL 4 0 0 0 LOGICAL ()) 75 0
(76 77) () 18 () () () 0 0)
19 'esmf_basetimege' 'esmf_basetimemod' '' 1 ((PROCEDURE UNKNOWN-INTENT
MODULE-PROC DECL UNKNOWN 0 0 FUNCTION) (LOGICAL 4 0 0 0 LOGICAL ()) 78 0
(79 80) () 19 () () () 0 0)
20 'esmf_basetimelt' 'esmf_basetimemod' '' 1 ((PROCEDURE UNKNOWN-INTENT
MODULE-PROC DECL UNKNOWN 0 0 FUNCTION) (LOGICAL 4 0 0 0 LOGICAL ()) 81 0
(82 83) () 20 () () () 0 0)
21 'esmf_basetimele' 'esmf_basetimemod' '' 1 ((PROCEDURE UNKNOWN-INTENT
MODULE-PROC DECL UNKNOWN 0 0 FUNCTION) (LOGICAL 4 0 0 0 LOGICAL ()) 84 0
(85 86) () 21 () () () 0 0)
28 'basetime1' '' '' 27 ((VARIABLE IN UNKNOWN-PROC UNKNOWN UNKNOWN 0 0
DUMMY) (DERIVED 22 0 0 0 DERIVED ()) 0 0 () () 0 () () () 0 0)
29 'basetime2' '' '' 27 ((VARIABLE IN UNKNOWN-PROC UNKNOWN UNKNOWN 0 0
DUMMY) (DERIVED 22 0 0 0 DERIVED ()) 0 0 () () 0 () () () 0 0)
31 'basetime1' '' '' 30 ((VARIABLE IN UNKNOWN-PROC UNKNOWN UNKNOWN 0 0
DUMMY) (DERIVED 22 0 0 0 DERIVED ()) 0 0 () () 0 () () () 0 0)
32 'basetime2' '' '' 30 ((VARIABLE IN UNKNOWN-PROC UNKNOWN UNKNOWN 0 0
DUMMY) (DERIVED 22 0 0 0 DERIVED ()) 0 0 () () 0 () () () 0 0)
34 'basetime' '' '' 33 ((VARIABLE IN UNKNOWN-PROC UNKNOWN UNKNOWN 0 0
DUMMY) (DERIVED 22 0 0 0 DERIVED ()) 0 0 () () 0 () () () 0 0)
35 'divisor' '' '' 33 ((VARIABLE IN UNKNOWN-PROC UNKNOWN UNKNOWN 0 0
DUMMY) (INTEGER 8 0 0 0 INTEGER ()) 0 0 () () 0 () () () 0 0)
37 'basetime' '' '' 36 ((VARIABLE IN UNKNOWN-PROC UNKNOWN UNKNOWN 0 0
DUMMY) (DERIVED 22 0 0 0 DERIVED ()) 0 0 () () 0 () () () 0 0)
38 'divisor' '' '' 36 ((VARIABLE IN UNKNOWN-PROC UNKNOWN UNKNOWN 0 0
DUMMY) (INTEGER 4 0 0 0 INTEGER ()) 0 0 () () 0 () () () 0 0)
40 'basetime1' '' '' 39 ((VARIABLE IN UNKNOWN-PROC UNKNOWN UNKNOWN 0 0
DUMMY) (DERIVED 22 0 0 0 DERIVED ()) 0 0 () () 0 () () () 0 0)
41 'basetime2' '' '' 39 ((VARIABLE IN UNKNOWN-PROC UNKNOWN UNKNOWN 0 0
DUMMY) (DERIVED 22 0 0 0 DERIVED ()) 0 0 () () 0 () () () 0 0)
43 'ai1' '' '' 42 ((VARIABLE IN UNKNOWN-PROC UNKNOWN UNKNOWN 0 0 DUMMY)
(DERIVED 87 0 0 0 DERIVED ()) 0 0 () () 0 () () () 0 0)
44 'ai2' '' '' 42 ((VARIABLE IN UNKNOWN-PROC UNKNOWN UNKNOWN 0 0 DUMMY)
(DERIVED 87 0 0 0 DERIVED ()) 0 0 () () 0 () () () 0 0)
46 'tf1' '' '' 45 ((VARIABLE IN UNKNOWN-PROC UNKNOWN UNKNOWN 0 0 DUMMY)
(DERIVED 88 0 0 0 DERIVED ()) 0 0 () () 0 () () () 0 0)
47 'tf2' '' '' 45 ((VARIABLE IN UNKNOWN-PROC UNKNOWN UNKNOWN 0 0 DUMMY)
(DERIVED 88 0 0 0 DERIVED ()) 0 0 () () 0 () () () 0 0)
49 'pt1' '' '' 48 ((VARIABLE IN UNKNOWN-PROC UNKNOWN UNKNOWN 0 0 DUMMY)
(DERIVED 89 0 0 0 DERIVED ()) 0 0 () () 0 () () () 0 0)
50 'pt2' '' '' 48 ((VARIABLE IN UNKNOWN-PROC UNKNOWN UNKNOWN 0 0 DUMMY)
(DERIVED 89 0 0 0 DERIVED ()) 0 0 () () 0 () () () 0 0)
52 'dt1' '' '' 51 ((VARIABLE IN UNKNOWN-PROC UNKNOWN UNKNOWN 0 0 DUMMY)
(DERIVED 90 0 0 0 DERIVED ()) 0 0 () () 0 () () () 0 0)
53 'dt2' '' '' 51 ((VARIABLE IN UNKNOWN-PROC UNKNOWN UNKNOWN 0 0 DUMMY)
(DERIVED 90 0 0 0 DERIVED ()) 0 0 () () 0 () () () 0 0)
55 'sf1' '' '' 54 ((VARIABLE IN UNKNOWN-PROC UNKNOWN UNKNOWN 0 0 DUMMY)
(DERIVED 91 0 0 0 DERIVED ()) 0 0 () () 0 () () () 0 0)
56 'sf2' '' '' 54 ((VARIABLE IN UNKNOWN-PROC UNKNOWN UNKNOWN 0 0 DUMMY)
(DERIVED 91 0 0 0 DERIVED ()) 0 0 () () 0 () () () 0 0)
58 'basetime1' '' '' 57 ((VARIABLE IN UNKNOWN-PROC UNKNOWN UNKNOWN 0 0
DUMMY) (DERIVED 22 0 0 0 DERIVED ()) 0 0 () () 0 () () () 0 0)
59 'basetime2' '' '' 57 ((VARIABLE IN UNKNOWN-PROC UNKNOWN UNKNOWN 0 0
DUMMY) (DERIVED 22 0 0 0 DERIVED ()) 0 0 () () 0 () () () 0 0)
61 'ai1' '' '' 60 ((VARIABLE IN UNKNOWN-PROC UNKNOWN UNKNOWN 0 0 DUMMY)
(DERIVED 87 0 0 0 DERIVED ()) 0 0 () () 0 () () () 0 0)
62 'ai2' '' '' 60 ((VARIABLE IN UNKNOWN-PROC UNKNOWN UNKNOWN 0 0 DUMMY)
(DERIVED 87 0 0 0 DERIVED ()) 0 0 () () 0 () () () 0 0)
64 'tf1' '' '' 63 ((VARIABLE IN UNKNOWN-PROC UNKNOWN UNKNOWN 0 0 DUMMY)
(DERIVED 88 0 0 0 DERIVED ()) 0 0 () () 0 () () () 0 0)
65 'tf2' '' '' 63 ((VARIABLE IN UNKNOWN-PROC UNKNOWN UNKNOWN 0 0 DUMMY)
(DERIVED 88 0 0 0 DERIVED ()) 0 0 () () 0 () () () 0 0)
67 'pt1' '' '' 66 ((VARIABLE IN UNKNOWN-PROC UNKNOWN UNKNOWN 0 0 DUMMY)
(DERIVED 89 0 0 0 DERIVED ()) 0 0 () () 0 () () () 0 0)
68 'pt2' '' '' 66 ((VARIABLE IN UNKNOWN-PROC UNKNOWN UNKNOWN 0 0 DUMMY)
(DERIVED 89 0 0 0 DERIVED ()) 0 0 () () 0 () () () 0 0)
70 'dt1' '' '' 69 ((VARIABLE IN UNKNOWN-PROC UNKNOWN UNKNOWN 0 0 DUMMY)
(DERIVED 90 0 0 0 DERIVED ()) 0 0 () () 0 () () () 0 0)
71 'dt2' '' '' 69 ((VARIABLE IN UNKNOWN-PROC UNKNOWN UNKNOWN 0 0 DUMMY)
(DERIVED 90 0 0 0 DERIVED ()) 0 0 () () 0 () () () 0 0)
73 'sf1' '' '' 72 ((VARIABLE IN UNKNOWN-PROC UNKNOWN UNKNOWN 0 0 DUMMY)
(DERIVED 91 0 0 0 DERIVED ()) 0 0 () () 0 () () () 0 0)
74 'sf2' '' '' 72 ((VARIABLE IN UNKNOWN-PROC UNKNOWN UNKNOWN 0 0 DUMMY)
(DERIVED 91 0 0 0 DERIVED ()) 0 0 () () 0 () () () 0 0)
76 'basetime1' '' '' 75 ((VARIABLE IN UNKNOWN-PROC UNKNOWN UNKNOWN 0 0
DUMMY) (DERIVED 22 0 0 0 DERIVED ()) 0 0 () () 0 () () () 0 0)
77 'basetime2' '' '' 75 ((VARIABLE IN UNKNOWN-PROC UNKNOWN UNKNOWN 0 0
DUMMY) (DERIVED 22 0 0 0 DERIVED ()) 0 0 () () 0 () () () 0 0)
79 'basetime1' '' '' 78 ((VARIABLE IN UNKNOWN-PROC UNKNOWN UNKNOWN 0 0
DUMMY) (DERIVED 22 0 0 0 DERIVED ()) 0 0 () () 0 () () () 0 0)
80 'basetime2' '' '' 78 ((VARIABLE IN UNKNOWN-PROC UNKNOWN UNKNOWN 0 0
DUMMY) (DERIVED 22 0 0 0 DERIVED ()) 0 0 () () 0 () () () 0 0)
82 'basetime1' '' '' 81 ((VARIABLE IN UNKNOWN-PROC UNKNOWN UNKNOWN 0 0
DUMMY) (DERIVED 22 0 0 0 DERIVED ()) 0 0 () () 0 () () () 0 0)
83 'basetime2' '' '' 81 ((VARIABLE IN UNKNOWN-PROC UNKNOWN UNKNOWN 0 0
DUMMY) (DERIVED 22 0 0 0 DERIVED ()) 0 0 () () 0 () () () 0 0)
85 'basetime1' '' '' 84 ((VARIABLE IN UNKNOWN-PROC UNKNOWN UNKNOWN 0 0
DUMMY) (DERIVED 22 0 0 0 DERIVED ()) 0 0 () () 0 () () () 0 0)
86 'basetime2' '' '' 84 ((VARIABLE IN UNKNOWN-PROC UNKNOWN UNKNOWN 0 0
DUMMY) (DERIVED 22 0 0 0 DERIVED ()) 0 0 () () 0 () () () 0 0)
87 'Esmf_axisindex' 'esmf_basemod' '' 1 ((DERIVED UNKNOWN-INTENT
UNKNOWN-PROC UNKNOWN UNKNOWN 0 0) (UNKNOWN 0 0 0 0 UNKNOWN ()) 0 0 () ()
0 ((92 'l' (INTEGER 4 0 0 0 INTEGER ()) () (UNKNOWN-FL UNKNOWN-INTENT
UNKNOWN-PROC UNKNOWN UNKNOWN 0 0) UNKNOWN-ACCESS ()) (93 'r' (INTEGER 4
0 0 0 INTEGER ()) () (UNKNOWN-FL UNKNOWN-INTENT UNKNOWN-PROC UNKNOWN
UNKNOWN 0 0) UNKNOWN-ACCESS ()) (94 'max' (INTEGER 4 0 0 0 INTEGER ()) ()
(UNKNOWN-FL UNKNOWN-INTENT UNKNOWN-PROC UNKNOWN UNKNOWN 0 0)
UNKNOWN-ACCESS ()) (95 'decomp' (INTEGER 4 0 0 0 INTEGER ()) () (
UNKNOWN-FL UNKNOWN-INTENT UNKNOWN-PROC UNKNOWN UNKNOWN 0 0)
UNKNOWN-ACCESS ()) (96 'gstart' (INTEGER 4 0 0 0 INTEGER ()) () (
UNKNOWN-FL UNKNOWN-INTENT UNKNOWN-PROC UNKNOWN UNKNOWN 0 0)
UNKNOWN-ACCESS ())) PUBLIC (() () () ()) () 0 0 29944671)
88 'Esmf_logical' 'esmf_basemod' '' 1 ((DERIVED UNKNOWN-INTENT
UNKNOWN-PROC UNKNOWN UNKNOWN 0 0 PRIVATE_COMP) (UNKNOWN 0 0 0 0 UNKNOWN
()) 0 0 () () 0 ((97 'value' (INTEGER 4 0 0 0 INTEGER ()) () (
UNKNOWN-FL UNKNOWN-INTENT UNKNOWN-PROC UNKNOWN UNKNOWN 0 0)
UNKNOWN-ACCESS ())) PRIVATE (() () () ()) () 0 0 5328567)
89 'Esmf_pointer' 'esmf_basemod' '' 1 ((DERIVED UNKNOWN-INTENT
UNKNOWN-PROC UNKNOWN UNKNOWN 0 0 PRIVATE_COMP) (UNKNOWN 0 0 0 0 UNKNOWN
()) 0 0 () () 0 ((98 'ptr' (INTEGER 8 0 0 0 INTEGER ()) () (UNKNOWN-FL
UNKNOWN-INTENT UNKNOWN-PROC UNKNOWN UNKNOWN 0 0) UNKNOWN-ACCESS ()))
PRIVATE (() () () ()) () 0 0 20783115)
90 'Esmf_datatype' 'esmf_basemod' '' 1 ((DERIVED UNKNOWN-INTENT
UNKNOWN-PROC UNKNOWN UNKNOWN 0 0) (UNKNOWN 0 0 0 0 UNKNOWN ()) 0 0 () ()
0 ((99 'dtype' (INTEGER 4 0 0 0 INTEGER ()) () (UNKNOWN-FL
UNKNOWN-INTENT UNKNOWN-PROC UNKNOWN UNKNOWN 0 0) UNKNOWN-ACCESS ()))
PUBLIC (() () () ()) () 0 0 68201814)
91 'Esmf_status' 'esmf_basemod' '' 1 ((DERIVED UNKNOWN-INTENT
UNKNOWN-PROC UNKNOWN UNKNOWN 0 0 PRIVATE_COMP) (UNKNOWN 0 0 0 0 UNKNOWN
()) 0 0 () () 0 ((100 'status' (INTEGER 4 0 0 0 INTEGER ()) () (
UNKNOWN-FL UNKNOWN-INTENT UNKNOWN-PROC UNKNOWN UNKNOWN 0 0)
UNKNOWN-ACCESS ())) PRIVATE (() () () ()) () 0 0 23483972)
)

('Esmf_basetime' 0 22 'esmf_basetime' 0 26)
