GFORTRAN module version '10' created from /Users/f9y/mygit/clm4_coupled/models/csm_share/shr/shr_pcdf_mod.F90
MD5:3bc9f2284fac3d1596eb26d65c5ebafb -- If you edit this, you'll get what you deserve.

(() () () () () () () () () () () () () () () () () () () () () () ()
() () () ())

()

()

()

()

()

(2 'shr_pcdf_readwrite' 'shr_pcdf_mod' '' 1 ((PROCEDURE UNKNOWN-INTENT
MODULE-PROC DECL UNKNOWN 0 0 SUBROUTINE ALWAYS_EXPLICIT) (UNKNOWN 0 0 0
0 UNKNOWN ()) 3 0 (4 5 6 7 8 9 10 11 12 13 14 15 16 17 18 19 20 21 22 23
24 25 26 27 28 29 30 31 32 33 34 35 36 37 38 39 40 41 42 43 44 45 46 47
48 49 50 51 52 53 54 55 56 57 58 59 60) () 0 () () () 0 0)
4 'type' '' '' 3 ((VARIABLE IN UNKNOWN-PROC UNKNOWN UNKNOWN 0 0 DUMMY) (
CHARACTER 1 0 0 0 CHARACTER (())) 0 0 () () 0 () () () 0 0)
5 'iosystem' '' '' 3 ((VARIABLE UNKNOWN-INTENT UNKNOWN-PROC UNKNOWN
UNKNOWN 0 0 DUMMY) (DERIVED 61 0 0 0 DERIVED ()) 0 0 () () 0 () () () 0
0)
6 'pio_iotype' '' '' 3 ((VARIABLE IN UNKNOWN-PROC UNKNOWN UNKNOWN 0 0
DUMMY) (INTEGER 4 0 0 0 INTEGER ()) 0 0 () () 0 () () () 0 0)
7 'filename' '' '' 3 ((VARIABLE IN UNKNOWN-PROC UNKNOWN UNKNOWN 0 0
DUMMY) (CHARACTER 1 0 0 0 CHARACTER (())) 0 0 () () 0 () () () 0 0)
8 'mpicom' '' '' 3 ((VARIABLE IN UNKNOWN-PROC UNKNOWN UNKNOWN 0 0 DUMMY)
(INTEGER 4 0 0 0 INTEGER ()) 0 0 () () 0 () () () 0 0)
9 'gsmap' '' '' 3 ((VARIABLE IN UNKNOWN-PROC UNKNOWN UNKNOWN 0 0
OPTIONAL DUMMY) (DERIVED 62 0 0 0 DERIVED ()) 0 0 () () 0 () () () 0 0)
10 'dof' '' '' 3 ((VARIABLE IN UNKNOWN-PROC UNKNOWN UNKNOWN 0 0
DIMENSION OPTIONAL DUMMY) (INTEGER 4 0 0 0 INTEGER ()) 0 0 () (1 0
ASSUMED_SHAPE (CONSTANT (INTEGER 4 0 0 0 INTEGER ()) 0 '1') ()) 0 () ()
() 0 0)
11 'clobber' '' '' 3 ((VARIABLE IN UNKNOWN-PROC UNKNOWN UNKNOWN 0 0
OPTIONAL DUMMY) (LOGICAL 4 0 0 0 LOGICAL ()) 0 0 () () 0 () () () 0 0)
12 'cdf64' '' '' 3 ((VARIABLE IN UNKNOWN-PROC UNKNOWN UNKNOWN 0 0
OPTIONAL DUMMY) (LOGICAL 4 0 0 0 LOGICAL ()) 0 0 () () 0 () () () 0 0)
13 'id1' '' '' 3 ((VARIABLE INOUT UNKNOWN-PROC UNKNOWN UNKNOWN 0 0
OPTIONAL DUMMY) (INTEGER 4 0 0 0 INTEGER ()) 0 0 () () 0 () () () 0 0)
14 'id1n' '' '' 3 ((VARIABLE IN UNKNOWN-PROC UNKNOWN UNKNOWN 0 0
OPTIONAL DUMMY) (CHARACTER 1 0 0 0 CHARACTER (())) 0 0 () () 0 () () ()
0 0)
15 'rs1' '' '' 3 ((VARIABLE INOUT UNKNOWN-PROC UNKNOWN UNKNOWN 0 0
OPTIONAL DUMMY) (REAL 8 0 0 0 REAL ()) 0 0 () () 0 () () () 0 0)
16 'rs1n' '' '' 3 ((VARIABLE IN UNKNOWN-PROC UNKNOWN UNKNOWN 0 0
OPTIONAL DUMMY) (CHARACTER 1 0 0 0 CHARACTER (())) 0 0 () () 0 () () ()
0 0)
17 'is1' '' '' 3 ((VARIABLE INOUT UNKNOWN-PROC UNKNOWN UNKNOWN 0 0
OPTIONAL DUMMY) (INTEGER 4 0 0 0 INTEGER ()) 0 0 () () 0 () () () 0 0)
18 'is1n' '' '' 3 ((VARIABLE IN UNKNOWN-PROC UNKNOWN UNKNOWN 0 0
OPTIONAL DUMMY) (CHARACTER 1 0 0 0 CHARACTER (())) 0 0 () () 0 () () ()
0 0)
19 'rf1' '' '' 3 ((VARIABLE INOUT UNKNOWN-PROC UNKNOWN UNKNOWN 0 0
DIMENSION OPTIONAL DUMMY) (REAL 8 0 0 0 REAL ()) 0 0 () (1 0
ASSUMED_SHAPE (CONSTANT (INTEGER 4 0 0 0 INTEGER ()) 0 '1') ()) 0 () ()
() 0 0)
20 'rf1n' '' '' 3 ((VARIABLE IN UNKNOWN-PROC UNKNOWN UNKNOWN 0 0
OPTIONAL DUMMY) (CHARACTER 1 0 0 0 CHARACTER (())) 0 0 () () 0 () () ()
0 0)
21 'if1' '' '' 3 ((VARIABLE INOUT UNKNOWN-PROC UNKNOWN UNKNOWN 0 0
DIMENSION OPTIONAL DUMMY) (INTEGER 4 0 0 0 INTEGER ()) 0 0 () (1 0
ASSUMED_SHAPE (CONSTANT (INTEGER 4 0 0 0 INTEGER ()) 0 '1') ()) 0 () ()
() 0 0)
22 'if1n' '' '' 3 ((VARIABLE IN UNKNOWN-PROC UNKNOWN UNKNOWN 0 0
OPTIONAL DUMMY) (CHARACTER 1 0 0 0 CHARACTER (())) 0 0 () () 0 () () ()
0 0)
23 'av1' '' '' 3 ((VARIABLE INOUT UNKNOWN-PROC UNKNOWN UNKNOWN 0 0
OPTIONAL DUMMY) (DERIVED 63 0 0 0 DERIVED ()) 0 0 () () 0 () () () 0 0)
24 'av1n' '' '' 3 ((VARIABLE IN UNKNOWN-PROC UNKNOWN UNKNOWN 0 0
OPTIONAL DUMMY) (CHARACTER 1 0 0 0 CHARACTER (())) 0 0 () () 0 () () ()
0 0)
25 'id2' '' '' 3 ((VARIABLE INOUT UNKNOWN-PROC UNKNOWN UNKNOWN 0 0
OPTIONAL DUMMY) (INTEGER 4 0 0 0 INTEGER ()) 0 0 () () 0 () () () 0 0)
26 'id2n' '' '' 3 ((VARIABLE IN UNKNOWN-PROC UNKNOWN UNKNOWN 0 0
OPTIONAL DUMMY) (CHARACTER 1 0 0 0 CHARACTER (())) 0 0 () () 0 () () ()
0 0)
27 'rs2' '' '' 3 ((VARIABLE INOUT UNKNOWN-PROC UNKNOWN UNKNOWN 0 0
OPTIONAL DUMMY) (REAL 8 0 0 0 REAL ()) 0 0 () () 0 () () () 0 0)
28 'rs2n' '' '' 3 ((VARIABLE IN UNKNOWN-PROC UNKNOWN UNKNOWN 0 0
OPTIONAL DUMMY) (CHARACTER 1 0 0 0 CHARACTER (())) 0 0 () () 0 () () ()
0 0)
29 'is2' '' '' 3 ((VARIABLE INOUT UNKNOWN-PROC UNKNOWN UNKNOWN 0 0
OPTIONAL DUMMY) (INTEGER 4 0 0 0 INTEGER ()) 0 0 () () 0 () () () 0 0)
30 'is2n' '' '' 3 ((VARIABLE IN UNKNOWN-PROC UNKNOWN UNKNOWN 0 0
OPTIONAL DUMMY) (CHARACTER 1 0 0 0 CHARACTER (())) 0 0 () () 0 () () ()
0 0)
31 'rf2' '' '' 3 ((VARIABLE INOUT UNKNOWN-PROC UNKNOWN UNKNOWN 0 0
DIMENSION OPTIONAL DUMMY) (REAL 8 0 0 0 REAL ()) 0 0 () (1 0
ASSUMED_SHAPE (CONSTANT (INTEGER 4 0 0 0 INTEGER ()) 0 '1') ()) 0 () ()
() 0 0)
32 'rf2n' '' '' 3 ((VARIABLE IN UNKNOWN-PROC UNKNOWN UNKNOWN 0 0
OPTIONAL DUMMY) (CHARACTER 1 0 0 0 CHARACTER (())) 0 0 () () 0 () () ()
0 0)
33 'if2' '' '' 3 ((VARIABLE INOUT UNKNOWN-PROC UNKNOWN UNKNOWN 0 0
DIMENSION OPTIONAL DUMMY) (INTEGER 4 0 0 0 INTEGER ()) 0 0 () (1 0
ASSUMED_SHAPE (CONSTANT (INTEGER 4 0 0 0 INTEGER ()) 0 '1') ()) 0 () ()
() 0 0)
34 'if2n' '' '' 3 ((VARIABLE IN UNKNOWN-PROC UNKNOWN UNKNOWN 0 0
OPTIONAL DUMMY) (CHARACTER 1 0 0 0 CHARACTER (())) 0 0 () () 0 () () ()
0 0)
35 'av2' '' '' 3 ((VARIABLE INOUT UNKNOWN-PROC UNKNOWN UNKNOWN 0 0
OPTIONAL DUMMY) (DERIVED 63 0 0 0 DERIVED ()) 0 0 () () 0 () () () 0 0)
36 'av2n' '' '' 3 ((VARIABLE IN UNKNOWN-PROC UNKNOWN UNKNOWN 0 0
OPTIONAL DUMMY) (CHARACTER 1 0 0 0 CHARACTER (())) 0 0 () () 0 () () ()
0 0)
37 'id3' '' '' 3 ((VARIABLE INOUT UNKNOWN-PROC UNKNOWN UNKNOWN 0 0
OPTIONAL DUMMY) (INTEGER 4 0 0 0 INTEGER ()) 0 0 () () 0 () () () 0 0)
38 'id3n' '' '' 3 ((VARIABLE IN UNKNOWN-PROC UNKNOWN UNKNOWN 0 0
OPTIONAL DUMMY) (CHARACTER 1 0 0 0 CHARACTER (())) 0 0 () () 0 () () ()
0 0)
39 'rs3' '' '' 3 ((VARIABLE INOUT UNKNOWN-PROC UNKNOWN UNKNOWN 0 0
OPTIONAL DUMMY) (REAL 8 0 0 0 REAL ()) 0 0 () () 0 () () () 0 0)
40 'rs3n' '' '' 3 ((VARIABLE IN UNKNOWN-PROC UNKNOWN UNKNOWN 0 0
OPTIONAL DUMMY) (CHARACTER 1 0 0 0 CHARACTER (())) 0 0 () () 0 () () ()
0 0)
41 'is3' '' '' 3 ((VARIABLE INOUT UNKNOWN-PROC UNKNOWN UNKNOWN 0 0
OPTIONAL DUMMY) (INTEGER 4 0 0 0 INTEGER ()) 0 0 () () 0 () () () 0 0)
42 'is3n' '' '' 3 ((VARIABLE IN UNKNOWN-PROC UNKNOWN UNKNOWN 0 0
OPTIONAL DUMMY) (CHARACTER 1 0 0 0 CHARACTER (())) 0 0 () () 0 () () ()
0 0)
43 'rf3' '' '' 3 ((VARIABLE INOUT UNKNOWN-PROC UNKNOWN UNKNOWN 0 0
DIMENSION OPTIONAL DUMMY) (REAL 8 0 0 0 REAL ()) 0 0 () (1 0
ASSUMED_SHAPE (CONSTANT (INTEGER 4 0 0 0 INTEGER ()) 0 '1') ()) 0 () ()
() 0 0)
44 'rf3n' '' '' 3 ((VARIABLE IN UNKNOWN-PROC UNKNOWN UNKNOWN 0 0
OPTIONAL DUMMY) (CHARACTER 1 0 0 0 CHARACTER (())) 0 0 () () 0 () () ()
0 0)
45 'if3' '' '' 3 ((VARIABLE INOUT UNKNOWN-PROC UNKNOWN UNKNOWN 0 0
DIMENSION OPTIONAL DUMMY) (INTEGER 4 0 0 0 INTEGER ()) 0 0 () (1 0
ASSUMED_SHAPE (CONSTANT (INTEGER 4 0 0 0 INTEGER ()) 0 '1') ()) 0 () ()
() 0 0)
46 'if3n' '' '' 3 ((VARIABLE IN UNKNOWN-PROC UNKNOWN UNKNOWN 0 0
OPTIONAL DUMMY) (CHARACTER 1 0 0 0 CHARACTER (())) 0 0 () () 0 () () ()
0 0)
47 'av3' '' '' 3 ((VARIABLE INOUT UNKNOWN-PROC UNKNOWN UNKNOWN 0 0
OPTIONAL DUMMY) (DERIVED 63 0 0 0 DERIVED ()) 0 0 () () 0 () () () 0 0)
48 'av3n' '' '' 3 ((VARIABLE IN UNKNOWN-PROC UNKNOWN UNKNOWN 0 0
OPTIONAL DUMMY) (CHARACTER 1 0 0 0 CHARACTER (())) 0 0 () () 0 () () ()
0 0)
49 'id4' '' '' 3 ((VARIABLE INOUT UNKNOWN-PROC UNKNOWN UNKNOWN 0 0
OPTIONAL DUMMY) (INTEGER 4 0 0 0 INTEGER ()) 0 0 () () 0 () () () 0 0)
50 'id4n' '' '' 3 ((VARIABLE IN UNKNOWN-PROC UNKNOWN UNKNOWN 0 0
OPTIONAL DUMMY) (CHARACTER 1 0 0 0 CHARACTER (())) 0 0 () () 0 () () ()
0 0)
51 'rs4' '' '' 3 ((VARIABLE INOUT UNKNOWN-PROC UNKNOWN UNKNOWN 0 0
OPTIONAL DUMMY) (REAL 8 0 0 0 REAL ()) 0 0 () () 0 () () () 0 0)
52 'rs4n' '' '' 3 ((VARIABLE IN UNKNOWN-PROC UNKNOWN UNKNOWN 0 0
OPTIONAL DUMMY) (CHARACTER 1 0 0 0 CHARACTER (())) 0 0 () () 0 () () ()
0 0)
53 'is4' '' '' 3 ((VARIABLE INOUT UNKNOWN-PROC UNKNOWN UNKNOWN 0 0
OPTIONAL DUMMY) (INTEGER 4 0 0 0 INTEGER ()) 0 0 () () 0 () () () 0 0)
54 'is4n' '' '' 3 ((VARIABLE IN UNKNOWN-PROC UNKNOWN UNKNOWN 0 0
OPTIONAL DUMMY) (CHARACTER 1 0 0 0 CHARACTER (())) 0 0 () () 0 () () ()
0 0)
55 'rf4' '' '' 3 ((VARIABLE INOUT UNKNOWN-PROC UNKNOWN UNKNOWN 0 0
DIMENSION OPTIONAL DUMMY) (REAL 8 0 0 0 REAL ()) 0 0 () (1 0
ASSUMED_SHAPE (CONSTANT (INTEGER 4 0 0 0 INTEGER ()) 0 '1') ()) 0 () ()
() 0 0)
56 'rf4n' '' '' 3 ((VARIABLE IN UNKNOWN-PROC UNKNOWN UNKNOWN 0 0
OPTIONAL DUMMY) (CHARACTER 1 0 0 0 CHARACTER (())) 0 0 () () 0 () () ()
0 0)
57 'if4' '' '' 3 ((VARIABLE INOUT UNKNOWN-PROC UNKNOWN UNKNOWN 0 0
DIMENSION OPTIONAL DUMMY) (INTEGER 4 0 0 0 INTEGER ()) 0 0 () (1 0
ASSUMED_SHAPE (CONSTANT (INTEGER 4 0 0 0 INTEGER ()) 0 '1') ()) 0 () ()
() 0 0)
58 'if4n' '' '' 3 ((VARIABLE IN UNKNOWN-PROC UNKNOWN UNKNOWN 0 0
OPTIONAL DUMMY) (CHARACTER 1 0 0 0 CHARACTER (())) 0 0 () () 0 () () ()
0 0)
59 'av4' '' '' 3 ((VARIABLE INOUT UNKNOWN-PROC UNKNOWN UNKNOWN 0 0
OPTIONAL DUMMY) (DERIVED 63 0 0 0 DERIVED ()) 0 0 () () 0 () () () 0 0)
60 'av4n' '' '' 3 ((VARIABLE IN UNKNOWN-PROC UNKNOWN UNKNOWN 0 0
OPTIONAL DUMMY) (CHARACTER 1 0 0 0 CHARACTER (())) 0 0 () () 0 () () ()
0 0)
61 'Iosystem_desc_t' 'pio_types' '' 3 ((DERIVED UNKNOWN-INTENT
UNKNOWN-PROC UNKNOWN UNKNOWN 0 0 POINTER_COMP) (UNKNOWN 0 0 0 0 UNKNOWN
()) 0 0 () () 0 ((64 'union_comm' (INTEGER 4 0 0 0 INTEGER ()) () (
UNKNOWN-FL UNKNOWN-INTENT UNKNOWN-PROC UNKNOWN UNKNOWN 0 0)
UNKNOWN-ACCESS ()) (65 'io_comm' (INTEGER 4 0 0 0 INTEGER ()) () (
UNKNOWN-FL UNKNOWN-INTENT UNKNOWN-PROC UNKNOWN UNKNOWN 0 0)
UNKNOWN-ACCESS ()) (66 'comp_comm' (INTEGER 4 0 0 0 INTEGER ()) () (
UNKNOWN-FL UNKNOWN-INTENT UNKNOWN-PROC UNKNOWN UNKNOWN 0 0)
UNKNOWN-ACCESS ()) (67 'intercomm' (INTEGER 4 0 0 0 INTEGER ()) () (
UNKNOWN-FL UNKNOWN-INTENT UNKNOWN-PROC UNKNOWN UNKNOWN 0 0)
UNKNOWN-ACCESS ()) (68 'my_comm' (INTEGER 4 0 0 0 INTEGER ()) () (
UNKNOWN-FL UNKNOWN-INTENT UNKNOWN-PROC UNKNOWN UNKNOWN 0 0)
UNKNOWN-ACCESS ()) (69 'num_tasks' (INTEGER 4 0 0 0 INTEGER ()) () (
UNKNOWN-FL UNKNOWN-INTENT UNKNOWN-PROC UNKNOWN UNKNOWN 0 0)
UNKNOWN-ACCESS ()) (70 'num_iotasks' (INTEGER 4 0 0 0 INTEGER ()) () (
UNKNOWN-FL UNKNOWN-INTENT UNKNOWN-PROC UNKNOWN UNKNOWN 0 0)
UNKNOWN-ACCESS ()) (71 'num_aiotasks' (INTEGER 4 0 0 0 INTEGER ()) () (
UNKNOWN-FL UNKNOWN-INTENT UNKNOWN-PROC UNKNOWN UNKNOWN 0 0)
UNKNOWN-ACCESS ()) (72 'num_comptasks' (INTEGER 4 0 0 0 INTEGER ()) () (
UNKNOWN-FL UNKNOWN-INTENT UNKNOWN-PROC UNKNOWN UNKNOWN 0 0)
UNKNOWN-ACCESS ()) (73 'union_rank' (INTEGER 4 0 0 0 INTEGER ()) () (
UNKNOWN-FL UNKNOWN-INTENT UNKNOWN-PROC UNKNOWN UNKNOWN 0 0)
UNKNOWN-ACCESS ()) (74 'comp_rank' (INTEGER 4 0 0 0 INTEGER ()) () (
UNKNOWN-FL UNKNOWN-INTENT UNKNOWN-PROC UNKNOWN UNKNOWN 0 0)
UNKNOWN-ACCESS ()) (75 'io_rank' (INTEGER 4 0 0 0 INTEGER ()) () (
UNKNOWN-FL UNKNOWN-INTENT UNKNOWN-PROC UNKNOWN UNKNOWN 0 0)
UNKNOWN-ACCESS ()) (76 'info' (INTEGER 4 0 0 0 INTEGER ()) () (
UNKNOWN-FL UNKNOWN-INTENT UNKNOWN-PROC UNKNOWN UNKNOWN 0 0)
UNKNOWN-ACCESS ()) (77 'numost' (INTEGER 4 0 0 0 INTEGER ()) () (
UNKNOWN-FL UNKNOWN-INTENT UNKNOWN-PROC UNKNOWN UNKNOWN 0 0)
UNKNOWN-ACCESS ()) (78 'iomaster' (INTEGER 4 0 0 0 INTEGER ()) () (
UNKNOWN-FL UNKNOWN-INTENT UNKNOWN-PROC UNKNOWN UNKNOWN 0 0)
UNKNOWN-ACCESS ()) (79 'compmaster' (INTEGER 4 0 0 0 INTEGER ()) () (
UNKNOWN-FL UNKNOWN-INTENT UNKNOWN-PROC UNKNOWN UNKNOWN 0 0)
UNKNOWN-ACCESS ()) (80 'ioroot' (INTEGER 4 0 0 0 INTEGER ()) () (
UNKNOWN-FL UNKNOWN-INTENT UNKNOWN-PROC UNKNOWN UNKNOWN 0 0)
UNKNOWN-ACCESS ()) (81 'comproot' (INTEGER 4 0 0 0 INTEGER ()) () (
UNKNOWN-FL UNKNOWN-INTENT UNKNOWN-PROC UNKNOWN UNKNOWN 0 0)
UNKNOWN-ACCESS ()) (82 'ioproc' (LOGICAL 4 0 0 0 LOGICAL ()) () (
UNKNOWN-FL UNKNOWN-INTENT UNKNOWN-PROC UNKNOWN UNKNOWN 0 0)
UNKNOWN-ACCESS ()) (83 'userearranger' (LOGICAL 4 0 0 0 LOGICAL ()) () (
UNKNOWN-FL UNKNOWN-INTENT UNKNOWN-PROC UNKNOWN UNKNOWN 0 0)
UNKNOWN-ACCESS ()) (84 'async_interface' (LOGICAL 4 0 0 0 LOGICAL ()) ()
(UNKNOWN-FL UNKNOWN-INTENT UNKNOWN-PROC UNKNOWN UNKNOWN 0 0)
UNKNOWN-ACCESS ()) (85 'rearr' (INTEGER 4 0 0 0 INTEGER ()) () (
UNKNOWN-FL UNKNOWN-INTENT UNKNOWN-PROC UNKNOWN UNKNOWN 0 0)
UNKNOWN-ACCESS ()) (86 'error_handling' (INTEGER 4 0 0 0 INTEGER ()) ()
(UNKNOWN-FL UNKNOWN-INTENT UNKNOWN-PROC UNKNOWN UNKNOWN 0 0)
UNKNOWN-ACCESS ()) (87 'ioranks' (INTEGER 4 0 0 0 INTEGER ()) (1 0
DEFERRED () ()) (UNKNOWN-FL UNKNOWN-INTENT UNKNOWN-PROC UNKNOWN UNKNOWN
0 0 DIMENSION POINTER) UNKNOWN-ACCESS ())) PUBLIC (() () () ()) () 0 0
82415841)
62 'Globalsegmap' 'm_globalsegmap' '' 1 ((DERIVED UNKNOWN-INTENT
UNKNOWN-PROC UNKNOWN UNKNOWN 0 0 POINTER_COMP) (UNKNOWN 0 0 0 0 UNKNOWN
()) 0 0 () () 0 ((88 'comp_id' (INTEGER 4 0 0 0 INTEGER ()) () (
UNKNOWN-FL UNKNOWN-INTENT UNKNOWN-PROC UNKNOWN UNKNOWN 0 0)
UNKNOWN-ACCESS ()) (89 'ngseg' (INTEGER 4 0 0 0 INTEGER ()) () (
UNKNOWN-FL UNKNOWN-INTENT UNKNOWN-PROC UNKNOWN UNKNOWN 0 0)
UNKNOWN-ACCESS ()) (90 'gsize' (INTEGER 4 0 0 0 INTEGER ()) () (
UNKNOWN-FL UNKNOWN-INTENT UNKNOWN-PROC UNKNOWN UNKNOWN 0 0)
UNKNOWN-ACCESS ()) (91 'start' (INTEGER 4 0 0 0 INTEGER ()) (1 0
DEFERRED () ()) (UNKNOWN-FL UNKNOWN-INTENT UNKNOWN-PROC UNKNOWN UNKNOWN
0 0 DIMENSION POINTER) UNKNOWN-ACCESS ()) (92 'length' (INTEGER 4 0 0 0
INTEGER ()) (1 0 DEFERRED () ()) (UNKNOWN-FL UNKNOWN-INTENT UNKNOWN-PROC
UNKNOWN UNKNOWN 0 0 DIMENSION POINTER) UNKNOWN-ACCESS ()) (93 'pe_loc' (
INTEGER 4 0 0 0 INTEGER ()) (1 0 DEFERRED () ()) (UNKNOWN-FL
UNKNOWN-INTENT UNKNOWN-PROC UNKNOWN UNKNOWN 0 0 DIMENSION POINTER)
UNKNOWN-ACCESS ())) PUBLIC (() () () ()) () 0 0 40927821)
63 'Attrvect' 'm_attrvect' '' 1 ((DERIVED UNKNOWN-INTENT UNKNOWN-PROC
UNKNOWN UNKNOWN 0 0 POINTER_COMP) (UNKNOWN 0 0 0 0 UNKNOWN ()) 0 0 () ()
0 ((94 'ilist' (DERIVED 95 0 0 0 DERIVED ()) () (UNKNOWN-FL
UNKNOWN-INTENT UNKNOWN-PROC UNKNOWN UNKNOWN 0 0) UNKNOWN-ACCESS ()) (96
'rlist' (DERIVED 95 0 0 0 DERIVED ()) () (UNKNOWN-FL UNKNOWN-INTENT
UNKNOWN-PROC UNKNOWN UNKNOWN 0 0) UNKNOWN-ACCESS ()) (97 'iattr' (
INTEGER 4 0 0 0 INTEGER ()) (2 0 DEFERRED () () () ()) (UNKNOWN-FL
UNKNOWN-INTENT UNKNOWN-PROC UNKNOWN UNKNOWN 0 0 DIMENSION POINTER)
UNKNOWN-ACCESS ()) (98 'rattr' (REAL 8 0 0 0 REAL ()) (2 0 DEFERRED () ()
() ()) (UNKNOWN-FL UNKNOWN-INTENT UNKNOWN-PROC UNKNOWN UNKNOWN 0 0
DIMENSION POINTER) UNKNOWN-ACCESS ())) PUBLIC (() () () ()) () 0 0
32844045)
95 'List' 'm_list' '' 1 ((DERIVED UNKNOWN-INTENT UNKNOWN-PROC UNKNOWN
UNKNOWN 0 0 POINTER_COMP) (UNKNOWN 0 0 0 0 UNKNOWN ()) 0 0 () () 0 ((99
'bf' (CHARACTER 1 0 0 0 CHARACTER ((CONSTANT (INTEGER 4 0 0 0 INTEGER ())
0 '1'))) (1 0 DEFERRED () ()) (UNKNOWN-FL UNKNOWN-INTENT UNKNOWN-PROC
UNKNOWN UNKNOWN 0 0 DIMENSION POINTER) UNKNOWN-ACCESS ()) (100 'lc' (
INTEGER 4 0 0 0 INTEGER ()) (2 0 DEFERRED () () () ()) (UNKNOWN-FL
UNKNOWN-INTENT UNKNOWN-PROC UNKNOWN UNKNOWN 0 0 DIMENSION POINTER)
UNKNOWN-ACCESS ())) PUBLIC (() () () ()) () 0 0 20202829)
)

('shr_pcdf_readwrite' 0 2)
