GFORTRAN module version '10' created from /Users/f9y/mygit/clm4_coupled/models/csm_share/shr/shr_infnan_mod.F90
MD5:490f2063eba44ffbd21dc78bd32c2f62 -- If you edit this, you'll get what you deserve.

(() () () () () () () () () () () () () () () () () () () () () () ()
() () () ())

()

(('shr_infnan_isinf' 'shr_infnan_mod' 2 3) ('shr_infnan_isnan'
'shr_infnan_mod' 4 5 6 7 8 9 10 11 12 13 14 15 16 17 18 19) (
'shr_infnan_isneginf' 'shr_infnan_mod' 20 21) ('shr_infnan_isposinf'
'shr_infnan_mod' 22 23))

()

()

()

(2 'disinf' 'shr_infnan_mod' '' 1 ((PROCEDURE UNKNOWN-INTENT MODULE-PROC
DECL UNKNOWN 0 0 FUNCTION ELEMENTAL PURE ALWAYS_EXPLICIT) (LOGICAL 4 0 0
0 LOGICAL ()) 24 0 (25) () 26 () () () 0 0)
3 'sisinf' 'shr_infnan_mod' '' 1 ((PROCEDURE UNKNOWN-INTENT MODULE-PROC
DECL UNKNOWN 0 0 FUNCTION ELEMENTAL PURE ALWAYS_EXPLICIT) (LOGICAL 4 0 0
0 LOGICAL ()) 27 0 (28) () 29 () () () 0 0)
4 'c_disnan_7d' 'shr_infnan_mod' '' 1 ((PROCEDURE UNKNOWN-INTENT
MODULE-PROC DECL UNKNOWN 0 0 DIMENSION FUNCTION ALWAYS_EXPLICIT) (
LOGICAL 4 0 0 0 LOGICAL ()) 30 0 (31) (7 0 EXPLICIT (CONSTANT (INTEGER 4
0 0 0 INTEGER ()) 0 '1') (FUNCTION (INTEGER 4 0 0 0 INTEGER ()) 0 32 ((''
(VARIABLE (REAL 8 0 0 0 REAL ()) 7 31 ((ARRAY (FULL 7 2 2 2 2 2 2 2)))))
('' (CONSTANT (INTEGER 4 0 0 0 INTEGER ()) 0 '1')) ('' ())) '' 0 'size')
(CONSTANT (INTEGER 4 0 0 0 INTEGER ()) 0 '1') (FUNCTION (INTEGER 4 0 0 0
INTEGER ()) 0 32 (('' (VARIABLE (REAL 8 0 0 0 REAL ()) 7 31 ((ARRAY (
FULL 7 2 2 2 2 2 2 2))))) ('' (CONSTANT (INTEGER 4 0 0 0 INTEGER ()) 0 '2'))
('' ())) '' 0 'size') (CONSTANT (INTEGER 4 0 0 0 INTEGER ()) 0 '1') (
FUNCTION (INTEGER 4 0 0 0 INTEGER ()) 0 32 (('' (VARIABLE (REAL 8 0 0 0
REAL ()) 7 31 ((ARRAY (FULL 7 2 2 2 2 2 2 2))))) ('' (CONSTANT (INTEGER
4 0 0 0 INTEGER ()) 0 '3')) ('' ())) '' 0 'size') (CONSTANT (INTEGER 4 0
0 0 INTEGER ()) 0 '1') (FUNCTION (INTEGER 4 0 0 0 INTEGER ()) 0 32 ((''
(VARIABLE (REAL 8 0 0 0 REAL ()) 7 31 ((ARRAY (FULL 7 2 2 2 2 2 2 2)))))
('' (CONSTANT (INTEGER 4 0 0 0 INTEGER ()) 0 '4')) ('' ())) '' 0 'size')
(CONSTANT (INTEGER 4 0 0 0 INTEGER ()) 0 '1') (FUNCTION (INTEGER 4 0 0 0
INTEGER ()) 0 32 (('' (VARIABLE (REAL 8 0 0 0 REAL ()) 7 31 ((ARRAY (
FULL 7 2 2 2 2 2 2 2))))) ('' (CONSTANT (INTEGER 4 0 0 0 INTEGER ()) 0 '5'))
('' ())) '' 0 'size') (CONSTANT (INTEGER 4 0 0 0 INTEGER ()) 0 '1') (
FUNCTION (INTEGER 4 0 0 0 INTEGER ()) 0 32 (('' (VARIABLE (REAL 8 0 0 0
REAL ()) 7 31 ((ARRAY (FULL 7 2 2 2 2 2 2 2))))) ('' (CONSTANT (INTEGER
4 0 0 0 INTEGER ()) 0 '6')) ('' ())) '' 0 'size') (CONSTANT (INTEGER 4 0
0 0 INTEGER ()) 0 '1') (FUNCTION (INTEGER 4 0 0 0 INTEGER ()) 0 32 ((''
(VARIABLE (REAL 8 0 0 0 REAL ()) 7 31 ((ARRAY (FULL 7 2 2 2 2 2 2 2)))))
('' (CONSTANT (INTEGER 4 0 0 0 INTEGER ()) 0 '7')) ('' ())) '' 0 'size'))
33 () () () 0 0)
5 'c_disnan_6d' 'shr_infnan_mod' '' 1 ((PROCEDURE UNKNOWN-INTENT
MODULE-PROC DECL UNKNOWN 0 0 DIMENSION FUNCTION ALWAYS_EXPLICIT) (
LOGICAL 4 0 0 0 LOGICAL ()) 34 0 (35) (6 0 EXPLICIT (CONSTANT (INTEGER 4
0 0 0 INTEGER ()) 0 '1') (FUNCTION (INTEGER 4 0 0 0 INTEGER ()) 0 36 ((''
(VARIABLE (REAL 8 0 0 0 REAL ()) 6 35 ((ARRAY (FULL 6 2 2 2 2 2 2))))) (
'' (CONSTANT (INTEGER 4 0 0 0 INTEGER ()) 0 '1')) ('' ())) '' 0 'size')
(CONSTANT (INTEGER 4 0 0 0 INTEGER ()) 0 '1') (FUNCTION (INTEGER 4 0 0 0
INTEGER ()) 0 36 (('' (VARIABLE (REAL 8 0 0 0 REAL ()) 6 35 ((ARRAY (
FULL 6 2 2 2 2 2 2))))) ('' (CONSTANT (INTEGER 4 0 0 0 INTEGER ()) 0 '2'))
('' ())) '' 0 'size') (CONSTANT (INTEGER 4 0 0 0 INTEGER ()) 0 '1') (
FUNCTION (INTEGER 4 0 0 0 INTEGER ()) 0 36 (('' (VARIABLE (REAL 8 0 0 0
REAL ()) 6 35 ((ARRAY (FULL 6 2 2 2 2 2 2))))) ('' (CONSTANT (INTEGER 4
0 0 0 INTEGER ()) 0 '3')) ('' ())) '' 0 'size') (CONSTANT (INTEGER 4 0 0
0 INTEGER ()) 0 '1') (FUNCTION (INTEGER 4 0 0 0 INTEGER ()) 0 36 (('' (
VARIABLE (REAL 8 0 0 0 REAL ()) 6 35 ((ARRAY (FULL 6 2 2 2 2 2 2))))) (''
(CONSTANT (INTEGER 4 0 0 0 INTEGER ()) 0 '4')) ('' ())) '' 0 'size') (
CONSTANT (INTEGER 4 0 0 0 INTEGER ()) 0 '1') (FUNCTION (INTEGER 4 0 0 0
INTEGER ()) 0 36 (('' (VARIABLE (REAL 8 0 0 0 REAL ()) 6 35 ((ARRAY (
FULL 6 2 2 2 2 2 2))))) ('' (CONSTANT (INTEGER 4 0 0 0 INTEGER ()) 0 '5'))
('' ())) '' 0 'size') (CONSTANT (INTEGER 4 0 0 0 INTEGER ()) 0 '1') (
FUNCTION (INTEGER 4 0 0 0 INTEGER ()) 0 36 (('' (VARIABLE (REAL 8 0 0 0
REAL ()) 6 35 ((ARRAY (FULL 6 2 2 2 2 2 2))))) ('' (CONSTANT (INTEGER 4
0 0 0 INTEGER ()) 0 '6')) ('' ())) '' 0 'size')) 37 () () () 0 0)
6 'c_disnan_5d' 'shr_infnan_mod' '' 1 ((PROCEDURE UNKNOWN-INTENT
MODULE-PROC DECL UNKNOWN 0 0 DIMENSION FUNCTION ALWAYS_EXPLICIT) (
LOGICAL 4 0 0 0 LOGICAL ()) 38 0 (39) (5 0 EXPLICIT (CONSTANT (INTEGER 4
0 0 0 INTEGER ()) 0 '1') (FUNCTION (INTEGER 4 0 0 0 INTEGER ()) 0 40 ((''
(VARIABLE (REAL 8 0 0 0 REAL ()) 5 39 ((ARRAY (FULL 5 2 2 2 2 2))))) (''
(CONSTANT (INTEGER 4 0 0 0 INTEGER ()) 0 '1')) ('' ())) '' 0 'size') (
CONSTANT (INTEGER 4 0 0 0 INTEGER ()) 0 '1') (FUNCTION (INTEGER 4 0 0 0
INTEGER ()) 0 40 (('' (VARIABLE (REAL 8 0 0 0 REAL ()) 5 39 ((ARRAY (
FULL 5 2 2 2 2 2))))) ('' (CONSTANT (INTEGER 4 0 0 0 INTEGER ()) 0 '2'))
('' ())) '' 0 'size') (CONSTANT (INTEGER 4 0 0 0 INTEGER ()) 0 '1') (
FUNCTION (INTEGER 4 0 0 0 INTEGER ()) 0 40 (('' (VARIABLE (REAL 8 0 0 0
REAL ()) 5 39 ((ARRAY (FULL 5 2 2 2 2 2))))) ('' (CONSTANT (INTEGER 4 0
0 0 INTEGER ()) 0 '3')) ('' ())) '' 0 'size') (CONSTANT (INTEGER 4 0 0 0
INTEGER ()) 0 '1') (FUNCTION (INTEGER 4 0 0 0 INTEGER ()) 0 40 (('' (
VARIABLE (REAL 8 0 0 0 REAL ()) 5 39 ((ARRAY (FULL 5 2 2 2 2 2))))) (''
(CONSTANT (INTEGER 4 0 0 0 INTEGER ()) 0 '4')) ('' ())) '' 0 'size') (
CONSTANT (INTEGER 4 0 0 0 INTEGER ()) 0 '1') (FUNCTION (INTEGER 4 0 0 0
INTEGER ()) 0 40 (('' (VARIABLE (REAL 8 0 0 0 REAL ()) 5 39 ((ARRAY (
FULL 5 2 2 2 2 2))))) ('' (CONSTANT (INTEGER 4 0 0 0 INTEGER ()) 0 '5'))
('' ())) '' 0 'size')) 41 () () () 0 0)
7 'c_disnan_4d' 'shr_infnan_mod' '' 1 ((PROCEDURE UNKNOWN-INTENT
MODULE-PROC DECL UNKNOWN 0 0 DIMENSION FUNCTION ALWAYS_EXPLICIT) (
LOGICAL 4 0 0 0 LOGICAL ()) 42 0 (43) (4 0 EXPLICIT (CONSTANT (INTEGER 4
0 0 0 INTEGER ()) 0 '1') (FUNCTION (INTEGER 4 0 0 0 INTEGER ()) 0 44 ((''
(VARIABLE (REAL 8 0 0 0 REAL ()) 4 43 ((ARRAY (FULL 4 2 2 2 2))))) ('' (
CONSTANT (INTEGER 4 0 0 0 INTEGER ()) 0 '1')) ('' ())) '' 0 'size') (
CONSTANT (INTEGER 4 0 0 0 INTEGER ()) 0 '1') (FUNCTION (INTEGER 4 0 0 0
INTEGER ()) 0 44 (('' (VARIABLE (REAL 8 0 0 0 REAL ()) 4 43 ((ARRAY (
FULL 4 2 2 2 2))))) ('' (CONSTANT (INTEGER 4 0 0 0 INTEGER ()) 0 '2')) (
'' ())) '' 0 'size') (CONSTANT (INTEGER 4 0 0 0 INTEGER ()) 0 '1') (
FUNCTION (INTEGER 4 0 0 0 INTEGER ()) 0 44 (('' (VARIABLE (REAL 8 0 0 0
REAL ()) 4 43 ((ARRAY (FULL 4 2 2 2 2))))) ('' (CONSTANT (INTEGER 4 0 0
0 INTEGER ()) 0 '3')) ('' ())) '' 0 'size') (CONSTANT (INTEGER 4 0 0 0
INTEGER ()) 0 '1') (FUNCTION (INTEGER 4 0 0 0 INTEGER ()) 0 44 (('' (
VARIABLE (REAL 8 0 0 0 REAL ()) 4 43 ((ARRAY (FULL 4 2 2 2 2))))) ('' (
CONSTANT (INTEGER 4 0 0 0 INTEGER ()) 0 '4')) ('' ())) '' 0 'size')) 45
() () () 0 0)
8 'c_disnan_3d' 'shr_infnan_mod' '' 1 ((PROCEDURE UNKNOWN-INTENT
MODULE-PROC DECL UNKNOWN 0 0 DIMENSION FUNCTION ALWAYS_EXPLICIT) (
LOGICAL 4 0 0 0 LOGICAL ()) 46 0 (47) (3 0 EXPLICIT (CONSTANT (INTEGER 4
0 0 0 INTEGER ()) 0 '1') (FUNCTION (INTEGER 4 0 0 0 INTEGER ()) 0 48 ((''
(VARIABLE (REAL 8 0 0 0 REAL ()) 3 47 ((ARRAY (FULL 3 2 2 2))))) ('' (
CONSTANT (INTEGER 4 0 0 0 INTEGER ()) 0 '1')) ('' ())) '' 0 'size') (
CONSTANT (INTEGER 4 0 0 0 INTEGER ()) 0 '1') (FUNCTION (INTEGER 4 0 0 0
INTEGER ()) 0 48 (('' (VARIABLE (REAL 8 0 0 0 REAL ()) 3 47 ((ARRAY (
FULL 3 2 2 2))))) ('' (CONSTANT (INTEGER 4 0 0 0 INTEGER ()) 0 '2')) (''
())) '' 0 'size') (CONSTANT (INTEGER 4 0 0 0 INTEGER ()) 0 '1') (
FUNCTION (INTEGER 4 0 0 0 INTEGER ()) 0 48 (('' (VARIABLE (REAL 8 0 0 0
REAL ()) 3 47 ((ARRAY (FULL 3 2 2 2))))) ('' (CONSTANT (INTEGER 4 0 0 0
INTEGER ()) 0 '3')) ('' ())) '' 0 'size')) 49 () () () 0 0)
9 'c_disnan_2d' 'shr_infnan_mod' '' 1 ((PROCEDURE UNKNOWN-INTENT
MODULE-PROC DECL UNKNOWN 0 0 DIMENSION FUNCTION ALWAYS_EXPLICIT) (
LOGICAL 4 0 0 0 LOGICAL ()) 50 0 (51) (2 0 EXPLICIT (CONSTANT (INTEGER 4
0 0 0 INTEGER ()) 0 '1') (FUNCTION (INTEGER 4 0 0 0 INTEGER ()) 0 52 ((''
(VARIABLE (REAL 8 0 0 0 REAL ()) 2 51 ((ARRAY (FULL 2 2 2))))) ('' (
CONSTANT (INTEGER 4 0 0 0 INTEGER ()) 0 '1')) ('' ())) '' 0 'size') (
CONSTANT (INTEGER 4 0 0 0 INTEGER ()) 0 '1') (FUNCTION (INTEGER 4 0 0 0
INTEGER ()) 0 52 (('' (VARIABLE (REAL 8 0 0 0 REAL ()) 2 51 ((ARRAY (
FULL 2 2 2))))) ('' (CONSTANT (INTEGER 4 0 0 0 INTEGER ()) 0 '2')) ('' ()))
'' 0 'size')) 53 () () () 0 0)
10 'c_disnan_1d' 'shr_infnan_mod' '' 1 ((PROCEDURE UNKNOWN-INTENT
MODULE-PROC DECL UNKNOWN 0 0 DIMENSION FUNCTION ALWAYS_EXPLICIT) (
LOGICAL 4 0 0 0 LOGICAL ()) 54 0 (55) (1 0 EXPLICIT (CONSTANT (INTEGER 4
0 0 0 INTEGER ()) 0 '1') (FUNCTION (INTEGER 4 0 0 0 INTEGER ()) 0 56 ((''
(VARIABLE (REAL 8 0 0 0 REAL ()) 1 55 ((ARRAY (FULL 1 2))))) ('' ()) (''
())) '' 0 'size')) 57 () () () 0 0)
11 'c_disnan_scalar' 'shr_infnan_mod' '' 1 ((PROCEDURE UNKNOWN-INTENT
MODULE-PROC DECL UNKNOWN 0 0 FUNCTION) (LOGICAL 4 0 0 0 LOGICAL ()) 58 0
(59) () 60 () () () 0 0)
12 'c_sisnan_7d' 'shr_infnan_mod' '' 1 ((PROCEDURE UNKNOWN-INTENT
MODULE-PROC DECL UNKNOWN 0 0 DIMENSION FUNCTION ALWAYS_EXPLICIT) (
LOGICAL 4 0 0 0 LOGICAL ()) 61 0 (62) (7 0 EXPLICIT (CONSTANT (INTEGER 4
0 0 0 INTEGER ()) 0 '1') (FUNCTION (INTEGER 4 0 0 0 INTEGER ()) 0 63 ((''
(VARIABLE (REAL 4 0 0 0 REAL ()) 7 62 ((ARRAY (FULL 7 2 2 2 2 2 2 2)))))
('' (CONSTANT (INTEGER 4 0 0 0 INTEGER ()) 0 '1')) ('' ())) '' 0 'size')
(CONSTANT (INTEGER 4 0 0 0 INTEGER ()) 0 '1') (FUNCTION (INTEGER 4 0 0 0
INTEGER ()) 0 63 (('' (VARIABLE (REAL 4 0 0 0 REAL ()) 7 62 ((ARRAY (
FULL 7 2 2 2 2 2 2 2))))) ('' (CONSTANT (INTEGER 4 0 0 0 INTEGER ()) 0 '2'))
('' ())) '' 0 'size') (CONSTANT (INTEGER 4 0 0 0 INTEGER ()) 0 '1') (
FUNCTION (INTEGER 4 0 0 0 INTEGER ()) 0 63 (('' (VARIABLE (REAL 4 0 0 0
REAL ()) 7 62 ((ARRAY (FULL 7 2 2 2 2 2 2 2))))) ('' (CONSTANT (INTEGER
4 0 0 0 INTEGER ()) 0 '3')) ('' ())) '' 0 'size') (CONSTANT (INTEGER 4 0
0 0 INTEGER ()) 0 '1') (FUNCTION (INTEGER 4 0 0 0 INTEGER ()) 0 63 ((''
(VARIABLE (REAL 4 0 0 0 REAL ()) 7 62 ((ARRAY (FULL 7 2 2 2 2 2 2 2)))))
('' (CONSTANT (INTEGER 4 0 0 0 INTEGER ()) 0 '4')) ('' ())) '' 0 'size')
(CONSTANT (INTEGER 4 0 0 0 INTEGER ()) 0 '1') (FUNCTION (INTEGER 4 0 0 0
INTEGER ()) 0 63 (('' (VARIABLE (REAL 4 0 0 0 REAL ()) 7 62 ((ARRAY (
FULL 7 2 2 2 2 2 2 2))))) ('' (CONSTANT (INTEGER 4 0 0 0 INTEGER ()) 0 '5'))
('' ())) '' 0 'size') (CONSTANT (INTEGER 4 0 0 0 INTEGER ()) 0 '1') (
FUNCTION (INTEGER 4 0 0 0 INTEGER ()) 0 63 (('' (VARIABLE (REAL 4 0 0 0
REAL ()) 7 62 ((ARRAY (FULL 7 2 2 2 2 2 2 2))))) ('' (CONSTANT (INTEGER
4 0 0 0 INTEGER ()) 0 '6')) ('' ())) '' 0 'size') (CONSTANT (INTEGER 4 0
0 0 INTEGER ()) 0 '1') (FUNCTION (INTEGER 4 0 0 0 INTEGER ()) 0 63 ((''
(VARIABLE (REAL 4 0 0 0 REAL ()) 7 62 ((ARRAY (FULL 7 2 2 2 2 2 2 2)))))
('' (CONSTANT (INTEGER 4 0 0 0 INTEGER ()) 0 '7')) ('' ())) '' 0 'size'))
64 () () () 0 0)
13 'c_sisnan_6d' 'shr_infnan_mod' '' 1 ((PROCEDURE UNKNOWN-INTENT
MODULE-PROC DECL UNKNOWN 0 0 DIMENSION FUNCTION ALWAYS_EXPLICIT) (
LOGICAL 4 0 0 0 LOGICAL ()) 65 0 (66) (6 0 EXPLICIT (CONSTANT (INTEGER 4
0 0 0 INTEGER ()) 0 '1') (FUNCTION (INTEGER 4 0 0 0 INTEGER ()) 0 67 ((''
(VARIABLE (REAL 4 0 0 0 REAL ()) 6 66 ((ARRAY (FULL 6 2 2 2 2 2 2))))) (
'' (CONSTANT (INTEGER 4 0 0 0 INTEGER ()) 0 '1')) ('' ())) '' 0 'size')
(CONSTANT (INTEGER 4 0 0 0 INTEGER ()) 0 '1') (FUNCTION (INTEGER 4 0 0 0
INTEGER ()) 0 67 (('' (VARIABLE (REAL 4 0 0 0 REAL ()) 6 66 ((ARRAY (
FULL 6 2 2 2 2 2 2))))) ('' (CONSTANT (INTEGER 4 0 0 0 INTEGER ()) 0 '2'))
('' ())) '' 0 'size') (CONSTANT (INTEGER 4 0 0 0 INTEGER ()) 0 '1') (
FUNCTION (INTEGER 4 0 0 0 INTEGER ()) 0 67 (('' (VARIABLE (REAL 4 0 0 0
REAL ()) 6 66 ((ARRAY (FULL 6 2 2 2 2 2 2))))) ('' (CONSTANT (INTEGER 4
0 0 0 INTEGER ()) 0 '3')) ('' ())) '' 0 'size') (CONSTANT (INTEGER 4 0 0
0 INTEGER ()) 0 '1') (FUNCTION (INTEGER 4 0 0 0 INTEGER ()) 0 67 (('' (
VARIABLE (REAL 4 0 0 0 REAL ()) 6 66 ((ARRAY (FULL 6 2 2 2 2 2 2))))) (''
(CONSTANT (INTEGER 4 0 0 0 INTEGER ()) 0 '4')) ('' ())) '' 0 'size') (
CONSTANT (INTEGER 4 0 0 0 INTEGER ()) 0 '1') (FUNCTION (INTEGER 4 0 0 0
INTEGER ()) 0 67 (('' (VARIABLE (REAL 4 0 0 0 REAL ()) 6 66 ((ARRAY (
FULL 6 2 2 2 2 2 2))))) ('' (CONSTANT (INTEGER 4 0 0 0 INTEGER ()) 0 '5'))
('' ())) '' 0 'size') (CONSTANT (INTEGER 4 0 0 0 INTEGER ()) 0 '1') (
FUNCTION (INTEGER 4 0 0 0 INTEGER ()) 0 67 (('' (VARIABLE (REAL 4 0 0 0
REAL ()) 6 66 ((ARRAY (FULL 6 2 2 2 2 2 2))))) ('' (CONSTANT (INTEGER 4
0 0 0 INTEGER ()) 0 '6')) ('' ())) '' 0 'size')) 68 () () () 0 0)
14 'c_sisnan_5d' 'shr_infnan_mod' '' 1 ((PROCEDURE UNKNOWN-INTENT
MODULE-PROC DECL UNKNOWN 0 0 DIMENSION FUNCTION ALWAYS_EXPLICIT) (
LOGICAL 4 0 0 0 LOGICAL ()) 69 0 (70) (5 0 EXPLICIT (CONSTANT (INTEGER 4
0 0 0 INTEGER ()) 0 '1') (FUNCTION (INTEGER 4 0 0 0 INTEGER ()) 0 71 ((''
(VARIABLE (REAL 4 0 0 0 REAL ()) 5 70 ((ARRAY (FULL 5 2 2 2 2 2))))) (''
(CONSTANT (INTEGER 4 0 0 0 INTEGER ()) 0 '1')) ('' ())) '' 0 'size') (
CONSTANT (INTEGER 4 0 0 0 INTEGER ()) 0 '1') (FUNCTION (INTEGER 4 0 0 0
INTEGER ()) 0 71 (('' (VARIABLE (REAL 4 0 0 0 REAL ()) 5 70 ((ARRAY (
FULL 5 2 2 2 2 2))))) ('' (CONSTANT (INTEGER 4 0 0 0 INTEGER ()) 0 '2'))
('' ())) '' 0 'size') (CONSTANT (INTEGER 4 0 0 0 INTEGER ()) 0 '1') (
FUNCTION (INTEGER 4 0 0 0 INTEGER ()) 0 71 (('' (VARIABLE (REAL 4 0 0 0
REAL ()) 5 70 ((ARRAY (FULL 5 2 2 2 2 2))))) ('' (CONSTANT (INTEGER 4 0
0 0 INTEGER ()) 0 '3')) ('' ())) '' 0 'size') (CONSTANT (INTEGER 4 0 0 0
INTEGER ()) 0 '1') (FUNCTION (INTEGER 4 0 0 0 INTEGER ()) 0 71 (('' (
VARIABLE (REAL 4 0 0 0 REAL ()) 5 70 ((ARRAY (FULL 5 2 2 2 2 2))))) (''
(CONSTANT (INTEGER 4 0 0 0 INTEGER ()) 0 '4')) ('' ())) '' 0 'size') (
CONSTANT (INTEGER 4 0 0 0 INTEGER ()) 0 '1') (FUNCTION (INTEGER 4 0 0 0
INTEGER ()) 0 71 (('' (VARIABLE (REAL 4 0 0 0 REAL ()) 5 70 ((ARRAY (
FULL 5 2 2 2 2 2))))) ('' (CONSTANT (INTEGER 4 0 0 0 INTEGER ()) 0 '5'))
('' ())) '' 0 'size')) 72 () () () 0 0)
15 'c_sisnan_4d' 'shr_infnan_mod' '' 1 ((PROCEDURE UNKNOWN-INTENT
MODULE-PROC DECL UNKNOWN 0 0 DIMENSION FUNCTION ALWAYS_EXPLICIT) (
LOGICAL 4 0 0 0 LOGICAL ()) 73 0 (74) (4 0 EXPLICIT (CONSTANT (INTEGER 4
0 0 0 INTEGER ()) 0 '1') (FUNCTION (INTEGER 4 0 0 0 INTEGER ()) 0 75 ((''
(VARIABLE (REAL 4 0 0 0 REAL ()) 4 74 ((ARRAY (FULL 4 2 2 2 2))))) ('' (
CONSTANT (INTEGER 4 0 0 0 INTEGER ()) 0 '1')) ('' ())) '' 0 'size') (
CONSTANT (INTEGER 4 0 0 0 INTEGER ()) 0 '1') (FUNCTION (INTEGER 4 0 0 0
INTEGER ()) 0 75 (('' (VARIABLE (REAL 4 0 0 0 REAL ()) 4 74 ((ARRAY (
FULL 4 2 2 2 2))))) ('' (CONSTANT (INTEGER 4 0 0 0 INTEGER ()) 0 '2')) (
'' ())) '' 0 'size') (CONSTANT (INTEGER 4 0 0 0 INTEGER ()) 0 '1') (
FUNCTION (INTEGER 4 0 0 0 INTEGER ()) 0 75 (('' (VARIABLE (REAL 4 0 0 0
REAL ()) 4 74 ((ARRAY (FULL 4 2 2 2 2))))) ('' (CONSTANT (INTEGER 4 0 0
0 INTEGER ()) 0 '3')) ('' ())) '' 0 'size') (CONSTANT (INTEGER 4 0 0 0
INTEGER ()) 0 '1') (FUNCTION (INTEGER 4 0 0 0 INTEGER ()) 0 75 (('' (
VARIABLE (REAL 4 0 0 0 REAL ()) 4 74 ((ARRAY (FULL 4 2 2 2 2))))) ('' (
CONSTANT (INTEGER 4 0 0 0 INTEGER ()) 0 '4')) ('' ())) '' 0 'size')) 76
() () () 0 0)
16 'c_sisnan_3d' 'shr_infnan_mod' '' 1 ((PROCEDURE UNKNOWN-INTENT
MODULE-PROC DECL UNKNOWN 0 0 DIMENSION FUNCTION ALWAYS_EXPLICIT) (
LOGICAL 4 0 0 0 LOGICAL ()) 77 0 (78) (3 0 EXPLICIT (CONSTANT (INTEGER 4
0 0 0 INTEGER ()) 0 '1') (FUNCTION (INTEGER 4 0 0 0 INTEGER ()) 0 79 ((''
(VARIABLE (REAL 4 0 0 0 REAL ()) 3 78 ((ARRAY (FULL 3 2 2 2))))) ('' (
CONSTANT (INTEGER 4 0 0 0 INTEGER ()) 0 '1')) ('' ())) '' 0 'size') (
CONSTANT (INTEGER 4 0 0 0 INTEGER ()) 0 '1') (FUNCTION (INTEGER 4 0 0 0
INTEGER ()) 0 79 (('' (VARIABLE (REAL 4 0 0 0 REAL ()) 3 78 ((ARRAY (
FULL 3 2 2 2))))) ('' (CONSTANT (INTEGER 4 0 0 0 INTEGER ()) 0 '2')) (''
())) '' 0 'size') (CONSTANT (INTEGER 4 0 0 0 INTEGER ()) 0 '1') (
FUNCTION (INTEGER 4 0 0 0 INTEGER ()) 0 79 (('' (VARIABLE (REAL 4 0 0 0
REAL ()) 3 78 ((ARRAY (FULL 3 2 2 2))))) ('' (CONSTANT (INTEGER 4 0 0 0
INTEGER ()) 0 '3')) ('' ())) '' 0 'size')) 80 () () () 0 0)
17 'c_sisnan_2d' 'shr_infnan_mod' '' 1 ((PROCEDURE UNKNOWN-INTENT
MODULE-PROC DECL UNKNOWN 0 0 DIMENSION FUNCTION ALWAYS_EXPLICIT) (
LOGICAL 4 0 0 0 LOGICAL ()) 81 0 (82) (2 0 EXPLICIT (CONSTANT (INTEGER 4
0 0 0 INTEGER ()) 0 '1') (FUNCTION (INTEGER 4 0 0 0 INTEGER ()) 0 83 ((''
(VARIABLE (REAL 4 0 0 0 REAL ()) 2 82 ((ARRAY (FULL 2 2 2))))) ('' (
CONSTANT (INTEGER 4 0 0 0 INTEGER ()) 0 '1')) ('' ())) '' 0 'size') (
CONSTANT (INTEGER 4 0 0 0 INTEGER ()) 0 '1') (FUNCTION (INTEGER 4 0 0 0
INTEGER ()) 0 83 (('' (VARIABLE (REAL 4 0 0 0 REAL ()) 2 82 ((ARRAY (
FULL 2 2 2))))) ('' (CONSTANT (INTEGER 4 0 0 0 INTEGER ()) 0 '2')) ('' ()))
'' 0 'size')) 84 () () () 0 0)
18 'c_sisnan_1d' 'shr_infnan_mod' '' 1 ((PROCEDURE UNKNOWN-INTENT
MODULE-PROC DECL UNKNOWN 0 0 DIMENSION FUNCTION ALWAYS_EXPLICIT) (
LOGICAL 4 0 0 0 LOGICAL ()) 85 0 (86) (1 0 EXPLICIT (CONSTANT (INTEGER 4
0 0 0 INTEGER ()) 0 '1') (FUNCTION (INTEGER 4 0 0 0 INTEGER ()) 0 87 ((''
(VARIABLE (REAL 4 0 0 0 REAL ()) 1 86 ((ARRAY (FULL 1 2))))) ('' ()) (''
())) '' 0 'size')) 88 () () () 0 0)
19 'c_sisnan_scalar' 'shr_infnan_mod' '' 1 ((PROCEDURE UNKNOWN-INTENT
MODULE-PROC DECL UNKNOWN 0 0 FUNCTION) (LOGICAL 4 0 0 0 LOGICAL ()) 89 0
(90) () 91 () () () 0 0)
20 'disneginf' 'shr_infnan_mod' '' 1 ((PROCEDURE UNKNOWN-INTENT
MODULE-PROC DECL UNKNOWN 0 0 FUNCTION ELEMENTAL PURE ALWAYS_EXPLICIT) (
LOGICAL 4 0 0 0 LOGICAL ()) 92 0 (93) () 94 () () () 0 0)
21 'sisneginf' 'shr_infnan_mod' '' 1 ((PROCEDURE UNKNOWN-INTENT
MODULE-PROC DECL UNKNOWN 0 0 FUNCTION ELEMENTAL PURE ALWAYS_EXPLICIT) (
LOGICAL 4 0 0 0 LOGICAL ()) 95 0 (96) () 97 () () () 0 0)
22 'disposinf' 'shr_infnan_mod' '' 1 ((PROCEDURE UNKNOWN-INTENT
MODULE-PROC DECL UNKNOWN 0 0 FUNCTION ELEMENTAL PURE ALWAYS_EXPLICIT) (
LOGICAL 4 0 0 0 LOGICAL ()) 98 0 (99) () 100 () () () 0 0)
23 'sisposinf' 'shr_infnan_mod' '' 1 ((PROCEDURE UNKNOWN-INTENT
MODULE-PROC DECL UNKNOWN 0 0 FUNCTION ELEMENTAL PURE ALWAYS_EXPLICIT) (
LOGICAL 4 0 0 0 LOGICAL ()) 101 0 (102) () 103 () () () 0 0)
25 'd' '' '' 24 ((VARIABLE IN UNKNOWN-PROC UNKNOWN UNKNOWN 0 0 DUMMY) (
REAL 8 0 0 0 REAL ()) 0 0 () () 0 () () () 0 0)
26 'res' '' '' 24 ((VARIABLE UNKNOWN-INTENT UNKNOWN-PROC UNKNOWN UNKNOWN
0 0 RESULT ALWAYS_EXPLICIT) (LOGICAL 4 0 0 0 LOGICAL ()) 0 0 () () 0 ()
() () 0 0)
28 'x' '' '' 27 ((VARIABLE IN UNKNOWN-PROC UNKNOWN UNKNOWN 0 0 DUMMY) (
REAL 4 0 0 0 REAL ()) 0 0 () () 0 () () () 0 0)
29 'res' '' '' 27 ((VARIABLE UNKNOWN-INTENT UNKNOWN-PROC UNKNOWN UNKNOWN
0 0 RESULT ALWAYS_EXPLICIT) (LOGICAL 4 0 0 0 LOGICAL ()) 0 0 () () 0 ()
() () 0 0)
31 'x' '' '' 30 ((VARIABLE IN UNKNOWN-PROC UNKNOWN UNKNOWN 0 0 DIMENSION
DUMMY) (REAL 8 0 0 0 REAL ()) 0 0 () (7 0 ASSUMED_SHAPE (CONSTANT (
INTEGER 4 0 0 0 INTEGER ()) 0 '1') () (CONSTANT (INTEGER 4 0 0 0 INTEGER
()) 0 '1') () (CONSTANT (INTEGER 4 0 0 0 INTEGER ()) 0 '1') () (
CONSTANT (INTEGER 4 0 0 0 INTEGER ()) 0 '1') () (CONSTANT (INTEGER 4 0 0
0 INTEGER ()) 0 '1') () (CONSTANT (INTEGER 4 0 0 0 INTEGER ()) 0 '1') ()
(CONSTANT (INTEGER 4 0 0 0 INTEGER ()) 0 '1') ()) 0 () () () 0 0)
32 'size' '(intrinsic)' '' 30 ((PROCEDURE UNKNOWN-INTENT UNKNOWN-PROC
UNKNOWN UNKNOWN 0 0 FUNCTION) (UNKNOWN 0 0 0 0 UNKNOWN ()) 0 0 () () 32
() () () 0 0)
33 'res' '' '' 30 ((VARIABLE UNKNOWN-INTENT UNKNOWN-PROC UNKNOWN UNKNOWN
0 0 DIMENSION RESULT ALWAYS_EXPLICIT) (LOGICAL 4 0 0 0 LOGICAL ()) 0 0 ()
(7 0 EXPLICIT (CONSTANT (INTEGER 4 0 0 0 INTEGER ()) 0 '1') (FUNCTION (
INTEGER 4 0 0 0 INTEGER ()) 0 32 (('' (VARIABLE (REAL 8 0 0 0 REAL ()) 7
31 ((ARRAY (FULL 7 2 2 2 2 2 2 2))))) ('' (CONSTANT (INTEGER 4 0 0 0
INTEGER ()) 0 '1')) ('' ())) '' 0 'size') (CONSTANT (INTEGER 4 0 0 0
INTEGER ()) 0 '1') (FUNCTION (INTEGER 4 0 0 0 INTEGER ()) 0 32 (('' (
VARIABLE (REAL 8 0 0 0 REAL ()) 7 31 ((ARRAY (FULL 7 2 2 2 2 2 2 2)))))
('' (CONSTANT (INTEGER 4 0 0 0 INTEGER ()) 0 '2')) ('' ())) '' 0 'size')
(CONSTANT (INTEGER 4 0 0 0 INTEGER ()) 0 '1') (FUNCTION (INTEGER 4 0 0 0
INTEGER ()) 0 32 (('' (VARIABLE (REAL 8 0 0 0 REAL ()) 7 31 ((ARRAY (
FULL 7 2 2 2 2 2 2 2))))) ('' (CONSTANT (INTEGER 4 0 0 0 INTEGER ()) 0 '3'))
('' ())) '' 0 'size') (CONSTANT (INTEGER 4 0 0 0 INTEGER ()) 0 '1') (
FUNCTION (INTEGER 4 0 0 0 INTEGER ()) 0 32 (('' (VARIABLE (REAL 8 0 0 0
REAL ()) 7 31 ((ARRAY (FULL 7 2 2 2 2 2 2 2))))) ('' (CONSTANT (INTEGER
4 0 0 0 INTEGER ()) 0 '4')) ('' ())) '' 0 'size') (CONSTANT (INTEGER 4 0
0 0 INTEGER ()) 0 '1') (FUNCTION (INTEGER 4 0 0 0 INTEGER ()) 0 32 ((''
(VARIABLE (REAL 8 0 0 0 REAL ()) 7 31 ((ARRAY (FULL 7 2 2 2 2 2 2 2)))))
('' (CONSTANT (INTEGER 4 0 0 0 INTEGER ()) 0 '5')) ('' ())) '' 0 'size')
(CONSTANT (INTEGER 4 0 0 0 INTEGER ()) 0 '1') (FUNCTION (INTEGER 4 0 0 0
INTEGER ()) 0 32 (('' (VARIABLE (REAL 8 0 0 0 REAL ()) 7 31 ((ARRAY (
FULL 7 2 2 2 2 2 2 2))))) ('' (CONSTANT (INTEGER 4 0 0 0 INTEGER ()) 0 '6'))
('' ())) '' 0 'size') (CONSTANT (INTEGER 4 0 0 0 INTEGER ()) 0 '1') (
FUNCTION (INTEGER 4 0 0 0 INTEGER ()) 0 32 (('' (VARIABLE (REAL 8 0 0 0
REAL ()) 7 31 ((ARRAY (FULL 7 2 2 2 2 2 2 2))))) ('' (CONSTANT (INTEGER
4 0 0 0 INTEGER ()) 0 '7')) ('' ())) '' 0 'size')) 0 () () () 0 0)
35 'x' '' '' 34 ((VARIABLE IN UNKNOWN-PROC UNKNOWN UNKNOWN 0 0 DIMENSION
DUMMY) (REAL 8 0 0 0 REAL ()) 0 0 () (6 0 ASSUMED_SHAPE (CONSTANT (
INTEGER 4 0 0 0 INTEGER ()) 0 '1') () (CONSTANT (INTEGER 4 0 0 0 INTEGER
()) 0 '1') () (CONSTANT (INTEGER 4 0 0 0 INTEGER ()) 0 '1') () (
CONSTANT (INTEGER 4 0 0 0 INTEGER ()) 0 '1') () (CONSTANT (INTEGER 4 0 0
0 INTEGER ()) 0 '1') () (CONSTANT (INTEGER 4 0 0 0 INTEGER ()) 0 '1') ())
0 () () () 0 0)
36 'size' '(intrinsic)' '' 34 ((PROCEDURE UNKNOWN-INTENT UNKNOWN-PROC
UNKNOWN UNKNOWN 0 0 FUNCTION) (UNKNOWN 0 0 0 0 UNKNOWN ()) 0 0 () () 36
() () () 0 0)
37 'res' '' '' 34 ((VARIABLE UNKNOWN-INTENT UNKNOWN-PROC UNKNOWN UNKNOWN
0 0 DIMENSION RESULT ALWAYS_EXPLICIT) (LOGICAL 4 0 0 0 LOGICAL ()) 0 0 ()
(6 0 EXPLICIT (CONSTANT (INTEGER 4 0 0 0 INTEGER ()) 0 '1') (FUNCTION (
INTEGER 4 0 0 0 INTEGER ()) 0 36 (('' (VARIABLE (REAL 8 0 0 0 REAL ()) 6
35 ((ARRAY (FULL 6 2 2 2 2 2 2))))) ('' (CONSTANT (INTEGER 4 0 0 0
INTEGER ()) 0 '1')) ('' ())) '' 0 'size') (CONSTANT (INTEGER 4 0 0 0
INTEGER ()) 0 '1') (FUNCTION (INTEGER 4 0 0 0 INTEGER ()) 0 36 (('' (
VARIABLE (REAL 8 0 0 0 REAL ()) 6 35 ((ARRAY (FULL 6 2 2 2 2 2 2))))) (''
(CONSTANT (INTEGER 4 0 0 0 INTEGER ()) 0 '2')) ('' ())) '' 0 'size') (
CONSTANT (INTEGER 4 0 0 0 INTEGER ()) 0 '1') (FUNCTION (INTEGER 4 0 0 0
INTEGER ()) 0 36 (('' (VARIABLE (REAL 8 0 0 0 REAL ()) 6 35 ((ARRAY (
FULL 6 2 2 2 2 2 2))))) ('' (CONSTANT (INTEGER 4 0 0 0 INTEGER ()) 0 '3'))
('' ())) '' 0 'size') (CONSTANT (INTEGER 4 0 0 0 INTEGER ()) 0 '1') (
FUNCTION (INTEGER 4 0 0 0 INTEGER ()) 0 36 (('' (VARIABLE (REAL 8 0 0 0
REAL ()) 6 35 ((ARRAY (FULL 6 2 2 2 2 2 2))))) ('' (CONSTANT (INTEGER 4
0 0 0 INTEGER ()) 0 '4')) ('' ())) '' 0 'size') (CONSTANT (INTEGER 4 0 0
0 INTEGER ()) 0 '1') (FUNCTION (INTEGER 4 0 0 0 INTEGER ()) 0 36 (('' (
VARIABLE (REAL 8 0 0 0 REAL ()) 6 35 ((ARRAY (FULL 6 2 2 2 2 2 2))))) (''
(CONSTANT (INTEGER 4 0 0 0 INTEGER ()) 0 '5')) ('' ())) '' 0 'size') (
CONSTANT (INTEGER 4 0 0 0 INTEGER ()) 0 '1') (FUNCTION (INTEGER 4 0 0 0
INTEGER ()) 0 36 (('' (VARIABLE (REAL 8 0 0 0 REAL ()) 6 35 ((ARRAY (
FULL 6 2 2 2 2 2 2))))) ('' (CONSTANT (INTEGER 4 0 0 0 INTEGER ()) 0 '6'))
('' ())) '' 0 'size')) 0 () () () 0 0)
39 'x' '' '' 38 ((VARIABLE IN UNKNOWN-PROC UNKNOWN UNKNOWN 0 0 DIMENSION
DUMMY) (REAL 8 0 0 0 REAL ()) 0 0 () (5 0 ASSUMED_SHAPE (CONSTANT (
INTEGER 4 0 0 0 INTEGER ()) 0 '1') () (CONSTANT (INTEGER 4 0 0 0 INTEGER
()) 0 '1') () (CONSTANT (INTEGER 4 0 0 0 INTEGER ()) 0 '1') () (
CONSTANT (INTEGER 4 0 0 0 INTEGER ()) 0 '1') () (CONSTANT (INTEGER 4 0 0
0 INTEGER ()) 0 '1') ()) 0 () () () 0 0)
40 'size' '(intrinsic)' '' 38 ((PROCEDURE UNKNOWN-INTENT UNKNOWN-PROC
UNKNOWN UNKNOWN 0 0 FUNCTION) (UNKNOWN 0 0 0 0 UNKNOWN ()) 0 0 () () 40
() () () 0 0)
41 'res' '' '' 38 ((VARIABLE UNKNOWN-INTENT UNKNOWN-PROC UNKNOWN UNKNOWN
0 0 DIMENSION RESULT ALWAYS_EXPLICIT) (LOGICAL 4 0 0 0 LOGICAL ()) 0 0 ()
(5 0 EXPLICIT (CONSTANT (INTEGER 4 0 0 0 INTEGER ()) 0 '1') (FUNCTION (
INTEGER 4 0 0 0 INTEGER ()) 0 40 (('' (VARIABLE (REAL 8 0 0 0 REAL ()) 5
39 ((ARRAY (FULL 5 2 2 2 2 2))))) ('' (CONSTANT (INTEGER 4 0 0 0 INTEGER
()) 0 '1')) ('' ())) '' 0 'size') (CONSTANT (INTEGER 4 0 0 0 INTEGER ())
0 '1') (FUNCTION (INTEGER 4 0 0 0 INTEGER ()) 0 40 (('' (VARIABLE (REAL
8 0 0 0 REAL ()) 5 39 ((ARRAY (FULL 5 2 2 2 2 2))))) ('' (CONSTANT (
INTEGER 4 0 0 0 INTEGER ()) 0 '2')) ('' ())) '' 0 'size') (CONSTANT (
INTEGER 4 0 0 0 INTEGER ()) 0 '1') (FUNCTION (INTEGER 4 0 0 0 INTEGER ())
0 40 (('' (VARIABLE (REAL 8 0 0 0 REAL ()) 5 39 ((ARRAY (FULL 5 2 2 2 2
2))))) ('' (CONSTANT (INTEGER 4 0 0 0 INTEGER ()) 0 '3')) ('' ())) '' 0
'size') (CONSTANT (INTEGER 4 0 0 0 INTEGER ()) 0 '1') (FUNCTION (
INTEGER 4 0 0 0 INTEGER ()) 0 40 (('' (VARIABLE (REAL 8 0 0 0 REAL ()) 5
39 ((ARRAY (FULL 5 2 2 2 2 2))))) ('' (CONSTANT (INTEGER 4 0 0 0 INTEGER
()) 0 '4')) ('' ())) '' 0 'size') (CONSTANT (INTEGER 4 0 0 0 INTEGER ())
0 '1') (FUNCTION (INTEGER 4 0 0 0 INTEGER ()) 0 40 (('' (VARIABLE (REAL
8 0 0 0 REAL ()) 5 39 ((ARRAY (FULL 5 2 2 2 2 2))))) ('' (CONSTANT (
INTEGER 4 0 0 0 INTEGER ()) 0 '5')) ('' ())) '' 0 'size')) 0 () () () 0
0)
43 'x' '' '' 42 ((VARIABLE IN UNKNOWN-PROC UNKNOWN UNKNOWN 0 0 DIMENSION
DUMMY) (REAL 8 0 0 0 REAL ()) 0 0 () (4 0 ASSUMED_SHAPE (CONSTANT (
INTEGER 4 0 0 0 INTEGER ()) 0 '1') () (CONSTANT (INTEGER 4 0 0 0 INTEGER
()) 0 '1') () (CONSTANT (INTEGER 4 0 0 0 INTEGER ()) 0 '1') () (
CONSTANT (INTEGER 4 0 0 0 INTEGER ()) 0 '1') ()) 0 () () () 0 0)
44 'size' '(intrinsic)' '' 42 ((PROCEDURE UNKNOWN-INTENT UNKNOWN-PROC
UNKNOWN UNKNOWN 0 0 FUNCTION) (UNKNOWN 0 0 0 0 UNKNOWN ()) 0 0 () () 44
() () () 0 0)
45 'res' '' '' 42 ((VARIABLE UNKNOWN-INTENT UNKNOWN-PROC UNKNOWN UNKNOWN
0 0 DIMENSION RESULT ALWAYS_EXPLICIT) (LOGICAL 4 0 0 0 LOGICAL ()) 0 0 ()
(4 0 EXPLICIT (CONSTANT (INTEGER 4 0 0 0 INTEGER ()) 0 '1') (FUNCTION (
INTEGER 4 0 0 0 INTEGER ()) 0 44 (('' (VARIABLE (REAL 8 0 0 0 REAL ()) 4
43 ((ARRAY (FULL 4 2 2 2 2))))) ('' (CONSTANT (INTEGER 4 0 0 0 INTEGER ())
0 '1')) ('' ())) '' 0 'size') (CONSTANT (INTEGER 4 0 0 0 INTEGER ()) 0 '1')
(FUNCTION (INTEGER 4 0 0 0 INTEGER ()) 0 44 (('' (VARIABLE (REAL 8 0 0 0
REAL ()) 4 43 ((ARRAY (FULL 4 2 2 2 2))))) ('' (CONSTANT (INTEGER 4 0 0
0 INTEGER ()) 0 '2')) ('' ())) '' 0 'size') (CONSTANT (INTEGER 4 0 0 0
INTEGER ()) 0 '1') (FUNCTION (INTEGER 4 0 0 0 INTEGER ()) 0 44 (('' (
VARIABLE (REAL 8 0 0 0 REAL ()) 4 43 ((ARRAY (FULL 4 2 2 2 2))))) ('' (
CONSTANT (INTEGER 4 0 0 0 INTEGER ()) 0 '3')) ('' ())) '' 0 'size') (
CONSTANT (INTEGER 4 0 0 0 INTEGER ()) 0 '1') (FUNCTION (INTEGER 4 0 0 0
INTEGER ()) 0 44 (('' (VARIABLE (REAL 8 0 0 0 REAL ()) 4 43 ((ARRAY (
FULL 4 2 2 2 2))))) ('' (CONSTANT (INTEGER 4 0 0 0 INTEGER ()) 0 '4')) (
'' ())) '' 0 'size')) 0 () () () 0 0)
47 'x' '' '' 46 ((VARIABLE IN UNKNOWN-PROC UNKNOWN UNKNOWN 0 0 DIMENSION
DUMMY) (REAL 8 0 0 0 REAL ()) 0 0 () (3 0 ASSUMED_SHAPE (CONSTANT (
INTEGER 4 0 0 0 INTEGER ()) 0 '1') () (CONSTANT (INTEGER 4 0 0 0 INTEGER
()) 0 '1') () (CONSTANT (INTEGER 4 0 0 0 INTEGER ()) 0 '1') ()) 0 () ()
() 0 0)
48 'size' '(intrinsic)' '' 46 ((PROCEDURE UNKNOWN-INTENT UNKNOWN-PROC
UNKNOWN UNKNOWN 0 0 FUNCTION) (UNKNOWN 0 0 0 0 UNKNOWN ()) 0 0 () () 48
() () () 0 0)
49 'res' '' '' 46 ((VARIABLE UNKNOWN-INTENT UNKNOWN-PROC UNKNOWN UNKNOWN
0 0 DIMENSION RESULT ALWAYS_EXPLICIT) (LOGICAL 4 0 0 0 LOGICAL ()) 0 0 ()
(3 0 EXPLICIT (CONSTANT (INTEGER 4 0 0 0 INTEGER ()) 0 '1') (FUNCTION (
INTEGER 4 0 0 0 INTEGER ()) 0 48 (('' (VARIABLE (REAL 8 0 0 0 REAL ()) 3
47 ((ARRAY (FULL 3 2 2 2))))) ('' (CONSTANT (INTEGER 4 0 0 0 INTEGER ())
0 '1')) ('' ())) '' 0 'size') (CONSTANT (INTEGER 4 0 0 0 INTEGER ()) 0 '1')
(FUNCTION (INTEGER 4 0 0 0 INTEGER ()) 0 48 (('' (VARIABLE (REAL 8 0 0 0
REAL ()) 3 47 ((ARRAY (FULL 3 2 2 2))))) ('' (CONSTANT (INTEGER 4 0 0 0
INTEGER ()) 0 '2')) ('' ())) '' 0 'size') (CONSTANT (INTEGER 4 0 0 0
INTEGER ()) 0 '1') (FUNCTION (INTEGER 4 0 0 0 INTEGER ()) 0 48 (('' (
VARIABLE (REAL 8 0 0 0 REAL ()) 3 47 ((ARRAY (FULL 3 2 2 2))))) ('' (
CONSTANT (INTEGER 4 0 0 0 INTEGER ()) 0 '3')) ('' ())) '' 0 'size')) 0 ()
() () 0 0)
51 'x' '' '' 50 ((VARIABLE IN UNKNOWN-PROC UNKNOWN UNKNOWN 0 0 DIMENSION
DUMMY) (REAL 8 0 0 0 REAL ()) 0 0 () (2 0 ASSUMED_SHAPE (CONSTANT (
INTEGER 4 0 0 0 INTEGER ()) 0 '1') () (CONSTANT (INTEGER 4 0 0 0 INTEGER
()) 0 '1') ()) 0 () () () 0 0)
52 'size' '(intrinsic)' '' 50 ((PROCEDURE UNKNOWN-INTENT UNKNOWN-PROC
UNKNOWN UNKNOWN 0 0 FUNCTION) (UNKNOWN 0 0 0 0 UNKNOWN ()) 0 0 () () 52
() () () 0 0)
53 'res' '' '' 50 ((VARIABLE UNKNOWN-INTENT UNKNOWN-PROC UNKNOWN UNKNOWN
0 0 DIMENSION RESULT ALWAYS_EXPLICIT) (LOGICAL 4 0 0 0 LOGICAL ()) 0 0 ()
(2 0 EXPLICIT (CONSTANT (INTEGER 4 0 0 0 INTEGER ()) 0 '1') (FUNCTION (
INTEGER 4 0 0 0 INTEGER ()) 0 52 (('' (VARIABLE (REAL 8 0 0 0 REAL ()) 2
51 ((ARRAY (FULL 2 2 2))))) ('' (CONSTANT (INTEGER 4 0 0 0 INTEGER ()) 0
'1')) ('' ())) '' 0 'size') (CONSTANT (INTEGER 4 0 0 0 INTEGER ()) 0 '1')
(FUNCTION (INTEGER 4 0 0 0 INTEGER ()) 0 52 (('' (VARIABLE (REAL 8 0 0 0
REAL ()) 2 51 ((ARRAY (FULL 2 2 2))))) ('' (CONSTANT (INTEGER 4 0 0 0
INTEGER ()) 0 '2')) ('' ())) '' 0 'size')) 0 () () () 0 0)
55 'x' '' '' 54 ((VARIABLE IN UNKNOWN-PROC UNKNOWN UNKNOWN 0 0 DIMENSION
DUMMY) (REAL 8 0 0 0 REAL ()) 0 0 () (1 0 ASSUMED_SHAPE (CONSTANT (
INTEGER 4 0 0 0 INTEGER ()) 0 '1') ()) 0 () () () 0 0)
56 'size' '(intrinsic)' '' 54 ((PROCEDURE UNKNOWN-INTENT UNKNOWN-PROC
UNKNOWN UNKNOWN 0 0 FUNCTION) (UNKNOWN 0 0 0 0 UNKNOWN ()) 0 0 () () 56
() () () 0 0)
57 'res' '' '' 54 ((VARIABLE UNKNOWN-INTENT UNKNOWN-PROC UNKNOWN UNKNOWN
0 0 DIMENSION RESULT ALWAYS_EXPLICIT) (LOGICAL 4 0 0 0 LOGICAL ()) 0 0 ()
(1 0 EXPLICIT (CONSTANT (INTEGER 4 0 0 0 INTEGER ()) 0 '1') (FUNCTION (
INTEGER 4 0 0 0 INTEGER ()) 0 56 (('' (VARIABLE (REAL 8 0 0 0 REAL ()) 1
55 ((ARRAY (FULL 1 2))))) ('' ()) ('' ())) '' 0 'size')) 0 () () () 0 0)
59 'x' '' '' 58 ((VARIABLE IN UNKNOWN-PROC UNKNOWN UNKNOWN 0 0 DUMMY) (
REAL 8 0 0 0 REAL ()) 0 0 () () 0 () () () 0 0)
60 'res' '' '' 58 ((VARIABLE UNKNOWN-INTENT UNKNOWN-PROC UNKNOWN UNKNOWN
0 0 RESULT) (LOGICAL 4 0 0 0 LOGICAL ()) 0 0 () () 0 () () () 0 0)
62 'x' '' '' 61 ((VARIABLE IN UNKNOWN-PROC UNKNOWN UNKNOWN 0 0 DIMENSION
DUMMY) (REAL 4 0 0 0 REAL ()) 0 0 () (7 0 ASSUMED_SHAPE (CONSTANT (
INTEGER 4 0 0 0 INTEGER ()) 0 '1') () (CONSTANT (INTEGER 4 0 0 0 INTEGER
()) 0 '1') () (CONSTANT (INTEGER 4 0 0 0 INTEGER ()) 0 '1') () (
CONSTANT (INTEGER 4 0 0 0 INTEGER ()) 0 '1') () (CONSTANT (INTEGER 4 0 0
0 INTEGER ()) 0 '1') () (CONSTANT (INTEGER 4 0 0 0 INTEGER ()) 0 '1') ()
(CONSTANT (INTEGER 4 0 0 0 INTEGER ()) 0 '1') ()) 0 () () () 0 0)
63 'size' '(intrinsic)' '' 61 ((PROCEDURE UNKNOWN-INTENT UNKNOWN-PROC
UNKNOWN UNKNOWN 0 0 FUNCTION) (UNKNOWN 0 0 0 0 UNKNOWN ()) 0 0 () () 63
() () () 0 0)
64 'res' '' '' 61 ((VARIABLE UNKNOWN-INTENT UNKNOWN-PROC UNKNOWN UNKNOWN
0 0 DIMENSION RESULT ALWAYS_EXPLICIT) (LOGICAL 4 0 0 0 LOGICAL ()) 0 0 ()
(7 0 EXPLICIT (CONSTANT (INTEGER 4 0 0 0 INTEGER ()) 0 '1') (FUNCTION (
INTEGER 4 0 0 0 INTEGER ()) 0 63 (('' (VARIABLE (REAL 4 0 0 0 REAL ()) 7
62 ((ARRAY (FULL 7 2 2 2 2 2 2 2))))) ('' (CONSTANT (INTEGER 4 0 0 0
INTEGER ()) 0 '1')) ('' ())) '' 0 'size') (CONSTANT (INTEGER 4 0 0 0
INTEGER ()) 0 '1') (FUNCTION (INTEGER 4 0 0 0 INTEGER ()) 0 63 (('' (
VARIABLE (REAL 4 0 0 0 REAL ()) 7 62 ((ARRAY (FULL 7 2 2 2 2 2 2 2)))))
('' (CONSTANT (INTEGER 4 0 0 0 INTEGER ()) 0 '2')) ('' ())) '' 0 'size')
(CONSTANT (INTEGER 4 0 0 0 INTEGER ()) 0 '1') (FUNCTION (INTEGER 4 0 0 0
INTEGER ()) 0 63 (('' (VARIABLE (REAL 4 0 0 0 REAL ()) 7 62 ((ARRAY (
FULL 7 2 2 2 2 2 2 2))))) ('' (CONSTANT (INTEGER 4 0 0 0 INTEGER ()) 0 '3'))
('' ())) '' 0 'size') (CONSTANT (INTEGER 4 0 0 0 INTEGER ()) 0 '1') (
FUNCTION (INTEGER 4 0 0 0 INTEGER ()) 0 63 (('' (VARIABLE (REAL 4 0 0 0
REAL ()) 7 62 ((ARRAY (FULL 7 2 2 2 2 2 2 2))))) ('' (CONSTANT (INTEGER
4 0 0 0 INTEGER ()) 0 '4')) ('' ())) '' 0 'size') (CONSTANT (INTEGER 4 0
0 0 INTEGER ()) 0 '1') (FUNCTION (INTEGER 4 0 0 0 INTEGER ()) 0 63 ((''
(VARIABLE (REAL 4 0 0 0 REAL ()) 7 62 ((ARRAY (FULL 7 2 2 2 2 2 2 2)))))
('' (CONSTANT (INTEGER 4 0 0 0 INTEGER ()) 0 '5')) ('' ())) '' 0 'size')
(CONSTANT (INTEGER 4 0 0 0 INTEGER ()) 0 '1') (FUNCTION (INTEGER 4 0 0 0
INTEGER ()) 0 63 (('' (VARIABLE (REAL 4 0 0 0 REAL ()) 7 62 ((ARRAY (
FULL 7 2 2 2 2 2 2 2))))) ('' (CONSTANT (INTEGER 4 0 0 0 INTEGER ()) 0 '6'))
('' ())) '' 0 'size') (CONSTANT (INTEGER 4 0 0 0 INTEGER ()) 0 '1') (
FUNCTION (INTEGER 4 0 0 0 INTEGER ()) 0 63 (('' (VARIABLE (REAL 4 0 0 0
REAL ()) 7 62 ((ARRAY (FULL 7 2 2 2 2 2 2 2))))) ('' (CONSTANT (INTEGER
4 0 0 0 INTEGER ()) 0 '7')) ('' ())) '' 0 'size')) 0 () () () 0 0)
66 'x' '' '' 65 ((VARIABLE IN UNKNOWN-PROC UNKNOWN UNKNOWN 0 0 DIMENSION
DUMMY) (REAL 4 0 0 0 REAL ()) 0 0 () (6 0 ASSUMED_SHAPE (CONSTANT (
INTEGER 4 0 0 0 INTEGER ()) 0 '1') () (CONSTANT (INTEGER 4 0 0 0 INTEGER
()) 0 '1') () (CONSTANT (INTEGER 4 0 0 0 INTEGER ()) 0 '1') () (
CONSTANT (INTEGER 4 0 0 0 INTEGER ()) 0 '1') () (CONSTANT (INTEGER 4 0 0
0 INTEGER ()) 0 '1') () (CONSTANT (INTEGER 4 0 0 0 INTEGER ()) 0 '1') ())
0 () () () 0 0)
67 'size' '(intrinsic)' '' 65 ((PROCEDURE UNKNOWN-INTENT UNKNOWN-PROC
UNKNOWN UNKNOWN 0 0 FUNCTION) (UNKNOWN 0 0 0 0 UNKNOWN ()) 0 0 () () 67
() () () 0 0)
68 'res' '' '' 65 ((VARIABLE UNKNOWN-INTENT UNKNOWN-PROC UNKNOWN UNKNOWN
0 0 DIMENSION RESULT ALWAYS_EXPLICIT) (LOGICAL 4 0 0 0 LOGICAL ()) 0 0 ()
(6 0 EXPLICIT (CONSTANT (INTEGER 4 0 0 0 INTEGER ()) 0 '1') (FUNCTION (
INTEGER 4 0 0 0 INTEGER ()) 0 67 (('' (VARIABLE (REAL 4 0 0 0 REAL ()) 6
66 ((ARRAY (FULL 6 2 2 2 2 2 2))))) ('' (CONSTANT (INTEGER 4 0 0 0
INTEGER ()) 0 '1')) ('' ())) '' 0 'size') (CONSTANT (INTEGER 4 0 0 0
INTEGER ()) 0 '1') (FUNCTION (INTEGER 4 0 0 0 INTEGER ()) 0 67 (('' (
VARIABLE (REAL 4 0 0 0 REAL ()) 6 66 ((ARRAY (FULL 6 2 2 2 2 2 2))))) (''
(CONSTANT (INTEGER 4 0 0 0 INTEGER ()) 0 '2')) ('' ())) '' 0 'size') (
CONSTANT (INTEGER 4 0 0 0 INTEGER ()) 0 '1') (FUNCTION (INTEGER 4 0 0 0
INTEGER ()) 0 67 (('' (VARIABLE (REAL 4 0 0 0 REAL ()) 6 66 ((ARRAY (
FULL 6 2 2 2 2 2 2))))) ('' (CONSTANT (INTEGER 4 0 0 0 INTEGER ()) 0 '3'))
('' ())) '' 0 'size') (CONSTANT (INTEGER 4 0 0 0 INTEGER ()) 0 '1') (
FUNCTION (INTEGER 4 0 0 0 INTEGER ()) 0 67 (('' (VARIABLE (REAL 4 0 0 0
REAL ()) 6 66 ((ARRAY (FULL 6 2 2 2 2 2 2))))) ('' (CONSTANT (INTEGER 4
0 0 0 INTEGER ()) 0 '4')) ('' ())) '' 0 'size') (CONSTANT (INTEGER 4 0 0
0 INTEGER ()) 0 '1') (FUNCTION (INTEGER 4 0 0 0 INTEGER ()) 0 67 (('' (
VARIABLE (REAL 4 0 0 0 REAL ()) 6 66 ((ARRAY (FULL 6 2 2 2 2 2 2))))) (''
(CONSTANT (INTEGER 4 0 0 0 INTEGER ()) 0 '5')) ('' ())) '' 0 'size') (
CONSTANT (INTEGER 4 0 0 0 INTEGER ()) 0 '1') (FUNCTION (INTEGER 4 0 0 0
INTEGER ()) 0 67 (('' (VARIABLE (REAL 4 0 0 0 REAL ()) 6 66 ((ARRAY (
FULL 6 2 2 2 2 2 2))))) ('' (CONSTANT (INTEGER 4 0 0 0 INTEGER ()) 0 '6'))
('' ())) '' 0 'size')) 0 () () () 0 0)
70 'x' '' '' 69 ((VARIABLE IN UNKNOWN-PROC UNKNOWN UNKNOWN 0 0 DIMENSION
DUMMY) (REAL 4 0 0 0 REAL ()) 0 0 () (5 0 ASSUMED_SHAPE (CONSTANT (
INTEGER 4 0 0 0 INTEGER ()) 0 '1') () (CONSTANT (INTEGER 4 0 0 0 INTEGER
()) 0 '1') () (CONSTANT (INTEGER 4 0 0 0 INTEGER ()) 0 '1') () (
CONSTANT (INTEGER 4 0 0 0 INTEGER ()) 0 '1') () (CONSTANT (INTEGER 4 0 0
0 INTEGER ()) 0 '1') ()) 0 () () () 0 0)
71 'size' '(intrinsic)' '' 69 ((PROCEDURE UNKNOWN-INTENT UNKNOWN-PROC
UNKNOWN UNKNOWN 0 0 FUNCTION) (UNKNOWN 0 0 0 0 UNKNOWN ()) 0 0 () () 71
() () () 0 0)
72 'res' '' '' 69 ((VARIABLE UNKNOWN-INTENT UNKNOWN-PROC UNKNOWN UNKNOWN
0 0 DIMENSION RESULT ALWAYS_EXPLICIT) (LOGICAL 4 0 0 0 LOGICAL ()) 0 0 ()
(5 0 EXPLICIT (CONSTANT (INTEGER 4 0 0 0 INTEGER ()) 0 '1') (FUNCTION (
INTEGER 4 0 0 0 INTEGER ()) 0 71 (('' (VARIABLE (REAL 4 0 0 0 REAL ()) 5
70 ((ARRAY (FULL 5 2 2 2 2 2))))) ('' (CONSTANT (INTEGER 4 0 0 0 INTEGER
()) 0 '1')) ('' ())) '' 0 'size') (CONSTANT (INTEGER 4 0 0 0 INTEGER ())
0 '1') (FUNCTION (INTEGER 4 0 0 0 INTEGER ()) 0 71 (('' (VARIABLE (REAL
4 0 0 0 REAL ()) 5 70 ((ARRAY (FULL 5 2 2 2 2 2))))) ('' (CONSTANT (
INTEGER 4 0 0 0 INTEGER ()) 0 '2')) ('' ())) '' 0 'size') (CONSTANT (
INTEGER 4 0 0 0 INTEGER ()) 0 '1') (FUNCTION (INTEGER 4 0 0 0 INTEGER ())
0 71 (('' (VARIABLE (REAL 4 0 0 0 REAL ()) 5 70 ((ARRAY (FULL 5 2 2 2 2
2))))) ('' (CONSTANT (INTEGER 4 0 0 0 INTEGER ()) 0 '3')) ('' ())) '' 0
'size') (CONSTANT (INTEGER 4 0 0 0 INTEGER ()) 0 '1') (FUNCTION (
INTEGER 4 0 0 0 INTEGER ()) 0 71 (('' (VARIABLE (REAL 4 0 0 0 REAL ()) 5
70 ((ARRAY (FULL 5 2 2 2 2 2))))) ('' (CONSTANT (INTEGER 4 0 0 0 INTEGER
()) 0 '4')) ('' ())) '' 0 'size') (CONSTANT (INTEGER 4 0 0 0 INTEGER ())
0 '1') (FUNCTION (INTEGER 4 0 0 0 INTEGER ()) 0 71 (('' (VARIABLE (REAL
4 0 0 0 REAL ()) 5 70 ((ARRAY (FULL 5 2 2 2 2 2))))) ('' (CONSTANT (
INTEGER 4 0 0 0 INTEGER ()) 0 '5')) ('' ())) '' 0 'size')) 0 () () () 0
0)
74 'x' '' '' 73 ((VARIABLE IN UNKNOWN-PROC UNKNOWN UNKNOWN 0 0 DIMENSION
DUMMY) (REAL 4 0 0 0 REAL ()) 0 0 () (4 0 ASSUMED_SHAPE (CONSTANT (
INTEGER 4 0 0 0 INTEGER ()) 0 '1') () (CONSTANT (INTEGER 4 0 0 0 INTEGER
()) 0 '1') () (CONSTANT (INTEGER 4 0 0 0 INTEGER ()) 0 '1') () (
CONSTANT (INTEGER 4 0 0 0 INTEGER ()) 0 '1') ()) 0 () () () 0 0)
75 'size' '(intrinsic)' '' 73 ((PROCEDURE UNKNOWN-INTENT UNKNOWN-PROC
UNKNOWN UNKNOWN 0 0 FUNCTION) (UNKNOWN 0 0 0 0 UNKNOWN ()) 0 0 () () 75
() () () 0 0)
76 'res' '' '' 73 ((VARIABLE UNKNOWN-INTENT UNKNOWN-PROC UNKNOWN UNKNOWN
0 0 DIMENSION RESULT ALWAYS_EXPLICIT) (LOGICAL 4 0 0 0 LOGICAL ()) 0 0 ()
(4 0 EXPLICIT (CONSTANT (INTEGER 4 0 0 0 INTEGER ()) 0 '1') (FUNCTION (
INTEGER 4 0 0 0 INTEGER ()) 0 75 (('' (VARIABLE (REAL 4 0 0 0 REAL ()) 4
74 ((ARRAY (FULL 4 2 2 2 2))))) ('' (CONSTANT (INTEGER 4 0 0 0 INTEGER ())
0 '1')) ('' ())) '' 0 'size') (CONSTANT (INTEGER 4 0 0 0 INTEGER ()) 0 '1')
(FUNCTION (INTEGER 4 0 0 0 INTEGER ()) 0 75 (('' (VARIABLE (REAL 4 0 0 0
REAL ()) 4 74 ((ARRAY (FULL 4 2 2 2 2))))) ('' (CONSTANT (INTEGER 4 0 0
0 INTEGER ()) 0 '2')) ('' ())) '' 0 'size') (CONSTANT (INTEGER 4 0 0 0
INTEGER ()) 0 '1') (FUNCTION (INTEGER 4 0 0 0 INTEGER ()) 0 75 (('' (
VARIABLE (REAL 4 0 0 0 REAL ()) 4 74 ((ARRAY (FULL 4 2 2 2 2))))) ('' (
CONSTANT (INTEGER 4 0 0 0 INTEGER ()) 0 '3')) ('' ())) '' 0 'size') (
CONSTANT (INTEGER 4 0 0 0 INTEGER ()) 0 '1') (FUNCTION (INTEGER 4 0 0 0
INTEGER ()) 0 75 (('' (VARIABLE (REAL 4 0 0 0 REAL ()) 4 74 ((ARRAY (
FULL 4 2 2 2 2))))) ('' (CONSTANT (INTEGER 4 0 0 0 INTEGER ()) 0 '4')) (
'' ())) '' 0 'size')) 0 () () () 0 0)
78 'x' '' '' 77 ((VARIABLE IN UNKNOWN-PROC UNKNOWN UNKNOWN 0 0 DIMENSION
DUMMY) (REAL 4 0 0 0 REAL ()) 0 0 () (3 0 ASSUMED_SHAPE (CONSTANT (
INTEGER 4 0 0 0 INTEGER ()) 0 '1') () (CONSTANT (INTEGER 4 0 0 0 INTEGER
()) 0 '1') () (CONSTANT (INTEGER 4 0 0 0 INTEGER ()) 0 '1') ()) 0 () ()
() 0 0)
79 'size' '(intrinsic)' '' 77 ((PROCEDURE UNKNOWN-INTENT UNKNOWN-PROC
UNKNOWN UNKNOWN 0 0 FUNCTION) (UNKNOWN 0 0 0 0 UNKNOWN ()) 0 0 () () 79
() () () 0 0)
80 'res' '' '' 77 ((VARIABLE UNKNOWN-INTENT UNKNOWN-PROC UNKNOWN UNKNOWN
0 0 DIMENSION RESULT ALWAYS_EXPLICIT) (LOGICAL 4 0 0 0 LOGICAL ()) 0 0 ()
(3 0 EXPLICIT (CONSTANT (INTEGER 4 0 0 0 INTEGER ()) 0 '1') (FUNCTION (
INTEGER 4 0 0 0 INTEGER ()) 0 79 (('' (VARIABLE (REAL 4 0 0 0 REAL ()) 3
78 ((ARRAY (FULL 3 2 2 2))))) ('' (CONSTANT (INTEGER 4 0 0 0 INTEGER ())
0 '1')) ('' ())) '' 0 'size') (CONSTANT (INTEGER 4 0 0 0 INTEGER ()) 0 '1')
(FUNCTION (INTEGER 4 0 0 0 INTEGER ()) 0 79 (('' (VARIABLE (REAL 4 0 0 0
REAL ()) 3 78 ((ARRAY (FULL 3 2 2 2))))) ('' (CONSTANT (INTEGER 4 0 0 0
INTEGER ()) 0 '2')) ('' ())) '' 0 'size') (CONSTANT (INTEGER 4 0 0 0
INTEGER ()) 0 '1') (FUNCTION (INTEGER 4 0 0 0 INTEGER ()) 0 79 (('' (
VARIABLE (REAL 4 0 0 0 REAL ()) 3 78 ((ARRAY (FULL 3 2 2 2))))) ('' (
CONSTANT (INTEGER 4 0 0 0 INTEGER ()) 0 '3')) ('' ())) '' 0 'size')) 0 ()
() () 0 0)
82 'x' '' '' 81 ((VARIABLE IN UNKNOWN-PROC UNKNOWN UNKNOWN 0 0 DIMENSION
DUMMY) (REAL 4 0 0 0 REAL ()) 0 0 () (2 0 ASSUMED_SHAPE (CONSTANT (
INTEGER 4 0 0 0 INTEGER ()) 0 '1') () (CONSTANT (INTEGER 4 0 0 0 INTEGER
()) 0 '1') ()) 0 () () () 0 0)
83 'size' '(intrinsic)' '' 81 ((PROCEDURE UNKNOWN-INTENT UNKNOWN-PROC
UNKNOWN UNKNOWN 0 0 FUNCTION) (UNKNOWN 0 0 0 0 UNKNOWN ()) 0 0 () () 83
() () () 0 0)
84 'res' '' '' 81 ((VARIABLE UNKNOWN-INTENT UNKNOWN-PROC UNKNOWN UNKNOWN
0 0 DIMENSION RESULT ALWAYS_EXPLICIT) (LOGICAL 4 0 0 0 LOGICAL ()) 0 0 ()
(2 0 EXPLICIT (CONSTANT (INTEGER 4 0 0 0 INTEGER ()) 0 '1') (FUNCTION (
INTEGER 4 0 0 0 INTEGER ()) 0 83 (('' (VARIABLE (REAL 4 0 0 0 REAL ()) 2
82 ((ARRAY (FULL 2 2 2))))) ('' (CONSTANT (INTEGER 4 0 0 0 INTEGER ()) 0
'1')) ('' ())) '' 0 'size') (CONSTANT (INTEGER 4 0 0 0 INTEGER ()) 0 '1')
(FUNCTION (INTEGER 4 0 0 0 INTEGER ()) 0 83 (('' (VARIABLE (REAL 4 0 0 0
REAL ()) 2 82 ((ARRAY (FULL 2 2 2))))) ('' (CONSTANT (INTEGER 4 0 0 0
INTEGER ()) 0 '2')) ('' ())) '' 0 'size')) 0 () () () 0 0)
86 'x' '' '' 85 ((VARIABLE IN UNKNOWN-PROC UNKNOWN UNKNOWN 0 0 DIMENSION
DUMMY) (REAL 4 0 0 0 REAL ()) 0 0 () (1 0 ASSUMED_SHAPE (CONSTANT (
INTEGER 4 0 0 0 INTEGER ()) 0 '1') ()) 0 () () () 0 0)
87 'size' '(intrinsic)' '' 85 ((PROCEDURE UNKNOWN-INTENT UNKNOWN-PROC
UNKNOWN UNKNOWN 0 0 FUNCTION) (UNKNOWN 0 0 0 0 UNKNOWN ()) 0 0 () () 87
() () () 0 0)
88 'res' '' '' 85 ((VARIABLE UNKNOWN-INTENT UNKNOWN-PROC UNKNOWN UNKNOWN
0 0 DIMENSION RESULT ALWAYS_EXPLICIT) (LOGICAL 4 0 0 0 LOGICAL ()) 0 0 ()
(1 0 EXPLICIT (CONSTANT (INTEGER 4 0 0 0 INTEGER ()) 0 '1') (FUNCTION (
INTEGER 4 0 0 0 INTEGER ()) 0 87 (('' (VARIABLE (REAL 4 0 0 0 REAL ()) 1
86 ((ARRAY (FULL 1 2))))) ('' ()) ('' ())) '' 0 'size')) 0 () () () 0 0)
90 'x' '' '' 89 ((VARIABLE IN UNKNOWN-PROC UNKNOWN UNKNOWN 0 0 DUMMY) (
REAL 4 0 0 0 REAL ()) 0 0 () () 0 () () () 0 0)
91 'res' '' '' 89 ((VARIABLE UNKNOWN-INTENT UNKNOWN-PROC UNKNOWN UNKNOWN
0 0 RESULT) (LOGICAL 4 0 0 0 LOGICAL ()) 0 0 () () 0 () () () 0 0)
93 'd' '' '' 92 ((VARIABLE IN UNKNOWN-PROC UNKNOWN UNKNOWN 0 0 DUMMY) (
REAL 8 0 0 0 REAL ()) 0 0 () () 0 () () () 0 0)
94 'res' '' '' 92 ((VARIABLE UNKNOWN-INTENT UNKNOWN-PROC UNKNOWN UNKNOWN
0 0 RESULT ALWAYS_EXPLICIT) (LOGICAL 4 0 0 0 LOGICAL ()) 0 0 () () 0 ()
() () 0 0)
96 'x' '' '' 95 ((VARIABLE IN UNKNOWN-PROC UNKNOWN UNKNOWN 0 0 DUMMY) (
REAL 4 0 0 0 REAL ()) 0 0 () () 0 () () () 0 0)
97 'res' '' '' 95 ((VARIABLE UNKNOWN-INTENT UNKNOWN-PROC UNKNOWN UNKNOWN
0 0 RESULT ALWAYS_EXPLICIT) (LOGICAL 4 0 0 0 LOGICAL ()) 0 0 () () 0 ()
() () 0 0)
99 'd' '' '' 98 ((VARIABLE IN UNKNOWN-PROC UNKNOWN UNKNOWN 0 0 DUMMY) (
REAL 8 0 0 0 REAL ()) 0 0 () () 0 () () () 0 0)
100 'res' '' '' 98 ((VARIABLE UNKNOWN-INTENT UNKNOWN-PROC UNKNOWN
UNKNOWN 0 0 RESULT ALWAYS_EXPLICIT) (LOGICAL 4 0 0 0 LOGICAL ()) 0 0 ()
() 0 () () () 0 0)
102 'x' '' '' 101 ((VARIABLE IN UNKNOWN-PROC UNKNOWN UNKNOWN 0 0 DUMMY)
(REAL 4 0 0 0 REAL ()) 0 0 () () 0 () () () 0 0)
103 'res' '' '' 101 ((VARIABLE UNKNOWN-INTENT UNKNOWN-PROC UNKNOWN
UNKNOWN 0 0 RESULT ALWAYS_EXPLICIT) (LOGICAL 4 0 0 0 LOGICAL ()) 0 0 ()
() 0 () () () 0 0)
)

()
