GFORTRAN module version '10' created from /Users/f9y/mygit/clm4_coupled/models/utils/pio/pio_spmd_utils.F90
MD5:e9044ebabc07ff0cccc7282935d1275a -- If you edit this, you'll get what you deserve.

(() () () () () () () () () () () () () () () () () () () () () () ()
() () () ())

()

(('pio_swapm' 'pio_spmd_utils' 2 3 4))

()

()

()

(2 'pio_swapm_double' 'pio_spmd_utils' '' 1 ((PROCEDURE UNKNOWN-INTENT
MODULE-PROC DECL UNKNOWN 0 0 SUBROUTINE IMPLICIT_PURE) (UNKNOWN 0 0 0 0
UNKNOWN ()) 5 0 (6 7 8 9 10 11 12 13 14 15 16 17 18 19 20 21) () 0 () ()
() 0 0)
3 'pio_swapm_real' 'pio_spmd_utils' '' 1 ((PROCEDURE UNKNOWN-INTENT
MODULE-PROC DECL UNKNOWN 0 0 SUBROUTINE IMPLICIT_PURE) (UNKNOWN 0 0 0 0
UNKNOWN ()) 22 0 (23 24 25 26 27 28 29 30 31 32 33 34 35 36 37 38) () 0
() () () 0 0)
4 'pio_swapm_int' 'pio_spmd_utils' '' 1 ((PROCEDURE UNKNOWN-INTENT
MODULE-PROC DECL UNKNOWN 0 0 SUBROUTINE IMPLICIT_PURE) (UNKNOWN 0 0 0 0
UNKNOWN ()) 39 0 (40 41 42 43 44 45 46 47 48 49 50 51 52 53 54 55) () 0
() () () 0 0)
6 'nprocs' '' '' 5 ((VARIABLE IN UNKNOWN-PROC UNKNOWN UNKNOWN 0 0 DUMMY)
(INTEGER 4 0 0 0 INTEGER ()) 0 0 () () 0 () () () 0 0)
7 'mytask' '' '' 5 ((VARIABLE IN UNKNOWN-PROC UNKNOWN UNKNOWN 0 0 DUMMY)
(INTEGER 4 0 0 0 INTEGER ()) 0 0 () () 0 () () () 0 0)
8 'sndbuf' '' '' 5 ((VARIABLE IN UNKNOWN-PROC UNKNOWN UNKNOWN 0 0
DIMENSION DUMMY) (REAL 8 0 0 0 REAL ()) 0 0 () (1 0 EXPLICIT (CONSTANT (
INTEGER 4 0 0 0 INTEGER ()) 0 '1') (VARIABLE (INTEGER 4 0 0 0 INTEGER ())
0 9 ())) 0 () () () 0 0)
9 'sbuf_siz' '' '' 5 ((VARIABLE IN UNKNOWN-PROC UNKNOWN UNKNOWN 0 0
DUMMY) (INTEGER 4 0 0 0 INTEGER ()) 0 0 () () 0 () () () 0 0)
10 'sndlths' '' '' 5 ((VARIABLE IN UNKNOWN-PROC UNKNOWN UNKNOWN 0 0
DIMENSION DUMMY) (INTEGER 4 0 0 0 INTEGER ()) 0 0 () (1 0 EXPLICIT (
CONSTANT (INTEGER 4 0 0 0 INTEGER ()) 0 '0') (OP (INTEGER 4 0 0 0
INTEGER ()) 0 MINUS (VARIABLE (INTEGER 4 0 0 0 INTEGER ()) 0 6 ()) (
CONSTANT (INTEGER 4 0 0 0 INTEGER ()) 0 '1'))) 0 () () () 0 0)
11 'sdispls' '' '' 5 ((VARIABLE IN UNKNOWN-PROC UNKNOWN UNKNOWN 0 0
DIMENSION DUMMY) (INTEGER 4 0 0 0 INTEGER ()) 0 0 () (1 0 EXPLICIT (
CONSTANT (INTEGER 4 0 0 0 INTEGER ()) 0 '0') (OP (INTEGER 4 0 0 0
INTEGER ()) 0 MINUS (VARIABLE (INTEGER 4 0 0 0 INTEGER ()) 0 6 ()) (
CONSTANT (INTEGER 4 0 0 0 INTEGER ()) 0 '1'))) 0 () () () 0 0)
12 'stypes' '' '' 5 ((VARIABLE IN UNKNOWN-PROC UNKNOWN UNKNOWN 0 0
DIMENSION DUMMY) (INTEGER 4 0 0 0 INTEGER ()) 0 0 () (1 0 EXPLICIT (
CONSTANT (INTEGER 4 0 0 0 INTEGER ()) 0 '0') (OP (INTEGER 4 0 0 0
INTEGER ()) 0 MINUS (VARIABLE (INTEGER 4 0 0 0 INTEGER ()) 0 6 ()) (
CONSTANT (INTEGER 4 0 0 0 INTEGER ()) 0 '1'))) 0 () () () 0 0)
13 'rcvbuf' '' '' 5 ((VARIABLE OUT UNKNOWN-PROC UNKNOWN UNKNOWN 0 0
DIMENSION DUMMY) (REAL 8 0 0 0 REAL ()) 0 0 () (1 0 EXPLICIT (CONSTANT (
INTEGER 4 0 0 0 INTEGER ()) 0 '1') (VARIABLE (INTEGER 4 0 0 0 INTEGER ())
0 14 ())) 0 () () () 0 0)
14 'rbuf_siz' '' '' 5 ((VARIABLE IN UNKNOWN-PROC UNKNOWN UNKNOWN 0 0
DUMMY) (INTEGER 4 0 0 0 INTEGER ()) 0 0 () () 0 () () () 0 0)
15 'rcvlths' '' '' 5 ((VARIABLE IN UNKNOWN-PROC UNKNOWN UNKNOWN 0 0
DIMENSION DUMMY) (INTEGER 4 0 0 0 INTEGER ()) 0 0 () (1 0 EXPLICIT (
CONSTANT (INTEGER 4 0 0 0 INTEGER ()) 0 '0') (OP (INTEGER 4 0 0 0
INTEGER ()) 0 MINUS (VARIABLE (INTEGER 4 0 0 0 INTEGER ()) 0 6 ()) (
CONSTANT (INTEGER 4 0 0 0 INTEGER ()) 0 '1'))) 0 () () () 0 0)
16 'rdispls' '' '' 5 ((VARIABLE IN UNKNOWN-PROC UNKNOWN UNKNOWN 0 0
DIMENSION DUMMY) (INTEGER 4 0 0 0 INTEGER ()) 0 0 () (1 0 EXPLICIT (
CONSTANT (INTEGER 4 0 0 0 INTEGER ()) 0 '0') (OP (INTEGER 4 0 0 0
INTEGER ()) 0 MINUS (VARIABLE (INTEGER 4 0 0 0 INTEGER ()) 0 6 ()) (
CONSTANT (INTEGER 4 0 0 0 INTEGER ()) 0 '1'))) 0 () () () 0 0)
17 'rtypes' '' '' 5 ((VARIABLE IN UNKNOWN-PROC UNKNOWN UNKNOWN 0 0
DIMENSION DUMMY) (INTEGER 4 0 0 0 INTEGER ()) 0 0 () (1 0 EXPLICIT (
CONSTANT (INTEGER 4 0 0 0 INTEGER ()) 0 '0') (OP (INTEGER 4 0 0 0
INTEGER ()) 0 MINUS (VARIABLE (INTEGER 4 0 0 0 INTEGER ()) 0 6 ()) (
CONSTANT (INTEGER 4 0 0 0 INTEGER ()) 0 '1'))) 0 () () () 0 0)
18 'comm' '' '' 5 ((VARIABLE IN UNKNOWN-PROC UNKNOWN UNKNOWN 0 0 DUMMY)
(INTEGER 4 0 0 0 INTEGER ()) 0 0 () () 0 () () () 0 0)
19 'comm_hs' '' '' 5 ((VARIABLE IN UNKNOWN-PROC UNKNOWN UNKNOWN 0 0
DUMMY) (LOGICAL 4 0 0 0 LOGICAL ()) 0 0 () () 0 () () () 0 0)
20 'comm_isend' '' '' 5 ((VARIABLE IN UNKNOWN-PROC UNKNOWN UNKNOWN 0 0
DUMMY) (LOGICAL 4 0 0 0 LOGICAL ()) 0 0 () () 0 () () () 0 0)
21 'comm_maxreq' '' '' 5 ((VARIABLE IN UNKNOWN-PROC UNKNOWN UNKNOWN 0 0
DUMMY) (INTEGER 4 0 0 0 INTEGER ()) 0 0 () () 0 () () () 0 0)
23 'nprocs' '' '' 22 ((VARIABLE IN UNKNOWN-PROC UNKNOWN UNKNOWN 0 0
DUMMY) (INTEGER 4 0 0 0 INTEGER ()) 0 0 () () 0 () () () 0 0)
24 'mytask' '' '' 22 ((VARIABLE IN UNKNOWN-PROC UNKNOWN UNKNOWN 0 0
DUMMY) (INTEGER 4 0 0 0 INTEGER ()) 0 0 () () 0 () () () 0 0)
25 'sndbuf' '' '' 22 ((VARIABLE IN UNKNOWN-PROC UNKNOWN UNKNOWN 0 0
DIMENSION DUMMY) (REAL 4 0 0 0 REAL ()) 0 0 () (1 0 EXPLICIT (CONSTANT (
INTEGER 4 0 0 0 INTEGER ()) 0 '1') (VARIABLE (INTEGER 4 0 0 0 INTEGER ())
0 26 ())) 0 () () () 0 0)
26 'sbuf_siz' '' '' 22 ((VARIABLE IN UNKNOWN-PROC UNKNOWN UNKNOWN 0 0
DUMMY) (INTEGER 4 0 0 0 INTEGER ()) 0 0 () () 0 () () () 0 0)
27 'sndlths' '' '' 22 ((VARIABLE IN UNKNOWN-PROC UNKNOWN UNKNOWN 0 0
DIMENSION DUMMY) (INTEGER 4 0 0 0 INTEGER ()) 0 0 () (1 0 EXPLICIT (
CONSTANT (INTEGER 4 0 0 0 INTEGER ()) 0 '0') (OP (INTEGER 4 0 0 0
INTEGER ()) 0 MINUS (VARIABLE (INTEGER 4 0 0 0 INTEGER ()) 0 23 ()) (
CONSTANT (INTEGER 4 0 0 0 INTEGER ()) 0 '1'))) 0 () () () 0 0)
28 'sdispls' '' '' 22 ((VARIABLE IN UNKNOWN-PROC UNKNOWN UNKNOWN 0 0
DIMENSION DUMMY) (INTEGER 4 0 0 0 INTEGER ()) 0 0 () (1 0 EXPLICIT (
CONSTANT (INTEGER 4 0 0 0 INTEGER ()) 0 '0') (OP (INTEGER 4 0 0 0
INTEGER ()) 0 MINUS (VARIABLE (INTEGER 4 0 0 0 INTEGER ()) 0 23 ()) (
CONSTANT (INTEGER 4 0 0 0 INTEGER ()) 0 '1'))) 0 () () () 0 0)
29 'stypes' '' '' 22 ((VARIABLE IN UNKNOWN-PROC UNKNOWN UNKNOWN 0 0
DIMENSION DUMMY) (INTEGER 4 0 0 0 INTEGER ()) 0 0 () (1 0 EXPLICIT (
CONSTANT (INTEGER 4 0 0 0 INTEGER ()) 0 '0') (OP (INTEGER 4 0 0 0
INTEGER ()) 0 MINUS (VARIABLE (INTEGER 4 0 0 0 INTEGER ()) 0 23 ()) (
CONSTANT (INTEGER 4 0 0 0 INTEGER ()) 0 '1'))) 0 () () () 0 0)
30 'rcvbuf' '' '' 22 ((VARIABLE OUT UNKNOWN-PROC UNKNOWN UNKNOWN 0 0
DIMENSION DUMMY) (REAL 4 0 0 0 REAL ()) 0 0 () (1 0 EXPLICIT (CONSTANT (
INTEGER 4 0 0 0 INTEGER ()) 0 '1') (VARIABLE (INTEGER 4 0 0 0 INTEGER ())
0 31 ())) 0 () () () 0 0)
31 'rbuf_siz' '' '' 22 ((VARIABLE IN UNKNOWN-PROC UNKNOWN UNKNOWN 0 0
DUMMY) (INTEGER 4 0 0 0 INTEGER ()) 0 0 () () 0 () () () 0 0)
32 'rcvlths' '' '' 22 ((VARIABLE IN UNKNOWN-PROC UNKNOWN UNKNOWN 0 0
DIMENSION DUMMY) (INTEGER 4 0 0 0 INTEGER ()) 0 0 () (1 0 EXPLICIT (
CONSTANT (INTEGER 4 0 0 0 INTEGER ()) 0 '0') (OP (INTEGER 4 0 0 0
INTEGER ()) 0 MINUS (VARIABLE (INTEGER 4 0 0 0 INTEGER ()) 0 23 ()) (
CONSTANT (INTEGER 4 0 0 0 INTEGER ()) 0 '1'))) 0 () () () 0 0)
33 'rdispls' '' '' 22 ((VARIABLE IN UNKNOWN-PROC UNKNOWN UNKNOWN 0 0
DIMENSION DUMMY) (INTEGER 4 0 0 0 INTEGER ()) 0 0 () (1 0 EXPLICIT (
CONSTANT (INTEGER 4 0 0 0 INTEGER ()) 0 '0') (OP (INTEGER 4 0 0 0
INTEGER ()) 0 MINUS (VARIABLE (INTEGER 4 0 0 0 INTEGER ()) 0 23 ()) (
CONSTANT (INTEGER 4 0 0 0 INTEGER ()) 0 '1'))) 0 () () () 0 0)
34 'rtypes' '' '' 22 ((VARIABLE IN UNKNOWN-PROC UNKNOWN UNKNOWN 0 0
DIMENSION DUMMY) (INTEGER 4 0 0 0 INTEGER ()) 0 0 () (1 0 EXPLICIT (
CONSTANT (INTEGER 4 0 0 0 INTEGER ()) 0 '0') (OP (INTEGER 4 0 0 0
INTEGER ()) 0 MINUS (VARIABLE (INTEGER 4 0 0 0 INTEGER ()) 0 23 ()) (
CONSTANT (INTEGER 4 0 0 0 INTEGER ()) 0 '1'))) 0 () () () 0 0)
35 'comm' '' '' 22 ((VARIABLE IN UNKNOWN-PROC UNKNOWN UNKNOWN 0 0 DUMMY)
(INTEGER 4 0 0 0 INTEGER ()) 0 0 () () 0 () () () 0 0)
36 'comm_hs' '' '' 22 ((VARIABLE IN UNKNOWN-PROC UNKNOWN UNKNOWN 0 0
DUMMY) (LOGICAL 4 0 0 0 LOGICAL ()) 0 0 () () 0 () () () 0 0)
37 'comm_isend' '' '' 22 ((VARIABLE IN UNKNOWN-PROC UNKNOWN UNKNOWN 0 0
DUMMY) (LOGICAL 4 0 0 0 LOGICAL ()) 0 0 () () 0 () () () 0 0)
38 'comm_maxreq' '' '' 22 ((VARIABLE IN UNKNOWN-PROC UNKNOWN UNKNOWN 0 0
DUMMY) (INTEGER 4 0 0 0 INTEGER ()) 0 0 () () 0 () () () 0 0)
40 'nprocs' '' '' 39 ((VARIABLE IN UNKNOWN-PROC UNKNOWN UNKNOWN 0 0
DUMMY) (INTEGER 4 0 0 0 INTEGER ()) 0 0 () () 0 () () () 0 0)
41 'mytask' '' '' 39 ((VARIABLE IN UNKNOWN-PROC UNKNOWN UNKNOWN 0 0
DUMMY) (INTEGER 4 0 0 0 INTEGER ()) 0 0 () () 0 () () () 0 0)
42 'sndbuf' '' '' 39 ((VARIABLE IN UNKNOWN-PROC UNKNOWN UNKNOWN 0 0
DIMENSION DUMMY) (INTEGER 4 0 0 0 INTEGER ()) 0 0 () (1 0 EXPLICIT (
CONSTANT (INTEGER 4 0 0 0 INTEGER ()) 0 '1') (VARIABLE (INTEGER 4 0 0 0
INTEGER ()) 0 43 ())) 0 () () () 0 0)
43 'sbuf_siz' '' '' 39 ((VARIABLE IN UNKNOWN-PROC UNKNOWN UNKNOWN 0 0
DUMMY) (INTEGER 4 0 0 0 INTEGER ()) 0 0 () () 0 () () () 0 0)
44 'sndlths' '' '' 39 ((VARIABLE IN UNKNOWN-PROC UNKNOWN UNKNOWN 0 0
DIMENSION DUMMY) (INTEGER 4 0 0 0 INTEGER ()) 0 0 () (1 0 EXPLICIT (
CONSTANT (INTEGER 4 0 0 0 INTEGER ()) 0 '0') (OP (INTEGER 4 0 0 0
INTEGER ()) 0 MINUS (VARIABLE (INTEGER 4 0 0 0 INTEGER ()) 0 40 ()) (
CONSTANT (INTEGER 4 0 0 0 INTEGER ()) 0 '1'))) 0 () () () 0 0)
45 'sdispls' '' '' 39 ((VARIABLE IN UNKNOWN-PROC UNKNOWN UNKNOWN 0 0
DIMENSION DUMMY) (INTEGER 4 0 0 0 INTEGER ()) 0 0 () (1 0 EXPLICIT (
CONSTANT (INTEGER 4 0 0 0 INTEGER ()) 0 '0') (OP (INTEGER 4 0 0 0
INTEGER ()) 0 MINUS (VARIABLE (INTEGER 4 0 0 0 INTEGER ()) 0 40 ()) (
CONSTANT (INTEGER 4 0 0 0 INTEGER ()) 0 '1'))) 0 () () () 0 0)
46 'stypes' '' '' 39 ((VARIABLE IN UNKNOWN-PROC UNKNOWN UNKNOWN 0 0
DIMENSION DUMMY) (INTEGER 4 0 0 0 INTEGER ()) 0 0 () (1 0 EXPLICIT (
CONSTANT (INTEGER 4 0 0 0 INTEGER ()) 0 '0') (OP (INTEGER 4 0 0 0
INTEGER ()) 0 MINUS (VARIABLE (INTEGER 4 0 0 0 INTEGER ()) 0 40 ()) (
CONSTANT (INTEGER 4 0 0 0 INTEGER ()) 0 '1'))) 0 () () () 0 0)
47 'rcvbuf' '' '' 39 ((VARIABLE OUT UNKNOWN-PROC UNKNOWN UNKNOWN 0 0
DIMENSION DUMMY) (INTEGER 4 0 0 0 INTEGER ()) 0 0 () (1 0 EXPLICIT (
CONSTANT (INTEGER 4 0 0 0 INTEGER ()) 0 '1') (VARIABLE (INTEGER 4 0 0 0
INTEGER ()) 0 48 ())) 0 () () () 0 0)
48 'rbuf_siz' '' '' 39 ((VARIABLE IN UNKNOWN-PROC UNKNOWN UNKNOWN 0 0
DUMMY) (INTEGER 4 0 0 0 INTEGER ()) 0 0 () () 0 () () () 0 0)
49 'rcvlths' '' '' 39 ((VARIABLE IN UNKNOWN-PROC UNKNOWN UNKNOWN 0 0
DIMENSION DUMMY) (INTEGER 4 0 0 0 INTEGER ()) 0 0 () (1 0 EXPLICIT (
CONSTANT (INTEGER 4 0 0 0 INTEGER ()) 0 '0') (OP (INTEGER 4 0 0 0
INTEGER ()) 0 MINUS (VARIABLE (INTEGER 4 0 0 0 INTEGER ()) 0 40 ()) (
CONSTANT (INTEGER 4 0 0 0 INTEGER ()) 0 '1'))) 0 () () () 0 0)
50 'rdispls' '' '' 39 ((VARIABLE IN UNKNOWN-PROC UNKNOWN UNKNOWN 0 0
DIMENSION DUMMY) (INTEGER 4 0 0 0 INTEGER ()) 0 0 () (1 0 EXPLICIT (
CONSTANT (INTEGER 4 0 0 0 INTEGER ()) 0 '0') (OP (INTEGER 4 0 0 0
INTEGER ()) 0 MINUS (VARIABLE (INTEGER 4 0 0 0 INTEGER ()) 0 40 ()) (
CONSTANT (INTEGER 4 0 0 0 INTEGER ()) 0 '1'))) 0 () () () 0 0)
51 'rtypes' '' '' 39 ((VARIABLE IN UNKNOWN-PROC UNKNOWN UNKNOWN 0 0
DIMENSION DUMMY) (INTEGER 4 0 0 0 INTEGER ()) 0 0 () (1 0 EXPLICIT (
CONSTANT (INTEGER 4 0 0 0 INTEGER ()) 0 '0') (OP (INTEGER 4 0 0 0
INTEGER ()) 0 MINUS (VARIABLE (INTEGER 4 0 0 0 INTEGER ()) 0 40 ()) (
CONSTANT (INTEGER 4 0 0 0 INTEGER ()) 0 '1'))) 0 () () () 0 0)
52 'comm' '' '' 39 ((VARIABLE IN UNKNOWN-PROC UNKNOWN UNKNOWN 0 0 DUMMY)
(INTEGER 4 0 0 0 INTEGER ()) 0 0 () () 0 () () () 0 0)
53 'comm_hs' '' '' 39 ((VARIABLE IN UNKNOWN-PROC UNKNOWN UNKNOWN 0 0
DUMMY) (LOGICAL 4 0 0 0 LOGICAL ()) 0 0 () () 0 () () () 0 0)
54 'comm_isend' '' '' 39 ((VARIABLE IN UNKNOWN-PROC UNKNOWN UNKNOWN 0 0
DUMMY) (LOGICAL 4 0 0 0 LOGICAL ()) 0 0 () () 0 () () () 0 0)
55 'comm_maxreq' '' '' 39 ((VARIABLE IN UNKNOWN-PROC UNKNOWN UNKNOWN 0 0
DUMMY) (INTEGER 4 0 0 0 INTEGER ()) 0 0 () () 0 () () () 0 0)
)

()
