GFORTRAN module version '10' created from /Users/f9y/mygit/clm4_coupled/models/utils/pio/pio_quicksort.F90
MD5:74672200736b6b3c41acccc56fb7e090 -- If you edit this, you'll get what you deserve.

(() () () () () () () () () () () () () () () () () () () () () () ()
() () () ())

()

()

()

()

()

(2 'quick_sort' 'pio_quicksort' '' 1 ((PROCEDURE UNKNOWN-INTENT
MODULE-PROC DECL UNKNOWN 0 0 SUBROUTINE RECURSIVE ALWAYS_EXPLICIT) (
UNKNOWN 0 0 0 0 UNKNOWN ()) 3 0 (4 5) () 0 () () () 0 0)
4 'list' '' '' 3 ((VARIABLE INOUT UNKNOWN-PROC UNKNOWN UNKNOWN 0 0
DIMENSION DUMMY) (INTEGER 4 0 0 0 INTEGER ()) 0 0 () (1 0 ASSUMED_SHAPE
(CONSTANT (INTEGER 4 0 0 0 INTEGER ()) 0 '1') ()) 0 () () () 0 0)
5 'order' '' '' 3 ((VARIABLE OUT UNKNOWN-PROC UNKNOWN UNKNOWN 0 0
DIMENSION DUMMY) (INTEGER 4 0 0 0 INTEGER ()) 0 0 () (1 0 ASSUMED_SHAPE
(CONSTANT (INTEGER 4 0 0 0 INTEGER ()) 0 '1') ()) 0 () () () 0 0)
)

('quick_sort' 0 2)
