GFORTRAN module version '10' created from /Users/f9y/mygit/clm4_coupled/models/utils/mct/mpeu/m_mpif.F90
MD5:ed9ade97eabf987ef3ecd7773d259ab4 -- If you edit this, you'll get what you deserve.

(() () () () () () () () () () () () () () () () () () () () () () () ()
() () ())

()

()

()

()

()

(2 'mpi_any_source' 'm_mpif' '' 1 ((PARAMETER UNKNOWN-INTENT
UNKNOWN-PROC UNKNOWN IMPLICIT-SAVE 0 0) (INTEGER 4 0 0 0 INTEGER ()) 0 0
() (CONSTANT (INTEGER 4 0 0 0 INTEGER ()) 0 '-1') () 0 () () () 0 0)
3 'mpi_character' 'm_mpif' '' 1 ((PARAMETER UNKNOWN-INTENT UNKNOWN-PROC
UNKNOWN IMPLICIT-SAVE 0 0) (INTEGER 4 0 0 0 INTEGER ()) 0 0 () (
CONSTANT (INTEGER 4 0 0 0 INTEGER ()) 0 '1') () 0 () () () 0 0)
4 'mpi_comm_null' 'm_mpif' '' 1 ((PARAMETER UNKNOWN-INTENT UNKNOWN-PROC
UNKNOWN IMPLICIT-SAVE 0 0) (INTEGER 4 0 0 0 INTEGER ()) 0 0 () (
CONSTANT (INTEGER 4 0 0 0 INTEGER ()) 0 '0') () 0 () () () 0 0)
5 'mpi_comm_world' 'm_mpif' '' 1 ((PARAMETER UNKNOWN-INTENT UNKNOWN-PROC
UNKNOWN IMPLICIT-SAVE 0 0) (INTEGER 4 0 0 0 INTEGER ()) 0 0 () (
CONSTANT (INTEGER 4 0 0 0 INTEGER ()) 0 '1') () 0 () () () 0 0)
6 'mpi_double_precision' 'm_mpif' '' 1 ((PARAMETER UNKNOWN-INTENT
UNKNOWN-PROC UNKNOWN IMPLICIT-SAVE 0 0) (INTEGER 4 0 0 0 INTEGER ()) 0 0
() (CONSTANT (INTEGER 4 0 0 0 INTEGER ()) 0 '8') () 0 () () () 0 0)
7 'mpi_integer' 'm_mpif' '' 1 ((PARAMETER UNKNOWN-INTENT UNKNOWN-PROC
UNKNOWN IMPLICIT-SAVE 0 0) (INTEGER 4 0 0 0 INTEGER ()) 0 0 () (
CONSTANT (INTEGER 4 0 0 0 INTEGER ()) 0 '4') () 0 () () () 0 0)
8 'mpi_logical' 'm_mpif' '' 1 ((PARAMETER UNKNOWN-INTENT UNKNOWN-PROC
UNKNOWN IMPLICIT-SAVE 0 0) (INTEGER 4 0 0 0 INTEGER ()) 0 0 () (
CONSTANT (INTEGER 4 0 0 0 INTEGER ()) 0 '4') () 0 () () () 0 0)
9 'mpi_max' 'm_mpif' '' 1 ((VARIABLE UNKNOWN-INTENT UNKNOWN-PROC UNKNOWN
UNKNOWN 0 0) (INTEGER 4 0 0 0 INTEGER ()) 0 0 () () 0 () () () 0 0)
10 'mpi_max_error_string' 'm_mpif' '' 1 ((PARAMETER UNKNOWN-INTENT
UNKNOWN-PROC UNKNOWN IMPLICIT-SAVE 0 0) (INTEGER 4 0 0 0 INTEGER ()) 0 0
() (CONSTANT (INTEGER 4 0 0 0 INTEGER ()) 0 '128') () 0 () () () 0 0)
11 'mpi_min' 'm_mpif' '' 1 ((VARIABLE UNKNOWN-INTENT UNKNOWN-PROC
UNKNOWN UNKNOWN 0 0) (INTEGER 4 0 0 0 INTEGER ()) 0 0 () () 0 () () () 0
0)
12 'mpi_prod' 'm_mpif' '' 1 ((VARIABLE UNKNOWN-INTENT UNKNOWN-PROC
UNKNOWN UNKNOWN 0 0) (INTEGER 4 0 0 0 INTEGER ()) 0 0 () () 0 () () () 0
0)
13 'mpi_real' 'm_mpif' '' 1 ((PARAMETER UNKNOWN-INTENT UNKNOWN-PROC
UNKNOWN IMPLICIT-SAVE 0 0) (INTEGER 4 0 0 0 INTEGER ()) 0 0 () (
CONSTANT (INTEGER 4 0 0 0 INTEGER ()) 0 '4') () 0 () () () 0 0)
14 'mpi_real4' 'm_mpif' '' 1 ((PARAMETER UNKNOWN-INTENT UNKNOWN-PROC
UNKNOWN IMPLICIT-SAVE 0 0) (INTEGER 4 0 0 0 INTEGER ()) 0 0 () (
CONSTANT (INTEGER 4 0 0 0 INTEGER ()) 0 '4') () 0 () () () 0 0)
15 'mpi_real8' 'm_mpif' '' 1 ((PARAMETER UNKNOWN-INTENT UNKNOWN-PROC
UNKNOWN IMPLICIT-SAVE 0 0) (INTEGER 4 0 0 0 INTEGER ()) 0 0 () (
CONSTANT (INTEGER 4 0 0 0 INTEGER ()) 0 '8') () 0 () () () 0 0)
16 'mpi_status_size' 'm_mpif' '' 1 ((PARAMETER UNKNOWN-INTENT
UNKNOWN-PROC UNKNOWN IMPLICIT-SAVE 0 0) (INTEGER 4 0 0 0 INTEGER ()) 0 0
() (CONSTANT (INTEGER 4 0 0 0 INTEGER ()) 0 '3') () 0 () () () 0 0)
17 'mpi_sum' 'm_mpif' '' 1 ((VARIABLE UNKNOWN-INTENT UNKNOWN-PROC
UNKNOWN UNKNOWN 0 0) (INTEGER 4 0 0 0 INTEGER ()) 0 0 () () 0 () () () 0
0)
)

('mpi_any_source' 0 2 'mpi_character' 0 3 'mpi_comm_null' 0 4
'mpi_comm_world' 0 5 'mpi_double_precision' 0 6 'mpi_integer' 0 7
'mpi_logical' 0 8 'mpi_max' 0 9 'mpi_max_error_string' 0 10 'mpi_min' 0
11 'mpi_prod' 0 12 'mpi_real' 0 13 'mpi_real4' 0 14 'mpi_real8' 0 15
'mpi_status_size' 0 16 'mpi_sum' 0 17)
