GFORTRAN module version '10' created from /Users/f9y/mygit/clm4_coupled/models/utils/mct/mpeu/m_mpif90.F90
MD5:9b33e19e92b59fafa6f987016db70d20 -- If you edit this, you'll get what you deserve.

(() () () () () () () () () () () () () () () () () () () () () () ()
() () () ())

()

(('mp_abort' 'm_mpif90' 2) ('mp_cart_coords' 'm_mpif90' 3) (
'mp_cart_create' 'm_mpif90' 4) ('mp_cart_rank' 'm_mpif90' 5) (
'mp_comm_dup' 'm_mpif90' 6) ('mp_comm_free' 'm_mpif90' 7) ('mp_comm_rank'
'm_mpif90' 8) ('mp_comm_size' 'm_mpif90' 9) ('mp_dims_create' 'm_mpif90'
10) ('mp_error_string' 'm_mpif90' 11) ('mp_finalize' 'm_mpif90' 12) (
'mp_init' 'm_mpif90' 13) ('mp_initialized' 'm_mpif90' 14) ('mp_perr'
'm_mpif90' 15) ('mp_type' 'm_mpif90' 16 17 18 19 20 21 22 23 24 25 26 27
28 29 30) ('mp_wtick' 'm_mpif90' 31) ('mp_wtime' 'm_mpif90' 32))

()

()

()

(33 'mp_abort' 'm_mpif90' '' 1 ((PROCEDURE UNKNOWN-INTENT UNKNOWN-PROC
UNKNOWN UNKNOWN 0 0 SUBROUTINE GENERIC) (UNKNOWN 0 0 0 0 UNKNOWN ()) 0 0
() () 0 () () () 0 0)
34 'mpi_any_source' 'm_mpif' '' 1 ((PARAMETER UNKNOWN-INTENT
UNKNOWN-PROC UNKNOWN IMPLICIT-SAVE 0 0) (INTEGER 4 0 0 0 INTEGER ()) 0 0
() (CONSTANT (INTEGER 4 0 0 0 INTEGER ()) 0 '-1') () 0 () () () 0 0)
35 'mp_cart_coords' 'm_mpif90' '' 1 ((PROCEDURE UNKNOWN-INTENT
UNKNOWN-PROC UNKNOWN UNKNOWN 0 0 SUBROUTINE GENERIC) (UNKNOWN 0 0 0 0
UNKNOWN ()) 0 0 () () 0 () () () 0 0)
36 'mp_cart_create' 'm_mpif90' '' 1 ((PROCEDURE UNKNOWN-INTENT
UNKNOWN-PROC UNKNOWN UNKNOWN 0 0 SUBROUTINE GENERIC) (UNKNOWN 0 0 0 0
UNKNOWN ()) 0 0 () () 0 () () () 0 0)
37 'mp_cart_rank' 'm_mpif90' '' 1 ((PROCEDURE UNKNOWN-INTENT
UNKNOWN-PROC UNKNOWN UNKNOWN 0 0 SUBROUTINE GENERIC) (UNKNOWN 0 0 0 0
UNKNOWN ()) 0 0 () () 0 () () () 0 0)
38 'mpi_character' 'm_mpif' '' 1 ((PARAMETER UNKNOWN-INTENT UNKNOWN-PROC
UNKNOWN IMPLICIT-SAVE 0 0) (INTEGER 4 0 0 0 INTEGER ()) 0 0 () (
CONSTANT (INTEGER 4 0 0 0 INTEGER ()) 0 '1') () 0 () () () 0 0)
39 'mp_comm_dup' 'm_mpif90' '' 1 ((PROCEDURE UNKNOWN-INTENT UNKNOWN-PROC
UNKNOWN UNKNOWN 0 0 SUBROUTINE GENERIC) (UNKNOWN 0 0 0 0 UNKNOWN ()) 0 0
() () 0 () () () 0 0)
40 'mp_comm_free' 'm_mpif90' '' 1 ((PROCEDURE UNKNOWN-INTENT
UNKNOWN-PROC UNKNOWN UNKNOWN 0 0 SUBROUTINE GENERIC) (UNKNOWN 0 0 0 0
UNKNOWN ()) 0 0 () () 0 () () () 0 0)
41 'mpi_comm_null' 'm_mpif' '' 1 ((PARAMETER UNKNOWN-INTENT UNKNOWN-PROC
UNKNOWN IMPLICIT-SAVE 0 0) (INTEGER 4 0 0 0 INTEGER ()) 0 0 () (
CONSTANT (INTEGER 4 0 0 0 INTEGER ()) 0 '0') () 0 () () () 0 0)
42 'mp_comm_rank' 'm_mpif90' '' 1 ((PROCEDURE UNKNOWN-INTENT
UNKNOWN-PROC UNKNOWN UNKNOWN 0 0 SUBROUTINE GENERIC) (UNKNOWN 0 0 0 0
UNKNOWN ()) 0 0 () () 0 () () () 0 0)
43 'mp_comm_size' 'm_mpif90' '' 1 ((PROCEDURE UNKNOWN-INTENT
UNKNOWN-PROC UNKNOWN UNKNOWN 0 0 SUBROUTINE GENERIC) (UNKNOWN 0 0 0 0
UNKNOWN ()) 0 0 () () 0 () () () 0 0)
44 'mpi_comm_world' 'm_mpif' '' 1 ((PARAMETER UNKNOWN-INTENT
UNKNOWN-PROC UNKNOWN IMPLICIT-SAVE 0 0) (INTEGER 4 0 0 0 INTEGER ()) 0 0
() (CONSTANT (INTEGER 4 0 0 0 INTEGER ()) 0 '1') () 0 () () () 0 0)
45 'mp_dims_create' 'm_mpif90' '' 1 ((PROCEDURE UNKNOWN-INTENT
UNKNOWN-PROC UNKNOWN UNKNOWN 0 0 SUBROUTINE GENERIC) (UNKNOWN 0 0 0 0
UNKNOWN ()) 0 0 () () 0 () () () 0 0)
46 'mpi_double_precision' 'm_mpif' '' 1 ((PARAMETER UNKNOWN-INTENT
UNKNOWN-PROC UNKNOWN IMPLICIT-SAVE 0 0) (INTEGER 4 0 0 0 INTEGER ()) 0 0
() (CONSTANT (INTEGER 4 0 0 0 INTEGER ()) 0 '8') () 0 () () () 0 0)
47 'mp_error_string' 'm_mpif90' '' 1 ((PROCEDURE UNKNOWN-INTENT
UNKNOWN-PROC UNKNOWN UNKNOWN 0 0 SUBROUTINE GENERIC) (UNKNOWN 0 0 0 0
UNKNOWN ()) 0 0 () () 0 () () () 0 0)
48 'mp_finalize' 'm_mpif90' '' 1 ((PROCEDURE UNKNOWN-INTENT UNKNOWN-PROC
UNKNOWN UNKNOWN 0 0 SUBROUTINE GENERIC) (UNKNOWN 0 0 0 0 UNKNOWN ()) 0 0
() () 0 () () () 0 0)
49 'mp_init' 'm_mpif90' '' 1 ((PROCEDURE UNKNOWN-INTENT UNKNOWN-PROC
UNKNOWN UNKNOWN 0 0 SUBROUTINE GENERIC) (UNKNOWN 0 0 0 0 UNKNOWN ()) 0 0
() () 0 () () () 0 0)
50 'mp_initialized' 'm_mpif90' '' 1 ((PROCEDURE UNKNOWN-INTENT
UNKNOWN-PROC UNKNOWN UNKNOWN 0 0 SUBROUTINE GENERIC) (UNKNOWN 0 0 0 0
UNKNOWN ()) 0 0 () () 0 () () () 0 0)
51 'mpi_integer' 'm_mpif' '' 1 ((PARAMETER UNKNOWN-INTENT UNKNOWN-PROC
UNKNOWN IMPLICIT-SAVE 0 0) (INTEGER 4 0 0 0 INTEGER ()) 0 0 () (
CONSTANT (INTEGER 4 0 0 0 INTEGER ()) 0 '4') () 0 () () () 0 0)
52 'mp_log2' 'm_mpif90' '' 1 ((PROCEDURE UNKNOWN-INTENT MODULE-PROC DECL
UNKNOWN 0 0 FUNCTION IMPLICIT_PURE) (INTEGER 4 0 0 0 INTEGER ()) 53 0 (
54) () 52 () () () 0 0)
55 'mpi_logical' 'm_mpif' '' 1 ((PARAMETER UNKNOWN-INTENT UNKNOWN-PROC
UNKNOWN IMPLICIT-SAVE 0 0) (INTEGER 4 0 0 0 INTEGER ()) 0 0 () (
CONSTANT (INTEGER 4 0 0 0 INTEGER ()) 0 '4') () 0 () () () 0 0)
56 'mpi_max' 'm_mpif' '' 1 ((VARIABLE UNKNOWN-INTENT UNKNOWN-PROC
UNKNOWN UNKNOWN 0 0) (INTEGER 4 0 0 0 INTEGER ()) 0 0 () () 0 () () () 0
0)
57 'mpi_max_error_string' 'm_mpif' '' 1 ((PARAMETER UNKNOWN-INTENT
UNKNOWN-PROC UNKNOWN IMPLICIT-SAVE 0 0) (INTEGER 4 0 0 0 INTEGER ()) 0 0
() (CONSTANT (INTEGER 4 0 0 0 INTEGER ()) 0 '128') () 0 () () () 0 0)
58 'mpi_min' 'm_mpif' '' 1 ((VARIABLE UNKNOWN-INTENT UNKNOWN-PROC
UNKNOWN UNKNOWN 0 0) (INTEGER 4 0 0 0 INTEGER ()) 0 0 () () 0 () () () 0
0)
59 'mpi_prod' 'm_mpif' '' 1 ((VARIABLE UNKNOWN-INTENT UNKNOWN-PROC
UNKNOWN UNKNOWN 0 0) (INTEGER 4 0 0 0 INTEGER ()) 0 0 () () 0 () () () 0
0)
60 'mpi_real' 'm_mpif' '' 1 ((PARAMETER UNKNOWN-INTENT UNKNOWN-PROC
UNKNOWN IMPLICIT-SAVE 0 0) (INTEGER 4 0 0 0 INTEGER ()) 0 0 () (
CONSTANT (INTEGER 4 0 0 0 INTEGER ()) 0 '4') () 0 () () () 0 0)
61 'mpi_real4' 'm_mpif' '' 1 ((PARAMETER UNKNOWN-INTENT UNKNOWN-PROC
UNKNOWN IMPLICIT-SAVE 0 0) (INTEGER 4 0 0 0 INTEGER ()) 0 0 () (
CONSTANT (INTEGER 4 0 0 0 INTEGER ()) 0 '4') () 0 () () () 0 0)
62 'mpi_real8' 'm_mpif' '' 1 ((PARAMETER UNKNOWN-INTENT UNKNOWN-PROC
UNKNOWN IMPLICIT-SAVE 0 0) (INTEGER 4 0 0 0 INTEGER ()) 0 0 () (
CONSTANT (INTEGER 4 0 0 0 INTEGER ()) 0 '8') () 0 () () () 0 0)
63 'mp_status' 'm_mpif90' '' 1 ((VARIABLE UNKNOWN-INTENT UNKNOWN-PROC
UNKNOWN IMPLICIT-SAVE 0 0 DIMENSION) (INTEGER 4 0 0 0 INTEGER ()) 0 0 ()
(1 0 EXPLICIT (CONSTANT (INTEGER 4 0 0 0 INTEGER ()) 0 '1') (CONSTANT (
INTEGER 4 0 0 0 INTEGER ()) 0 '3')) 0 () () () 0 0)
64 'mpi_status_size' 'm_mpif' '' 1 ((PARAMETER UNKNOWN-INTENT
UNKNOWN-PROC UNKNOWN IMPLICIT-SAVE 0 0) (INTEGER 4 0 0 0 INTEGER ()) 0 0
() (CONSTANT (INTEGER 4 0 0 0 INTEGER ()) 0 '3') () 0 () () () 0 0)
65 'mpi_sum' 'm_mpif' '' 1 ((VARIABLE UNKNOWN-INTENT UNKNOWN-PROC
UNKNOWN UNKNOWN 0 0) (INTEGER 4 0 0 0 INTEGER ()) 0 0 () () 0 () () () 0
0)
66 'mp_wtick' 'm_mpif90' '' 1 ((PROCEDURE UNKNOWN-INTENT UNKNOWN-PROC
UNKNOWN UNKNOWN 0 0 FUNCTION GENERIC) (UNKNOWN 0 0 0 0 UNKNOWN ()) 0 0 ()
() 0 () () () 0 0)
67 'mp_wtime' 'm_mpif90' '' 1 ((PROCEDURE UNKNOWN-INTENT UNKNOWN-PROC
UNKNOWN UNKNOWN 0 0 FUNCTION GENERIC) (UNKNOWN 0 0 0 0 UNKNOWN ()) 0 0 ()
() 0 () () () 0 0)
2 'mpi_abort' 'm_mpif90' '' 1 ((PROCEDURE UNKNOWN-INTENT MODULE-PROC
BODY UNKNOWN 0 0 EXTERNAL SUBROUTINE) (UNKNOWN 0 0 0 0 UNKNOWN ()) 68 0
(69 70 71) () 0 () () () 0 0)
3 'mpi_cart_coords' 'm_mpif90' '' 1 ((PROCEDURE UNKNOWN-INTENT
MODULE-PROC BODY UNKNOWN 0 0 EXTERNAL SUBROUTINE) (UNKNOWN 0 0 0 0
UNKNOWN ()) 72 0 (73 74 75 76 77) () 0 () () () 0 0)
4 'mpi_cart_create' 'm_mpif90' '' 1 ((PROCEDURE UNKNOWN-INTENT
MODULE-PROC BODY UNKNOWN 0 0 EXTERNAL SUBROUTINE) (UNKNOWN 0 0 0 0
UNKNOWN ()) 78 0 (79 80 81 82 83 84 85) () 0 () () () 0 0)
5 'mpi_cart_rank' 'm_mpif90' '' 1 ((PROCEDURE UNKNOWN-INTENT MODULE-PROC
BODY UNKNOWN 0 0 EXTERNAL SUBROUTINE) (UNKNOWN 0 0 0 0 UNKNOWN ()) 86 0
(87 88 89 90) () 0 () () () 0 0)
6 'mpi_comm_dup' 'm_mpif90' '' 1 ((PROCEDURE UNKNOWN-INTENT MODULE-PROC
BODY UNKNOWN 0 0 EXTERNAL SUBROUTINE) (UNKNOWN 0 0 0 0 UNKNOWN ()) 91 0
(92 93 94) () 0 () () () 0 0)
7 'mpi_comm_free' 'm_mpif90' '' 1 ((PROCEDURE UNKNOWN-INTENT MODULE-PROC
BODY UNKNOWN 0 0 EXTERNAL SUBROUTINE) (UNKNOWN 0 0 0 0 UNKNOWN ()) 95 0
(96 97) () 0 () () () 0 0)
8 'mpi_comm_rank' 'm_mpif90' '' 1 ((PROCEDURE UNKNOWN-INTENT MODULE-PROC
BODY UNKNOWN 0 0 EXTERNAL SUBROUTINE) (UNKNOWN 0 0 0 0 UNKNOWN ()) 98 0
(99 100 101) () 0 () () () 0 0)
9 'mpi_comm_size' 'm_mpif90' '' 1 ((PROCEDURE UNKNOWN-INTENT MODULE-PROC
BODY UNKNOWN 0 0 EXTERNAL SUBROUTINE) (UNKNOWN 0 0 0 0 UNKNOWN ()) 102 0
(103 104 105) () 0 () () () 0 0)
10 'mpi_dims_create' 'm_mpif90' '' 1 ((PROCEDURE UNKNOWN-INTENT
MODULE-PROC BODY UNKNOWN 0 0 EXTERNAL SUBROUTINE) (UNKNOWN 0 0 0 0
UNKNOWN ()) 106 0 (107 108 109 110) () 0 () () () 0 0)
11 'mpi_error_string' 'm_mpif90' '' 1 ((PROCEDURE UNKNOWN-INTENT
MODULE-PROC BODY UNKNOWN 0 0 EXTERNAL SUBROUTINE) (UNKNOWN 0 0 0 0
UNKNOWN ()) 111 0 (112 113 114 115) () 0 () () () 0 0)
12 'mpi_finalize' 'm_mpif90' '' 1 ((PROCEDURE UNKNOWN-INTENT MODULE-PROC
BODY UNKNOWN 0 0 EXTERNAL SUBROUTINE) (UNKNOWN 0 0 0 0 UNKNOWN ()) 116 0
(117) () 0 () () () 0 0)
13 'mpi_init' 'm_mpif90' '' 1 ((PROCEDURE UNKNOWN-INTENT MODULE-PROC
BODY UNKNOWN 0 0 EXTERNAL SUBROUTINE) (UNKNOWN 0 0 0 0 UNKNOWN ()) 118 0
(119) () 0 () () () 0 0)
14 'mpi_initialized' 'm_mpif90' '' 1 ((PROCEDURE UNKNOWN-INTENT
MODULE-PROC BODY UNKNOWN 0 0 EXTERNAL SUBROUTINE) (UNKNOWN 0 0 0 0
UNKNOWN ()) 120 0 (121 122) () 0 () () () 0 0)
15 'perr_' 'm_mpif90' '' 1 ((PROCEDURE UNKNOWN-INTENT MODULE-PROC DECL
UNKNOWN 0 0 SUBROUTINE) (UNKNOWN 0 0 0 0 UNKNOWN ()) 123 0 (124 125 126)
() 0 () () () 0 0)
16 'typedp2_' 'm_mpif90' '' 1 ((PROCEDURE UNKNOWN-INTENT MODULE-PROC
DECL UNKNOWN 0 0 FUNCTION IMPLICIT_PURE ALWAYS_EXPLICIT) (INTEGER 4 0 0
0 INTEGER ()) 127 0 (128) () 16 () () () 0 0)
17 'typesp2_' 'm_mpif90' '' 1 ((PROCEDURE UNKNOWN-INTENT MODULE-PROC
DECL UNKNOWN 0 0 FUNCTION IMPLICIT_PURE ALWAYS_EXPLICIT) (INTEGER 4 0 0
0 INTEGER ()) 129 0 (130) () 17 () () () 0 0)
18 'typec2_' 'm_mpif90' '' 1 ((PROCEDURE UNKNOWN-INTENT MODULE-PROC DECL
UNKNOWN 0 0 FUNCTION IMPLICIT_PURE ALWAYS_EXPLICIT) (INTEGER 4 0 0 0
INTEGER ()) 131 0 (132) () 18 () () () 0 0)
19 'typel2_' 'm_mpif90' '' 1 ((PROCEDURE UNKNOWN-INTENT MODULE-PROC DECL
UNKNOWN 0 0 FUNCTION IMPLICIT_PURE ALWAYS_EXPLICIT) (INTEGER 4 0 0 0
INTEGER ()) 133 0 (134) () 19 () () () 0 0)
20 'typei2_' 'm_mpif90' '' 1 ((PROCEDURE UNKNOWN-INTENT MODULE-PROC DECL
UNKNOWN 0 0 FUNCTION IMPLICIT_PURE ALWAYS_EXPLICIT) (INTEGER 4 0 0 0
INTEGER ()) 135 0 (136) () 20 () () () 0 0)
21 'typedp1_' 'm_mpif90' '' 1 ((PROCEDURE UNKNOWN-INTENT MODULE-PROC
DECL UNKNOWN 0 0 FUNCTION IMPLICIT_PURE ALWAYS_EXPLICIT) (INTEGER 4 0 0
0 INTEGER ()) 137 0 (138) () 21 () () () 0 0)
22 'typesp1_' 'm_mpif90' '' 1 ((PROCEDURE UNKNOWN-INTENT MODULE-PROC
DECL UNKNOWN 0 0 FUNCTION IMPLICIT_PURE ALWAYS_EXPLICIT) (INTEGER 4 0 0
0 INTEGER ()) 139 0 (140) () 22 () () () 0 0)
23 'typec1_' 'm_mpif90' '' 1 ((PROCEDURE UNKNOWN-INTENT MODULE-PROC DECL
UNKNOWN 0 0 FUNCTION IMPLICIT_PURE ALWAYS_EXPLICIT) (INTEGER 4 0 0 0
INTEGER ()) 141 0 (142) () 23 () () () 0 0)
24 'typel1_' 'm_mpif90' '' 1 ((PROCEDURE UNKNOWN-INTENT MODULE-PROC DECL
UNKNOWN 0 0 FUNCTION IMPLICIT_PURE ALWAYS_EXPLICIT) (INTEGER 4 0 0 0
INTEGER ()) 143 0 (144) () 24 () () () 0 0)
25 'typei1_' 'm_mpif90' '' 1 ((PROCEDURE UNKNOWN-INTENT MODULE-PROC DECL
UNKNOWN 0 0 FUNCTION IMPLICIT_PURE ALWAYS_EXPLICIT) (INTEGER 4 0 0 0
INTEGER ()) 145 0 (146) () 25 () () () 0 0)
26 'typedp_' 'm_mpif90' '' 1 ((PROCEDURE UNKNOWN-INTENT MODULE-PROC DECL
UNKNOWN 0 0 FUNCTION IMPLICIT_PURE) (INTEGER 4 0 0 0 INTEGER ()) 147 0 (
148) () 26 () () () 0 0)
27 'typesp_' 'm_mpif90' '' 1 ((PROCEDURE UNKNOWN-INTENT MODULE-PROC DECL
UNKNOWN 0 0 FUNCTION IMPLICIT_PURE) (INTEGER 4 0 0 0 INTEGER ()) 149 0 (
150) () 27 () () () 0 0)
28 'typec_' 'm_mpif90' '' 1 ((PROCEDURE UNKNOWN-INTENT MODULE-PROC DECL
UNKNOWN 0 0 FUNCTION IMPLICIT_PURE) (INTEGER 4 0 0 0 INTEGER ()) 151 0 (
152) () 28 () () () 0 0)
29 'typel_' 'm_mpif90' '' 1 ((PROCEDURE UNKNOWN-INTENT MODULE-PROC DECL
UNKNOWN 0 0 FUNCTION IMPLICIT_PURE) (INTEGER 4 0 0 0 INTEGER ()) 153 0 (
154) () 29 () () () 0 0)
30 'typei_' 'm_mpif90' '' 1 ((PROCEDURE UNKNOWN-INTENT MODULE-PROC DECL
UNKNOWN 0 0 FUNCTION IMPLICIT_PURE) (INTEGER 4 0 0 0 INTEGER ()) 155 0 (
156) () 30 () () () 0 0)
31 'mpi_wtick' 'm_mpif90' '' 1 ((PROCEDURE UNKNOWN-INTENT MODULE-PROC
BODY UNKNOWN 0 0 EXTERNAL FUNCTION) (REAL 8 0 0 0 REAL ()) 157 0 () ()
31 () () () 0 0)
32 'mpi_wtime' 'm_mpif90' '' 1 ((PROCEDURE UNKNOWN-INTENT MODULE-PROC
BODY UNKNOWN 0 0 EXTERNAL FUNCTION) (REAL 8 0 0 0 REAL ()) 158 0 () ()
32 () () () 0 0)
54 'npe' '' '' 53 ((VARIABLE IN UNKNOWN-PROC UNKNOWN UNKNOWN 0 0 DUMMY)
(INTEGER 4 0 0 0 INTEGER ()) 0 0 () () 0 () () () 0 0)
69 'comm' '' '' 68 ((VARIABLE IN UNKNOWN-PROC UNKNOWN UNKNOWN 0 0 DUMMY)
(INTEGER 4 0 0 0 INTEGER ()) 0 0 () () 0 () () () 0 0)
70 'errorcode' '' '' 68 ((VARIABLE IN UNKNOWN-PROC UNKNOWN UNKNOWN 0 0
DUMMY) (INTEGER 4 0 0 0 INTEGER ()) 0 0 () () 0 () () () 0 0)
71 'ier' '' '' 68 ((VARIABLE OUT UNKNOWN-PROC UNKNOWN UNKNOWN 0 0 DUMMY)
(INTEGER 4 0 0 0 INTEGER ()) 0 0 () () 0 () () () 0 0)
73 'comm' '' '' 72 ((VARIABLE IN UNKNOWN-PROC UNKNOWN UNKNOWN 0 0 DUMMY)
(INTEGER 4 0 0 0 INTEGER ()) 0 0 () () 0 () () () 0 0)
74 'rank' '' '' 72 ((VARIABLE IN UNKNOWN-PROC UNKNOWN UNKNOWN 0 0 DUMMY)
(INTEGER 4 0 0 0 INTEGER ()) 0 0 () () 0 () () () 0 0)
75 'maxdims' '' '' 72 ((VARIABLE IN UNKNOWN-PROC UNKNOWN UNKNOWN 0 0
DUMMY) (INTEGER 4 0 0 0 INTEGER ()) 0 0 () () 0 () () () 0 0)
76 'coords' '' '' 72 ((VARIABLE OUT UNKNOWN-PROC UNKNOWN UNKNOWN 0 0
DIMENSION DUMMY) (INTEGER 4 0 0 0 INTEGER ()) 0 0 () (1 0 ASSUMED_SIZE (
CONSTANT (INTEGER 4 0 0 0 INTEGER ()) 0 '1') ()) 0 () () () 0 0)
77 'ier' '' '' 72 ((VARIABLE OUT UNKNOWN-PROC UNKNOWN UNKNOWN 0 0 DUMMY)
(INTEGER 4 0 0 0 INTEGER ()) 0 0 () () 0 () () () 0 0)
79 'comm_old' '' '' 78 ((VARIABLE IN UNKNOWN-PROC UNKNOWN UNKNOWN 0 0
DUMMY) (INTEGER 4 0 0 0 INTEGER ()) 0 0 () () 0 () () () 0 0)
80 'ndims' '' '' 78 ((VARIABLE IN UNKNOWN-PROC UNKNOWN UNKNOWN 0 0 DUMMY)
(INTEGER 4 0 0 0 INTEGER ()) 0 0 () () 0 () () () 0 0)
81 'dims' '' '' 78 ((VARIABLE IN UNKNOWN-PROC UNKNOWN UNKNOWN 0 0
DIMENSION DUMMY) (INTEGER 4 0 0 0 INTEGER ()) 0 0 () (1 0 ASSUMED_SIZE (
CONSTANT (INTEGER 4 0 0 0 INTEGER ()) 0 '1') ()) 0 () () () 0 0)
82 'periods' '' '' 78 ((VARIABLE IN UNKNOWN-PROC UNKNOWN UNKNOWN 0 0
DIMENSION DUMMY) (LOGICAL 4 0 0 0 LOGICAL ()) 0 0 () (1 0 ASSUMED_SIZE (
CONSTANT (INTEGER 4 0 0 0 INTEGER ()) 0 '1') ()) 0 () () () 0 0)
83 'reorder' '' '' 78 ((VARIABLE IN UNKNOWN-PROC UNKNOWN UNKNOWN 0 0
DUMMY) (LOGICAL 4 0 0 0 LOGICAL ()) 0 0 () () 0 () () () 0 0)
84 'comm_cart' '' '' 78 ((VARIABLE OUT UNKNOWN-PROC UNKNOWN UNKNOWN 0 0
DUMMY) (INTEGER 4 0 0 0 INTEGER ()) 0 0 () () 0 () () () 0 0)
85 'ier' '' '' 78 ((VARIABLE OUT UNKNOWN-PROC UNKNOWN UNKNOWN 0 0 DUMMY)
(INTEGER 4 0 0 0 INTEGER ()) 0 0 () () 0 () () () 0 0)
87 'comm' '' '' 86 ((VARIABLE IN UNKNOWN-PROC UNKNOWN UNKNOWN 0 0 DUMMY)
(INTEGER 4 0 0 0 INTEGER ()) 0 0 () () 0 () () () 0 0)
88 'coords' '' '' 86 ((VARIABLE IN UNKNOWN-PROC UNKNOWN UNKNOWN 0 0
DIMENSION DUMMY) (INTEGER 4 0 0 0 INTEGER ()) 0 0 () (1 0 ASSUMED_SIZE (
CONSTANT (INTEGER 4 0 0 0 INTEGER ()) 0 '1') ()) 0 () () () 0 0)
89 'rank' '' '' 86 ((VARIABLE OUT UNKNOWN-PROC UNKNOWN UNKNOWN 0 0 DUMMY)
(INTEGER 4 0 0 0 INTEGER ()) 0 0 () () 0 () () () 0 0)
90 'ier' '' '' 86 ((VARIABLE OUT UNKNOWN-PROC UNKNOWN UNKNOWN 0 0 DUMMY)
(INTEGER 4 0 0 0 INTEGER ()) 0 0 () () 0 () () () 0 0)
92 'comm' '' '' 91 ((VARIABLE IN UNKNOWN-PROC UNKNOWN UNKNOWN 0 0 DUMMY)
(INTEGER 4 0 0 0 INTEGER ()) 0 0 () () 0 () () () 0 0)
93 'newcomm' '' '' 91 ((VARIABLE OUT UNKNOWN-PROC UNKNOWN UNKNOWN 0 0
DUMMY) (INTEGER 4 0 0 0 INTEGER ()) 0 0 () () 0 () () () 0 0)
94 'ier' '' '' 91 ((VARIABLE OUT UNKNOWN-PROC UNKNOWN UNKNOWN 0 0 DUMMY)
(INTEGER 4 0 0 0 INTEGER ()) 0 0 () () 0 () () () 0 0)
96 'comm' '' '' 95 ((VARIABLE INOUT UNKNOWN-PROC UNKNOWN UNKNOWN 0 0
DUMMY) (INTEGER 4 0 0 0 INTEGER ()) 0 0 () () 0 () () () 0 0)
97 'ier' '' '' 95 ((VARIABLE OUT UNKNOWN-PROC UNKNOWN UNKNOWN 0 0 DUMMY)
(INTEGER 4 0 0 0 INTEGER ()) 0 0 () () 0 () () () 0 0)
99 'comm' '' '' 98 ((VARIABLE IN UNKNOWN-PROC UNKNOWN UNKNOWN 0 0 DUMMY)
(INTEGER 4 0 0 0 INTEGER ()) 0 0 () () 0 () () () 0 0)
100 'rank' '' '' 98 ((VARIABLE OUT UNKNOWN-PROC UNKNOWN UNKNOWN 0 0
DUMMY) (INTEGER 4 0 0 0 INTEGER ()) 0 0 () () 0 () () () 0 0)
101 'ier' '' '' 98 ((VARIABLE OUT UNKNOWN-PROC UNKNOWN UNKNOWN 0 0 DUMMY)
(INTEGER 4 0 0 0 INTEGER ()) 0 0 () () 0 () () () 0 0)
103 'comm' '' '' 102 ((VARIABLE IN UNKNOWN-PROC UNKNOWN UNKNOWN 0 0
DUMMY) (INTEGER 4 0 0 0 INTEGER ()) 0 0 () () 0 () () () 0 0)
104 'size' '' '' 102 ((VARIABLE OUT UNKNOWN-PROC UNKNOWN UNKNOWN 0 0
DUMMY) (INTEGER 4 0 0 0 INTEGER ()) 0 0 () () 0 () () () 0 0)
105 'ier' '' '' 102 ((VARIABLE OUT UNKNOWN-PROC UNKNOWN UNKNOWN 0 0
DUMMY) (INTEGER 4 0 0 0 INTEGER ()) 0 0 () () 0 () () () 0 0)
107 'nnodes' '' '' 106 ((VARIABLE IN UNKNOWN-PROC UNKNOWN UNKNOWN 0 0
DUMMY) (INTEGER 4 0 0 0 INTEGER ()) 0 0 () () 0 () () () 0 0)
108 'ndims' '' '' 106 ((VARIABLE IN UNKNOWN-PROC UNKNOWN UNKNOWN 0 0
DUMMY) (INTEGER 4 0 0 0 INTEGER ()) 0 0 () () 0 () () () 0 0)
109 'dims' '' '' 106 ((VARIABLE INOUT UNKNOWN-PROC UNKNOWN UNKNOWN 0 0
DIMENSION DUMMY) (INTEGER 4 0 0 0 INTEGER ()) 0 0 () (1 0 ASSUMED_SIZE (
CONSTANT (INTEGER 4 0 0 0 INTEGER ()) 0 '1') ()) 0 () () () 0 0)
110 'ier' '' '' 106 ((VARIABLE OUT UNKNOWN-PROC UNKNOWN UNKNOWN 0 0
DUMMY) (INTEGER 4 0 0 0 INTEGER ()) 0 0 () () 0 () () () 0 0)
112 'ierror' '' '' 111 ((VARIABLE IN UNKNOWN-PROC UNKNOWN UNKNOWN 0 0
DUMMY) (INTEGER 4 0 0 0 INTEGER ()) 0 0 () () 0 () () () 0 0)
113 'cerror' '' '' 111 ((VARIABLE OUT UNKNOWN-PROC UNKNOWN UNKNOWN 0 0
DUMMY) (CHARACTER 1 0 0 0 CHARACTER (())) 0 0 () () 0 () () () 0 0)
114 'ln' '' '' 111 ((VARIABLE OUT UNKNOWN-PROC UNKNOWN UNKNOWN 0 0 DUMMY)
(INTEGER 4 0 0 0 INTEGER ()) 0 0 () () 0 () () () 0 0)
115 'ier' '' '' 111 ((VARIABLE OUT UNKNOWN-PROC UNKNOWN UNKNOWN 0 0
DUMMY) (INTEGER 4 0 0 0 INTEGER ()) 0 0 () () 0 () () () 0 0)
117 'ier' '' '' 116 ((VARIABLE OUT UNKNOWN-PROC UNKNOWN UNKNOWN 0 0
DUMMY) (INTEGER 4 0 0 0 INTEGER ()) 0 0 () () 0 () () () 0 0)
119 'ier' '' '' 118 ((VARIABLE OUT UNKNOWN-PROC UNKNOWN UNKNOWN 0 0
DUMMY) (INTEGER 4 0 0 0 INTEGER ()) 0 0 () () 0 () () () 0 0)
121 'flag' '' '' 120 ((VARIABLE OUT UNKNOWN-PROC UNKNOWN UNKNOWN 0 0
DUMMY) (LOGICAL 4 0 0 0 LOGICAL ()) 0 0 () () 0 () () () 0 0)
122 'ier' '' '' 120 ((VARIABLE OUT UNKNOWN-PROC UNKNOWN UNKNOWN 0 0
DUMMY) (INTEGER 4 0 0 0 INTEGER ()) 0 0 () () 0 () () () 0 0)
124 'proc' '' '' 123 ((VARIABLE IN UNKNOWN-PROC UNKNOWN UNKNOWN 0 0
DUMMY) (CHARACTER 1 0 0 0 CHARACTER (())) 0 0 () () 0 () () () 0 0)
125 'mp_proc' '' '' 123 ((VARIABLE IN UNKNOWN-PROC UNKNOWN UNKNOWN 0 0
DUMMY) (CHARACTER 1 0 0 0 CHARACTER (())) 0 0 () () 0 () () () 0 0)
126 'ierror' '' '' 123 ((VARIABLE IN UNKNOWN-PROC UNKNOWN UNKNOWN 0 0
DUMMY) (INTEGER 4 0 0 0 INTEGER ()) 0 0 () () 0 () () () 0 0)
128 'rval' '' '' 127 ((VARIABLE IN UNKNOWN-PROC UNKNOWN UNKNOWN 0 0
DIMENSION DUMMY) (REAL 8 0 0 0 REAL ()) 0 0 () (2 0 ASSUMED_SHAPE (
CONSTANT (INTEGER 4 0 0 0 INTEGER ()) 0 '1') () (CONSTANT (INTEGER 4 0 0
0 INTEGER ()) 0 '1') ()) 0 () () () 0 0)
130 'rval' '' '' 129 ((VARIABLE IN UNKNOWN-PROC UNKNOWN UNKNOWN 0 0
DIMENSION DUMMY) (REAL 4 0 0 0 REAL ()) 0 0 () (2 0 ASSUMED_SHAPE (
CONSTANT (INTEGER 4 0 0 0 INTEGER ()) 0 '1') () (CONSTANT (INTEGER 4 0 0
0 INTEGER ()) 0 '1') ()) 0 () () () 0 0)
132 'cval' '' '' 131 ((VARIABLE IN UNKNOWN-PROC UNKNOWN UNKNOWN 0 0
DIMENSION DUMMY) (CHARACTER 1 0 0 0 CHARACTER (())) 0 0 () (2 0
ASSUMED_SHAPE (CONSTANT (INTEGER 4 0 0 0 INTEGER ()) 0 '1') () (
CONSTANT (INTEGER 4 0 0 0 INTEGER ()) 0 '1') ()) 0 () () () 0 0)
134 'lval' '' '' 133 ((VARIABLE IN UNKNOWN-PROC UNKNOWN UNKNOWN 0 0
DIMENSION DUMMY) (LOGICAL 4 0 0 0 LOGICAL ()) 0 0 () (2 0 ASSUMED_SHAPE
(CONSTANT (INTEGER 4 0 0 0 INTEGER ()) 0 '1') () (CONSTANT (INTEGER 4 0
0 0 INTEGER ()) 0 '1') ()) 0 () () () 0 0)
136 'ival' '' '' 135 ((VARIABLE IN UNKNOWN-PROC UNKNOWN UNKNOWN 0 0
DIMENSION DUMMY) (INTEGER 4 0 0 0 INTEGER ()) 0 0 () (2 0 ASSUMED_SHAPE
(CONSTANT (INTEGER 4 0 0 0 INTEGER ()) 0 '1') () (CONSTANT (INTEGER 4 0
0 0 INTEGER ()) 0 '1') ()) 0 () () () 0 0)
138 'rval' '' '' 137 ((VARIABLE IN UNKNOWN-PROC UNKNOWN UNKNOWN 0 0
DIMENSION DUMMY) (REAL 8 0 0 0 REAL ()) 0 0 () (1 0 ASSUMED_SHAPE (
CONSTANT (INTEGER 4 0 0 0 INTEGER ()) 0 '1') ()) 0 () () () 0 0)
140 'rval' '' '' 139 ((VARIABLE IN UNKNOWN-PROC UNKNOWN UNKNOWN 0 0
DIMENSION DUMMY) (REAL 4 0 0 0 REAL ()) 0 0 () (1 0 ASSUMED_SHAPE (
CONSTANT (INTEGER 4 0 0 0 INTEGER ()) 0 '1') ()) 0 () () () 0 0)
142 'cval' '' '' 141 ((VARIABLE IN UNKNOWN-PROC UNKNOWN UNKNOWN 0 0
DIMENSION DUMMY) (CHARACTER 1 0 0 0 CHARACTER (())) 0 0 () (1 0
ASSUMED_SHAPE (CONSTANT (INTEGER 4 0 0 0 INTEGER ()) 0 '1') ()) 0 () ()
() 0 0)
144 'lval' '' '' 143 ((VARIABLE IN UNKNOWN-PROC UNKNOWN UNKNOWN 0 0
DIMENSION DUMMY) (LOGICAL 4 0 0 0 LOGICAL ()) 0 0 () (1 0 ASSUMED_SHAPE
(CONSTANT (INTEGER 4 0 0 0 INTEGER ()) 0 '1') ()) 0 () () () 0 0)
146 'ival' '' '' 145 ((VARIABLE IN UNKNOWN-PROC UNKNOWN UNKNOWN 0 0
DIMENSION DUMMY) (INTEGER 4 0 0 0 INTEGER ()) 0 0 () (1 0 ASSUMED_SHAPE
(CONSTANT (INTEGER 4 0 0 0 INTEGER ()) 0 '1') ()) 0 () () () 0 0)
148 'rval' '' '' 147 ((VARIABLE IN UNKNOWN-PROC UNKNOWN UNKNOWN 0 0
DUMMY) (REAL 8 0 0 0 REAL ()) 0 0 () () 0 () () () 0 0)
150 'rval' '' '' 149 ((VARIABLE IN UNKNOWN-PROC UNKNOWN UNKNOWN 0 0
DUMMY) (REAL 4 0 0 0 REAL ()) 0 0 () () 0 () () () 0 0)
152 'cval' '' '' 151 ((VARIABLE IN UNKNOWN-PROC UNKNOWN UNKNOWN 0 0
DUMMY) (CHARACTER 1 0 0 0 CHARACTER (())) 0 0 () () 0 () () () 0 0)
154 'lval' '' '' 153 ((VARIABLE IN UNKNOWN-PROC UNKNOWN UNKNOWN 0 0
DUMMY) (LOGICAL 4 0 0 0 LOGICAL ()) 0 0 () () 0 () () () 0 0)
156 'ival' '' '' 155 ((VARIABLE IN UNKNOWN-PROC UNKNOWN UNKNOWN 0 0
DUMMY) (INTEGER 4 0 0 0 INTEGER ()) 0 0 () () 0 () () () 0 0)
)

('mp_abort' 0 33 'mp_any_source' 0 34 'mp_cart_coords' 0 35
'mp_cart_create' 0 36 'mp_cart_rank' 0 37 'mp_character' 0 38
'mp_comm_dup' 0 39 'mp_comm_free' 0 40 'mp_comm_null' 0 41 'mp_comm_rank'
0 42 'mp_comm_size' 0 43 'mp_comm_world' 0 44 'mp_dims_create' 0 45
'mp_double_precision' 0 46 'mp_error_string' 0 47 'mp_finalize' 0 48
'mp_init' 0 49 'mp_initialized' 0 50 'mp_integer' 0 51 'mp_log2' 0 52
'mp_logical' 0 55 'mp_max' 0 56 'mp_max_error_string' 0 57 'mp_min' 0 58
'mp_prod' 0 59 'mp_real' 0 60 'mp_real4' 0 61 'mp_real8' 0 62 'mp_status'
0 63 'mp_status_size' 0 64 'mp_sum' 0 65 'mp_wtick' 0 66 'mp_wtime' 0 67)
