GFORTRAN module version '10' created from /Users/f9y/mygit/clm4_coupled/models/utils/mct/mpeu/m_stdio.F90
MD5:ed0e1f4dfe85955ee697d012bed3251a -- If you edit this, you'll get what you deserve.

(() () () () () () () () () () () () () () () () () () () () () () () ()
() () ())

()

()

()

()

()

(2 'len_filename' 'm_stdio' '' 1 ((PARAMETER UNKNOWN-INTENT UNKNOWN-PROC
UNKNOWN IMPLICIT-SAVE 0 0) (INTEGER 4 0 0 0 INTEGER ()) 0 0 () (
CONSTANT (INTEGER 4 0 0 0 INTEGER ()) 0 '128') () 0 () () () 0 0)
3 'stderr' 'm_stdio' '' 1 ((PARAMETER UNKNOWN-INTENT UNKNOWN-PROC
UNKNOWN IMPLICIT-SAVE 0 0) (INTEGER 4 0 0 0 INTEGER ()) 0 0 () (
CONSTANT (INTEGER 4 0 0 0 INTEGER ()) 0 '6') () 0 () () () 0 0)
4 'stdin' 'm_stdio' '' 1 ((PARAMETER UNKNOWN-INTENT UNKNOWN-PROC UNKNOWN
IMPLICIT-SAVE 0 0) (INTEGER 4 0 0 0 INTEGER ()) 0 0 () (CONSTANT (
INTEGER 4 0 0 0 INTEGER ()) 0 '5') () 0 () () () 0 0)
5 'stdout' 'm_stdio' '' 1 ((PARAMETER UNKNOWN-INTENT UNKNOWN-PROC
UNKNOWN IMPLICIT-SAVE 0 0) (INTEGER 4 0 0 0 INTEGER ()) 0 0 () (
CONSTANT (INTEGER 4 0 0 0 INTEGER ()) 0 '6') () 0 () () () 0 0)
)

('len_filename' 0 2 'stderr' 0 3 'stdin' 0 4 'stdout' 0 5)
